Place,Sex,Name,CyrillicName,BodyweightKg,Squat1Kg,Squat2Kg,Squat3Kg,Best3SquatKg,Squat4Kg,Bench1Kg,Bench2Kg,Bench3Kg,Best3BenchKg,Bench4Kg,Deadlift1Kg,Deadlift2Kg,Deadlift3Kg,Best3DeadliftKg,Deadlift4Kg,TotalKg,WeightClassKg,Event,Equipment,Tested,Division,Age,BirthDate
1,F,Marina Gromova,Марина Громова,55.4,92.5,97.5,100,100,,-65,65,-70,65,,90,100,107.5,107.5,,272.5,56,SBD,Wraps,Yes,Amateur Juniors,23,1994-11-17
1,F,Olga Tagankova,Ольга Таганкова,54.9,90,100,105,105,,37.5,42.5,45,45,,125,-130,132.5,132.5,,282.5,56,SBD,Wraps,Yes,Amateur Open,28,1990-04-14
1,F,Yana Kulikova,Яна Куликова,59.5,100,107.5,-112.5,107.5,,67.5,70,-75,70,,100,-110,-110,100,,277.5,60,SBD,Wraps,Yes,Amateur Juniors,22,1996-10-04
1,M,Dmitriy Kolomov,Дмитрий Коломов,90,-230,235,-242.5,235,,145,155,-160,155,,280,290,-307.5,290,,680,90,SBD,Wraps,Yes,Amateur Open,22,1996-07-02
2,M,Aleksey Bykov,Алексей Быков,85.8,180,195,-205,195,,130,145,-150,145,,-240,240,-252.5,240,,580,90,SBD,Wraps,Yes,Amateur Open,26,1992-05-30
3,M,Aleksandr Ivanov,Александр Иванов,90,190,200,-210,200,,135,145,150,150,,210,220,-230,220,,570,90,SBD,Wraps,Yes,Amateur Open,28,1990-06-26
4,M,Mikhail Kupriyanov,Михаил Куприянов,88.8,180,190,200,200,,125,135,140,140,,200,-210,220,220,,560,90,SBD,Wraps,Yes,Amateur Open,32,1985-11-20
DQ,M,Kirill Yagodzinskiy,Кирилл Ягодзинский,115.6,-165,-165,-165,,,,,,,,,,,,,,125,SBD,Wraps,Yes,Amateur Teen 14-16,16,2002-04-15
1,M,Evgeniy Kardapoltsev,Евгений Кардапольцев,137.3,230,250,260,260,,182.5,200,-215,200,,245,270,290,290,,750,140,SBD,Wraps,Yes,Amateur Open,39,1979-01-08
2,M,Maksim Anisimov,Максим Анисимов,138.8,230,250,262.5,262.5,,170,190,-200,190,,240,-270,-270,240,,692.5,140,SBD,Wraps,Yes,Amateur Open,36,1982-05-10
1,M,Natalya Potaskueva,Наталья Потаскуева,100.7,-125,125,,125,,65,70,75,75,,142.5,147.5,152.5,152.5,,352.5,90+,SBD,Wraps,No,Pro Open,36,1982-04-26
1,M,Ivan Shamrin,Иван Шамрин,81,180,190,-200,190,,130,135,-137.5,135,,260,280,-290,280,,605,82.5,SBD,Wraps,No,Pro Juniors,23,1995-06-27
1,M,Ivan Shamrin,Иван Шамрин,81,180,190,-200,190,,130,135,-137.5,135,,260,280,-290,280,,605,82.5,SBD,Wraps,No,Pro Open,23,1995-06-27
1,M,Nikolay Shestakov,Николай Шестаков,95.6,255,262.5,-267.5,262.5,,162.5,172.5,-177.5,172.5,,260,270,-275,270,,705,100,SBD,Wraps,No,Pro Juniors,22,1996-04-12
1,M,Egor Dolgushin,Егор Долгушин,98,260,280,300,300,,180,195,205,205,,280,305,-325,305,,810,100,SBD,Wraps,No,Pro Open,22,1996-03-22
2,M,Nikolay Shestakov,Николай Шестаков,95.6,255,262.5,-267.5,262.5,,162.5,172.5,-177.5,172.5,,260,270,-275,270,,705,100,SBD,Wraps,No,Pro Open,22,1996-04-12
3,M,Artem Turbar,Артем Турбар,96,200,220,-235,220,,150,155,-160,155,,-200,200,235,235,,610,100,SBD,Wraps,No,Pro Open,37,1981-04-04
1,M,Andrey Tsimbota,Андрей Цимбота,101.4,-210,-220,220,220,,130,140,147.5,147.5,,-270,285,-300,285,,652.5,110,SBD,Wraps,No,Pro Juniors,23,1995-06-23
1,M,Nikolay Medvedev,Николай Медведев,104.5,250,260,270,270,,160,170,-180,170,,285,300,-310,300,,740,110,SBD,Wraps,No,Pro Open,27,1991-03-26
2,M,Aleksandr Korchagin,Александр Корчагин,104,180,200,-215,200,,170,182.5,190,190,,215,225,235,235,,625,110,SBD,Wraps,No,Pro Open,28,1989-11-15
3,M,Aleksandr Voinkov,Александр Воинков,108.8,180,-195,200,200,,140,-150,150,150,,250,270,-280,270,,620,110,SBD,Wraps,No,Pro Open,28,1990-10-08
1,M,Evgeniy Krymov,Евгений Крымов,122,255,-262.5,262.5,262.5,,160,170,-175,170,,300,-315,,300,,732.5,125,SBD,Wraps,No,Pro Open,29,1989-07-05
1,F,Tatyana Zhulanova,Татьяна Жуланова,47.5,80,,85,85,,40,45,-47.5,45,,65,70,75,75,,205,48,SBD,Wraps,Yes,Amateur Juniors,22,1996-01-16
1,F,Oksana Shalashnaya,Оксана Шалашная,59.5,87.5,95,100,100,,45,-47.5,-47.5,45,,87.5,95,100,100,,245,60,SBD,Wraps,Yes,Amateur Masters 40-49,42,1976-02-20
1,F,Svetlana Rudolf,Светлана Рудольф,63.6,100,-107.5,-107.5,100,,50,-52.5,-52.5,50,,110,120,-122.5,120,,270,67.5,SBD,Wraps,Yes,Amateur Open,31,1987-09-30
1,M,Nikita Silkin,Никита Силкин,66.9,110,120,135,135,,70,80,-85,80,,110,120,130,130,,345,67.5,SBD,Wraps,Yes,Amateur Teen 17-19,18,2000-07-14
DQ,M,Ivan Ivanov,Іван Іванов,66.8,-130,-130,-130,,,,,,,,,,,,,,67.5,SBD,Wraps,Yes,Amateur Juniors,21,1997-02-05
1,M,Aleksandr Kalinin,Александр Калинин,69.9,-150,-150,150,150,,85,-92.5,92.5,92.5,,190,-200,200,200,,442.5,75,SBD,Wraps,Yes,Amateur Juniors,21,1997-07-16
1,M,Aleksandr Fridrikh,Александр Фридрих,87.4,205,-215,-215,205,,100,110,117.5,117.5,,195,205,-215,205,,527.5,90,SBD,Wraps,Yes,Amateur Juniors,20,1998-10-13
1,M,Viktor Smetannikov,Виктор Сметанников,87.6,220,-230,-235,220,,130,135,-140,135,,220,225,-232.5,225,,580,90,SBD,Wraps,Yes,Amateur Open,32,1986-03-11
1,M,Vladimir Tarasov,Владимир Тарасов,90.5,210,-230,-230,210,,-120,120,-125,120,,240,-255,-255,240,,570,100,SBD,Wraps,Yes,Amateur Open,25,1993-09-21
1,M,Artem Usoltsev,Артем Усольцев,118,195,205,215,215,,120,130,140,140,,215,230,240,240,,595,125,SBD,Wraps,Yes,Amateur Open,26,1992-10-13
1,M,Evgeniy Gansh,Евгений Ганш,74.4,230,-240,-240,230,,-130,132.5,-137.5,132.5,,240,-255,-255,240,,602.5,75,SBD,Wraps,No,Pro Open,26,1992-04-10
2,M,Dmitriy Strazhenskikh,Дмитрий Страженских,75,190,197.5,-205,197.5,,110,120,-125,120,,200,-210,-215,200,,517.5,75,SBD,Wraps,No,Pro Open,32,1986-08-12
1,M,Vyacheslav Nedobezhkin,Вячеслав Недобежкин,79.7,-160,160,-170,160,,95,100,-110,100,,160,-170,170,170,,430,82.5,SBD,Wraps,No,Pro Teen 17-19,17,2001-08-10
1,M,Ivan Nokhov,Иван Нохов,82.5,230,-250,250,250,,130,140,-145,140,,230,240,-250,240,,630,82.5,SBD,Wraps,No,Pro Juniors,20,1998-06-03
1,M,Nikita Sharafetdinov,Никита Шарафетдинов,82.3,200,210,220,220,,130,140,145,145,,190,200,-210,200,,565,82.5,SBD,Wraps,No,Pro Open,26,1991-12-31
1,M,Konstantin Dmitriev,Константин Дмитриев,88.9,220,230,-240,230,,145,150,-160,150,,240,255,-265,255,,635,90,SBD,Wraps,No,Pro Open,28,1990-01-24
1,M,Aleksey Startsev,Алексей Старцев,97.7,215,-230,230,230,,145,-150,-150,145,,220,235,245,245,,620,100,SBD,Wraps,No,Pro Teen 17-19,19,1999-04-26
1,M,Ruslan Eskeneev,Руслан Ескенеев,98,250,265,-280,265,,170,180,190,190,,210,220,-230,220,,675,100,SBD,Wraps,No,Pro Juniors,23,1995-06-18
2,M,Vladislav Torlak,Владислав Торлак,99.6,-250,250,-265,250,,185,195,-200,195,,210,230,-252.5,230,,675,100,SBD,Wraps,No,Pro Juniors,20,1998-01-01
3,M,Oleg Medvedev,Олег Медведев,98,250,260,270,270,,140,-155,-155,140,,250,260,,260,,670,100,SBD,Wraps,No,Pro Juniors,23,1995-08-29
1,M,Sergey Kostrulev,Сергей Кострулев,99,280,300,320,320,,180,192.5,,192.5,,265,-287.5,287.5,287.5,,800,100,SBD,Wraps,No,Pro Open,22,1996-11-09
2,M,Andrey Berdnikov,Андрей Бердников,98.5,275,285,292.5,292.5,,135,142.5,,142.5,,-262.5,262.5,-280,262.5,,697.5,100,SBD,Wraps,No,Pro Open,32,1986-07-15
3,M,Vladislav Torlak,Владислав Торлак,99.6,-250,250,-265,250,,185,195,-200,195,,210,230,-252.5,230,,675,100,SBD,Wraps,No,Pro Open,20,1998-01-01
4,M,Dmitriy Prachyov,Дмитрий Прачёв,99.3,250,-257.5,-265,250,,165,-172.5,172.5,172.5,,240,-250,250,250,,672.5,100,SBD,Wraps,No,Pro Open,32,1986-03-31
5,M,Evgeniy Romanov,Евгений Романов,98.9,220,-240,240,240,,130,145,155,155,,200,220,235,235,,630,100,SBD,Wraps,No,Pro Open,27,1991-03-01
6,M,Zakhar Nezgovorov,Захар Незговоров,94.2,210,-225,-230,210,,135,-145,145,145,,-230,230,-235,230,,585,100,SBD,Wraps,No,Pro Open,30,1988-03-19
DQ,M,Valeriy Kampov,Валерий Кампов,100,290,-310,-310,290,,-185,-185,-185,,,,,,,,,100,SBD,Wraps,No,Pro Open,26,1992-10-02
1,M,Aleksandr Bersenev,Александр Берсенев,98,200,215,-230,215,,170,180,190,190,,240,250,-260,250,,655,100,SBD,Wraps,No,Pro Masters 40-49,40,1978-03-08
1,M,Roman Nikolaev,Роман Николаев,102.1,180,190,-205,190,,-130,140,-150,140,,200,220,240,240,,570,110,SBD,Wraps,No,Pro Juniors,23,1994-11-29
1,M,Aleksandr Gruzdov,Александр Груздов,108.7,240,255,265,265,,140,-150,150,150,,270,290,305,305,,720,110,SBD,Wraps,No,Pro Open,29,1989-10-08
2,M,Roman Kazak,Роман Казак,106.9,230,250,-260,250,,150,160,-165,160,,200,222.5,-230,222.5,,632.5,110,SBD,Wraps,No,Pro Open,34,1984-04-09
DQ,M,Konstantin Glebov,Константин Глебов,107.2,-250,250,-260,250,,-150,-150,-150,,,,,,,,,110,SBD,Wraps,No,Pro Open,30,1988-08-29
1,M,Oleg Gorev,Олег Горев,123.9,300,-315,,300,,200,210,,210,,330,-340,-340,330,,840,125,SBD,Wraps,No,Pro Open,30,1988-03-01
1,F,Tatyana Pozdnyakova,Татьяна Позднякова,46.4,,,,,,37.5,-42.5,42.5,42.5,,,,,,,42.5,48,B,Raw,Yes,Amateur Open,24,1994-04-15
1,F,Nataliya Gladkikh,Наталия Гладких,44.8,,,,,,50,55,-57.5,55,,,,,,,55,48,B,Raw,Yes,Amateur Masters 40-49,45,1973-06-18
1,F,Marina Prokhorova,Марина Прохорова,55.3,,,,,,50,55,-60,55,,,,,,,55,56,B,Raw,Yes,Amateur Open,26,1992-05-12
1,F,Anastasiya Yakubovskaya,Анастасия Якубовская,66.5,,,,,,75,80,-85,80,,,,,,,80,67.5,B,Raw,Yes,Amateur Open,27,1991-10-11
1,M,Pavel Shevelev,Павел Шевелев,57.3,,,,,,92.5,97.5,-100,97.5,,,,,,,97.5,60,B,Raw,Yes,Amateur Open,31,1987-10-20
1,M,Sergey Stolbov,Сергей Столбов,65.7,,,,,,130,142.5,-145,142.5,,,,,,,142.5,67.5,B,Raw,Yes,Amateur Open,26,1992-05-03
2,M,Radmir Aminov,Радмир Аминов,63.3,,,,,,120,125,-130,125,,,,,,,125,67.5,B,Raw,Yes,Amateur Open,30,1988-06-25
1,M,Ivan Ivanov,Іван Іванов,66.9,,,,,,75,80,-85,80,,,,,,,80,67.5,B,Raw,Yes,Amateur Masters 40-49,47,1971-02-09
1,M,Denis Serov,Денис Серов,73.6,,,,,,150,155,160,160,,,,,,,160,75,B,Raw,Yes,Amateur Open,24,1994-05-06
2,M,Pavel Razuvaev,Павел Разуваев,71.8,,,,,,145,150,155,155,,,,,,,155,75,B,Raw,Yes,Amateur Open,29,1988-12-02
3,M,Aleksandr Zotov,Александр Зотов,72.5,,,,,,130,-135,-135,130,,,,,,,130,75,B,Raw,Yes,Amateur Open,37,1981-05-20
4,M,Nikolay Morochkovskiy,Николай Морочковский,73.4,,,,,,120,-125,-125,120,,,,,,,120,75,B,Raw,Yes,Amateur Open,27,1991-02-14
5,M,Viktor Shigabutdinov,Виктор Шигабутдинов,73.6,,,,,,100,-117.5,-117.5,100,,,,,,,100,75,B,Raw,Yes,Amateur Open,25,1993-09-09
1,M,Andrey Romanov,Андрей Романов,78.2,,,,,,75,80,85,85,,,,,,,85,82.5,B,Raw,Yes,Amateur Teen 17-19,17,2001-05-05
1,M,Aleksey Appolonov,Алексей Апполонов,81.5,,,,,,115,127.5,-140,127.5,,,,,,,127.5,82.5,B,Raw,Yes,Amateur Open,27,1991-07-05
1,M,Andrey Trofimov,Андрей Трофимов,89,,,,,,182.5,190,-192.5,190,,,,,,,190,90,B,Raw,Yes,Amateur Open,35,1983-07-28
2,M,Aleksey Ivanov,Алексей Иванов,90,,,,,,165,-170,-170,165,,,,,,,165,90,B,Raw,Yes,Amateur Open,36,1982-06-30
3,M,Anatoliy Monarev,Анатолий Монарев,89,,,,,,155,160,-170,160,,,,,,,160,90,B,Raw,Yes,Amateur Open,27,1991-05-06
4,M,Maksim Novikov,Максим Новиков,88.3,,,,,,145,-150,-150,145,,,,,,,145,90,B,Raw,Yes,Amateur Open,35,1983-02-21
5,M,Aleksandr Malkov,Александр Мальков,88,,,,,,125,132.5,140,140,,,,,,,140,90,B,Raw,Yes,Amateur Open,36,1982-10-09
6,M,Vyacheslav Belousov,В'ячеслав Бєлоусов,86.9,,,,,,135,-145,-152.5,135,,,,,,,135,90,B,Raw,Yes,Amateur Open,29,1989-03-22
7,M,Nikita Naumenko,Никита Науменко,89.6,,,,,,125,-132.5,-132.5,125,,,,,,,125,90,B,Raw,Yes,Amateur Open,26,1992-08-12
DQ,M,Yarooslav Prozorov,Яроослав Прозоров,88.2,,,,,,-145,-145,-145,,,,,,,,,90,B,Raw,Yes,Amateur Open,25,1993-01-21
DQ,M,Maksim Domnin,Максим Домнин,89.7,,,,,,-160,-160,-160,,,,,,,,,90,B,Raw,Yes,Amateur Open,40,1978-05-03
1,M,Bogdan Lugovoy,Богдан Луговой,89.6,,,,,,160,-167.5,-167.5,160,,,,,,,160,90,B,Raw,Yes,Amateur Masters 40-49,42,1975-11-26
2,M,Yuriy Pelymskiy,Юрий Пелымский,88.7,,,,,,135,-140,-140,135,,,,,,,135,90,B,Raw,Yes,Amateur Masters 40-49,46,1972-08-02
1,M,Artem Maslov,Артем Маслов,98,,,,,,130,140,-150,140,,,,,,,140,100,B,Raw,Yes,Amateur Open,26,1992-04-05
DQ,M,Aleksandr Kostyanov,Александр Костянов,95.8,,,,,,-160,-160,-162.5,,,,,,,,,100,B,Raw,Yes,Amateur Open,27,1991-01-11
DQ,M,Maksim Shafeev,Максим Шафеев,98.9,,,,,,-155,-162.5,-162.5,,,,,,,,,100,B,Raw,Yes,Amateur Open,36,1982-01-26
1,M,Aleksandr Grigorenko,Александр Григоренко,110,,,,,,195,200,-202.5,200,,,,,,,200,110,B,Raw,Yes,Amateur Open,34,1984-07-30
2,M,Evgeniy Komarov,Евгений Комаров,108.5,,,,,,185,190,-195,190,,,,,,,190,110,B,Raw,Yes,Amateur Open,34,1984-09-30
3,M,Vladimir Shmidt,Владимир Шмидт,103,,,,,,182.5,-187.5,-190,182.5,,,,,,,182.5,110,B,Raw,Yes,Amateur Open,33,1985-05-06
1,M,Igor Vinokurov,Игорь Винокуров,109,,,,,,150,-160,-160,150,,,,,,,150,110,B,Raw,Yes,Amateur Masters 50-59,51,1967-03-03
DQ,M,Sergey Muravlev,Сергей Муравлев,108.5,,,,,,-157.5,-157.5,-157.5,,,,,,,,,110,B,Raw,Yes,Amateur Masters 50-59,50,1968-09-13
1,M,Vladimir Zubachev,Владимир Зубачев,114.3,,,,,,170,177.5,,177.5,,,,,,,177.5,125,B,Raw,Yes,Amateur Open,32,1985-11-29
1,M,Igor Pershin,Игорь Першин,133.5,,,,,,215,225,-230,225,,,,,,,225,140,B,Raw,Yes,Amateur Open,31,1987-04-10
1,M,Danil Glovatskiy,Данил Гловацкий,76.3,,,,,,70,80,-85,80,,,,,,,80,82.5,B,Raw,No,Pro Juniors,23,1995-06-29
1,M,Denis Shishkin,Денис Шишкин,82.2,,,,,,170,180,,180,,,,,,,180,82.5,B,Raw,No,Pro Open,36,1982-04-20
2,M,Artur Kuznetsov,Артур Кузнецов,81.3,,,,,,160,165,-170,165,,,,,,,165,82.5,B,Raw,No,Pro Open,31,1987-08-26
3,M,Anatoliy Khvorov,Анатолий Хворов,82.5,,,,,,145,155,-165,155,,,,,,,155,82.5,B,Raw,No,Pro Open,27,1991-08-15
4,M,Egor Bogomolov,Егор Богомолов,80,,,,,,-140,140,-147.5,140,,,,,,,140,82.5,B,Raw,No,Pro Open,26,1992-01-02
1,M,Denis Shorokhov,Денис Шорохов,87.3,,,,,,165,172.5,182.5,182.5,,,,,,,182.5,90,B,Raw,No,Pro Open,42,1976-01-21
2,M,Ivan Evdokimov,Иван Евдокимов,85.4,,,,,,155,165,-175,165,,,,,,,165,90,B,Raw,No,Pro Open,33,1985-04-04
3,M,Sergey Varlakov,Сергей Варлаков,89.8,,,,,,152.5,165,-175,165,,,,,,,165,90,B,Raw,No,Pro Open,35,1983-09-20
4,M,Pavel Ulrikh,Павел Ульрих,90,,,,,,155,160,-162.5,160,,,,,,,160,90,B,Raw,No,Pro Open,36,1981-12-24
5,M,Vladimir Tropin,Владимир Тропин,87.5,,,,,,150,-157.5,-165,150,,,,,,,150,90,B,Raw,No,Pro Open,25,1993-09-30
6,M,Andrey Makushov,Андрей Макушов,89.9,,,,,,135,140,-145,140,,,,,,,140,90,B,Raw,No,Pro Open,27,1991-07-21
1,M,Igor Aksentev,Игорь Аксентьев,89.6,,,,,,135,145,150,150,,,,,,,150,90,B,Raw,No,Pro Masters 50-59,53,1965-05-08
1,M,Aleksey Startsev,Алексей Старцев,97.7,,,,,,145,-150,-150,145,,,,,,,145,100,B,Raw,No,Pro Teen 17-19,19,1999-04-26
1,M,Vladislav Torlak,Владислав Торлак,99.6,,,,,,185,195,-200,195,,,,,,,195,100,B,Raw,No,Pro Juniors,20,1998-01-01
2,M,Ruslan Eskeneev,Руслан Ескенеев,98,,,,,,190,,,190,,,,,,,190,100,B,Raw,No,Pro Juniors,23,1995-06-18
3,M,Malikshakh Agakerimov,Маликшах Агакеримов,94.6,,,,,,-160,160,-175,160,,,,,,,160,100,B,Raw,No,Pro Juniors,22,1996-07-15
1,M,Aleksey Komkov,Алексей Комков,96.5,,,,,,-190,190,-195,190,,,,,,,190,100,B,Raw,No,Pro Open,35,1983-08-11
DQ,M,Valeriy Kampov,Валерий Кампов,100,,,,,,-185,-185,-185,,,,,,,,,100,B,Raw,No,Pro Open,26,1992-10-02
1,M,Valeriy Nekrasov,Валерий Некрасов,109.8,,,,,,165,175,-182.5,175,,,,,,,175,110,B,Raw,No,Pro Juniors,22,1996-03-18
1,M,Stanislav Petrov,Станислав Петров,108.9,,,,,,187.5,192.5,-197.5,192.5,,,,,,,192.5,110,B,Raw,No,Pro Open,30,1988-10-17
2,M,Aleksandr Karchagin,Александр Карчагин,104,,,,,,170,182.5,190,190,,,,,,,190,110,B,Raw,No,Pro Open,28,1989-11-15
3,M,Vladimir Shmidt,Владимир Шмидт,103,,,,,,182.5,-187.5,-190,182.5,,,,,,,182.5,110,B,Raw,No,Pro Open,33,1985-05-06
DQ,M,Aleksey Mishanin,Алексей Мишанин,106.9,,,,,,-200,-200,-200,,,,,,,,,110,B,Raw,No,Pro Masters 40-49,43,1975-08-22
1,M,Artur Minnigulov,Артур Миннигулов,114.8,,,,,,200,210,-215,210,,,,,,,210,125,B,Raw,No,Pro Open,26,1992-03-12
2,M,Maksim Khozyashev,Максим Хозяшев,123.3,,,,,,200,205,207.5,207.5,,,,,,,207.5,125,B,Raw,No,Pro Open,34,1983-12-11
1,M,Aleksandr Starikov,Александр Стариков,95,,,,,,-200,200,-210,200,,,,,,,200,100,B,Multi-ply,Yes,Amateur Masters 50-59,54,1964-03-23
1,F,Anna Zakharova,Анна Захарова,59.7,,,,,,,,,,,90,-95,-95,90,,90,60,D,Raw,Yes,Amateur Girls,18,2000-11-06
1,F,Evgeniya Taskaeva,Евгения Таскаева,76.9,,,,,,,,,,,130,147.5,-155,147.5,,147.5,82.5,D,Raw,Yes,Amateur Open,26,1992-06-08
1,M,Danil Reznichenko,Данил Резниченко,60,,,,,,,,,,,152.5,160,175,175,,175,60,D,Raw,Yes,Amateur Teen 17-19,18,2000-09-07
1,M,Ivan Ivanov,Іван Іванов,66.8,,,,,,,,,,,-140,140,-170,140,,140,67.5,D,Raw,Yes,Amateur Juniors,21,1997-02-05
1,M,Roman Orlov,Роман Орлов,80.7,,,,,,,,,,,260,270,280,280,,280,82.5,D,Raw,Yes,Amateur Open,38,1980-06-15
2,M,Aleksandr Petlyakov,Александр Петляков,80,,,,,,,,,,,190,,,190,,190,82.5,D,Raw,Yes,Amateur Open,35,1983-09-14
1,M,Viktor Smetannikov,Виктор Сметанников,87.6,,,,,,,,,,,220,225,-232.5,225,,225,90,D,Raw,Yes,Amateur Open,32,1986-03-11
1,M,Dmitriy Korobchenko,Дмитрий Коробченко,106.7,,,,,,,,,,,200,215,230,230,,230,110,D,Raw,Yes,Amateur Open,34,1984-03-14
1,M,Kirill Yagodzinskiy,Кирилл Ягодзинский,115.6,,,,,,,,,,,160,-175,175,175,,175,125,D,Raw,Yes,Amateur Teen 14-16,16,2002-04-15
1,F,Elena Putilova,Елена Путилова,70.6,,,,,,,,,,,75,85,-95,85,,85,75,D,Raw,No,Pro Masters 50-59,52,1965-11-29
1,M,Maksim Kruchinin,Максим Кручинин,66.3,,,,,,,,,,,110,120,125,125,,125,67.5,D,Raw,No,Pro Open,26,1992-01-29
1,M,Konstantin Dmitriev,Константин Дмитриев,88.9,,,,,,,,,,,240,255,-265,255,,255,90,D,Raw,No,Pro Open,28,1990-01-24
1,M,Aleksey Startsev,Алексей Старцев,97.7,,,,,,,,,,,220,235,245,245,,245,100,D,Raw,No,Pro Teen 17-19,19,1999-04-26
1,M,Evgeniy Kondratenko,Евгений Кондратенко,98,,,,,,,,,,,255,272.5,-300,272.5,,272.5,100,D,Raw,No,Pro Juniors,21,1997-01-01
2,M,Oleg Medvedev,Олег Медведев,98,,,,,,,,,,,250,260,,260,,260,100,D,Raw,No,Pro Juniors,23,1995-08-29
3,M,Ruslan Eskeneev,Руслан Ескенеев,98,,,,,,,,,,,220,,,220,,220,100,D,Raw,No,Pro Juniors,23,1995-06-18
1,M,Valeriy Kampov,Валерий Кампов,100,,,,,,,,,,,270,285,-295,285,,285,100,D,Raw,No,Pro Open,26,1992-10-02
1,M,Konstantin Glebov,Константин Глебов,107.2,,,,,,,,,,,250,-260,,250,,250,110,D,Raw,No,Pro Open,30,1988-08-29
1,M,Igor Sedov,Игорь Седов,89.2,,,,,,,,,,,255,285,-320,285,,285,90,D,Raw,Yes,Amateur Open,28,1990-09-28
