Division,WeightClassKg,Place,Name,Team,BodyweightKg,Best3SquatKg,Best3BenchKg,Best3DeadliftKg,TotalKg,Equipment,Event,Sex
Boys,51.71,1,Alonzo Owens,Fort Worth Boswell,48.99,90.72,49.9,79.38,219.99,Single-ply,SBD,M
Boys,51.71,DQ,Isaiah Drake,Fort Worth Chisholm Trail,50.8,,61.23,90.72,,Single-ply,SBD,M
Boys,55.79,1,Dutch Patterson,Fort Worth Boswell,54.43,81.65,49.9,92.99,224.53,Single-ply,SBD,M
Boys,59.87,1,Chris Delgado,Fort Worth Boswell,59.87,142.88,79.38,154.22,376.48,Single-ply,SBD,M
Boys,59.87,2,Felipe Hernández #5,Saginaw,56.25,127.01,74.84,133.81,335.66,Single-ply,SBD,M
Boys,59.87,3,Melvin Johnson,Fort Worth Chisholm Trail,59.42,90.72,74.84,136.08,301.64,Single-ply,SBD,M
Boys,67.13,1,Isaiah Mayfield,Fort Worth Boswell,67.13,181.44,104.33,163.29,449.06,Single-ply,SBD,M
Boys,67.13,2,Devin Larry,Fort Worth Chisholm Trail,66.68,181.44,83.91,158.76,424.11,Single-ply,SBD,M
Boys,67.13,3,Matt Blakely,Saginaw,67.13,156.49,102.06,158.76,417.3,Single-ply,SBD,M
Boys,67.13,4,Gabriel García,Fort Worth Boswell,63.5,138.35,77.11,138.35,353.8,Single-ply,SBD,M
Boys,67.13,5,Garret Wright,Fort Worth Boswell,63.96,136.08,74.84,142.88,353.8,Single-ply,SBD,M
Boys,67.13,6,Cameron Beagle,Fort Worth Boswell,61.23,115.67,63.5,140.61,319.78,Single-ply,SBD,M
Boys,74.84,1,Julian Cothren,Fort Worth Boswell,74.39,165.56,99.79,161.03,426.38,Single-ply,SBD,M
Boys,74.84,2,Justin Bratten,Fort Worth Boswell,74.84,158.76,90.72,170.1,419.57,Single-ply,SBD,M
Boys,74.84,3,David Gain,Fort Worth Chisholm Trail,71.67,154.22,90.72,161.03,405.97,Single-ply,SBD,M
Boys,74.84,4,Dominick Segoviano,Fort Worth Boswell,72.12,142.88,90.72,172.37,405.97,Single-ply,SBD,M
Boys,74.84,5,Richedi Ishitoko,Saginaw,74.84,158.76,81.65,149.69,390.09,Single-ply,SBD,M
Boys,74.84,6,Dione Palmer,Fort Worth Chisholm Trail,74.39,136.08,92.99,158.76,387.82,Single-ply,SBD,M
Boys,74.84,7,Andrew Fuller,Fort Worth Boswell,70.76,136.08,97.52,149.69,383.29,Single-ply,SBD,M
Boys,74.84,8,Sedarian Childers,Fort Worth Chisholm Trail,73.48,136.08,97.52,147.42,381.02,Single-ply,SBD,M
Boys,74.84,9,Keshawn Gbanquoi,Fort Worth Chisholm Trail,73.48,115.67,79.38,165.56,360.61,Single-ply,SBD,M
Boys,74.84,10,Jacob Mueller,Fort Worth Boswell,69.4,124.74,77.11,154.22,356.07,Single-ply,SBD,M
Boys,74.84,11,Omar Al-Adass,Saginaw,71.67,120.2,65.77,131.54,317.51,Single-ply,SBD,M
Boys,74.84,DQ,Dominique Orozco,Saginaw,69.4,,92.99,147.42,,Single-ply,SBD,M
Boys,74.84,DQ,Ezekiel Plata,Saginaw,68.04,111.13,,124.74,,Single-ply,SBD,M
Boys,82.1,1,Gage McQuade,Fort Worth Boswell,78.93,213.19,124.74,208.65,546.58,Single-ply,SBD,M
Boys,82.1,2,Jaytron Phillips,Fort Worth Chisholm Trail,81.65,204.12,108.86,183.7,496.68,Single-ply,SBD,M
Boys,82.1,3,Andres Holguin,Fort Worth Boswell,81.19,181.44,129.27,181.44,492.15,Single-ply,SBD,M
Boys,82.1,4,Chris Hammonds,Saginaw,76.2,188.24,113.4,183.7,485.34,Single-ply,SBD,M
Boys,82.1,5,Frank Honang,Saginaw,76.2,163.29,99.79,174.63,437.72,Single-ply,SBD,M
Boys,82.1,6,Dillon Youngblood,Fort Worth Chisholm Trail,75.75,151.95,90.72,181.44,424.11,Single-ply,SBD,M
Boys,82.1,7,Tyson McDaniel,Fort Worth Chisholm Trail,77.11,142.88,102.06,158.76,403.7,Single-ply,SBD,M
Boys,82.1,8,Jay Garcia,Fort Worth Boswell,76.2,122.47,56.7,127.01,306.17,Single-ply,SBD,M
Boys,82.1,DQ,Connor Freeman,Saginaw,81.65,113.4,,122.47,,Single-ply,SBD,M
Boys,89.81,1,TK Powell,Fort Worth Chisholm Trail,83.46,183.7,117.93,183.7,485.34,Single-ply,SBD,M
Boys,89.81,2,Hunter Harp,Fort Worth Boswell,83.91,167.83,99.79,154.22,421.84,Single-ply,SBD,M
Boys,89.81,3,Matt Wilson,Saginaw,85.28,142.88,106.59,163.29,412.77,Single-ply,SBD,M
Boys,89.81,DQ,Blake Thornburg,Fort Worth Chisholm Trail,83.01,113.4,,142.88,,Single-ply,SBD,M
Boys,89.81,DQ,Emmanuel Butler,Fort Worth Chisholm Trail,86.64,158.76,,158.76,,Single-ply,SBD,M
Boys,99.79,1,Nathan Badillo,Saginaw,98.88,208.65,120.2,172.37,501.22,Single-ply,SBD,M
Boys,99.79,2,Derek Mayweather,Fort Worth Chisholm Trail,93.44,158.76,104.33,190.51,453.59,Single-ply,SBD,M
Boys,99.79,3,Ronald Naquin,Fort Worth Chisholm Trail,93.44,165.56,95.25,172.37,433.18,Single-ply,SBD,M
Boys,99.79,4,Travis Williams,Fort Worth Chisholm Trail,92.08,140.61,102.06,145.15,387.82,Single-ply,SBD,M
Boys,99.79,5,Derrick Munoz,Saginaw,92.08,142.88,83.91,133.81,360.61,Single-ply,SBD,M
Boys,99.79,6,Ignacio Gonzales,Saginaw,92.99,111.13,95.25,124.74,331.12,Single-ply,SBD,M
Boys,99.79,7,David Hickey,Saginaw,94.35,102.06,61.23,88.45,251.74,Single-ply,SBD,M
Boys,99.79,DQ,Al Kankam,Saginaw,96.62,181.44,,156.49,,Single-ply,SBD,M
Boys,99.79,DQ,Jordan Green,Fort Worth Chisholm Trail,94.35,158.76,,158.76,,Single-ply,SBD,M
Boys,99.79,DQ,Emilio Rogers,Saginaw,98.43,188.24,,165.56,,Single-ply,SBD,M
Boys,109.77,1,Jordan Hernandez,Saginaw,106.14,181.44,117.93,151.95,451.32,Single-ply,SBD,M
Boys,109.77,2,Matt Cayea,Fort Worth Boswell,109.32,188.24,88.45,172.37,449.06,Single-ply,SBD,M
Boys,109.77,3,Roger Strand,Fort Worth Boswell,107.5,172.37,111.13,154.22,437.72,Single-ply,SBD,M
Boys,109.77,DQ,Gilbert Cortinas,Saginaw,104.33,,,113.4,,Single-ply,SBD,M
Boys,109.77,DQ,Tomas Barrientes,Fort Worth Chisholm Trail,104.33,158.76,113.4,,,Single-ply,SBD,M
Boys,124.74,1,Dominic Hill,Fort Worth Boswell,121.56,299.37,176.9,251.74,728.02,Single-ply,SBD,M
Boys,124.74,2,Justin Watson #1,Fort Worth Boswell,120.66,204.12,117.93,176.9,498.95,Single-ply,SBD,M
Boys,124.74,DQ,Jared Luth,Saginaw,121.56,167.83,,163.29,,Single-ply,SBD,M
Boys,124.74+,1,Joey Saladino,Fort Worth Chisholm Trail,129.73,215.46,117.93,192.78,526.17,Single-ply,SBD,M
Boys,124.74+,2,Rejay Ioanis,Fort Worth Boswell,128.37,167.83,90.72,165.56,424.11,Single-ply,SBD,M
Boys,124.74+,3,Joseph Olmos,Fort Worth Chisholm Trail,126.55,113.4,74.84,113.4,301.64,Single-ply,SBD,M
