Place,Sex,Name,Event,Division,WeightClassKg,Equipment,BirthYear,State,BodyweightKg,Squat1Kg,Squat2Kg,Squat3Kg,Best3SquatKg,Bench1Kg,Bench2Kg,Bench3Kg,Best3BenchKg,Deadlift1Kg,Deadlift2Kg,Deadlift3Kg,Best3DeadliftKg,TotalKg
DQ,M,Rich Kelly,B,M-G,105,Single-ply,1954,IL,99.85,,,,,-185,-190,-190,,,,,,
G,M,Joshua Hunt,B,M-G,120+,Single-ply,1982,IL,127.55,,,,,250,260,-272.5,260.0,,,,,260
1,M,David Doan,B,M-O,120,Single-ply,1964,WI,119.40,,,,,-291.5,291.5,302.5,302.5,,,,,302.5
G,M,Mike Burns,B,MR-G,93,Raw,1987,MN,92.00,,,,,165,-175,-175,165.0,,,,,165
1,M,Nicholas Buck,B,MR-O,74,Raw,1985,WI,69.30,,,,,115,117.5,-122.5,117.5,,,,,117.5
1,M,Scott Benson,B,MR-O,83,Raw,1963,WI,82.20,,,,,152.5,-157.5,157.5,157.5,,,,,157.5
2,M,Jackson Boehlke,B,MR-O,83,Raw,1995,WI,81.50,,,,,147.5,-165,-165,147.5,,,,,147.5
3,M,Kevin Ellis,B,MR-O,83,Raw,1963,WI,80.70,,,,,125,-137.5,-137.5,125.0,,,,,125
1,M,Peen Coles,B,MR-O,93,Raw,1996,WI,89.50,,,,,127.5,-132.5,-132.5,127.5,,,,,127.5
2,M,John Baron,B,MR-O,93,Raw,1994,WI,89.30,,,,,115,122.5,-130,122.5,,,,,122.5
1,M,Steve Zahn,B,MR-O,105,Raw,1962,WI,103.60,,,,,142.5,-147.5,-147.5,142.5,,,,,142.5
2,M,Thomas Mollan,B,MR-O,105,Raw,1946,WI,101.20,,,,,122.5,137.5,-142.5,137.5,,,,,137.5
3,M,Daniel Mitchell,B,MR-O,105,Raw,1968,WI,93.20,,,,,120,-125,-125,120.0,,,,,120
DQ,M,Brandon Peterson,B,MR-O,120,Raw,1989,WI,112.15,,,,,-165,-165,-165,,,,,,
1,M,Derek Defranco,B,MR-O,120+,Raw,1982,WI,168.40,,,,,160,170,-177.5,170.0,,,,,170
DQ,F,Amber Kierstyn,B,F-O,72,Single-ply,1998,WI,70.80,,,,,-92.5,-92.5,-92.5,,,,,,
1,F,Carlie Walker,B,F-O,84+,Single-ply,1999,WI,143.80,,,,,150,-157.5,-157.5,150.0,,,,,150
G,F,Suzanne Black,B,FR-G,84+,Raw,1976,IL,119.10,,,,,-75,75,-92.5,75.0,,,,,75
1,F,Stephanie Tai,B,FR-O,72,Raw,1973,WI,66.30,,,,,57.5,62.5,-65,62.5,,,,,62.5
1,F,Devan Curley,B,FR-O,84,Raw,1987,WI,75.70,,,,,110,-120,-120,110.0,,,,,110
2,F,Elizabeth Naidicz,B,FR-O,84,Raw,1988,WI,83.20,,,,,75,80,-85,80.0,,,,,80
3,F,Katie Nelson,B,FR-O,84,Raw,1990,WI,78.10,,,,,47.5,52.5,57.5,57.5,,,,,57.5
1,M,Jordan Stokes,SBD,M-C,105,Single-ply,2001,WI,103.00,250,275,277.5,277.5,125,135,142.5,142.5,240,262.5,-272.5,262.5,682.5
1,M,Jacob Zimmerman,SBD,M-C,120,Single-ply,1998,WI,107.10,215,225,235,235.0,147.5,155,-157.5,155.0,225,235,240,240.0,630
G,M,James Vang,SBD,M-G,66,Single-ply,1992,MN,66.00,257.5,265,275,275.0,-177.5,-177.5,177.5,177.5,250,265,-280,265.0,717.5
G,M,Tom Scagliarini,SBD,M-G,83,Single-ply,1966,IL,82.30,217.5,235,242.5,242.5,142.5,152.5,157.5,157.5,202.5,217.5,-227.5,217.5,617.5
1,M,Jason Johnson,SBD,M-O,105,Single-ply,1971,WI,104.75,275,287.5,295,295.0,227.5,237.5,-243,237.5,275,287.5,-295,287.5,820
2,M,Pete Nees,SBD,M-O,105,Single-ply,1984,WI,103.50,287.5,305,-317.5,305.0,205,217.5,-230,217.5,267.5,277.5,-287.5,277.5,800
3,M,Jordan Stokes,SBD,M-O,105,Single-ply,2001,WI,103.00,250,275,277.5,277.5,125,135,142.5,142.5,240,262.5,-272.5,262.5,682.5
1,M,Jacob Zimmerman,SBD,M-O,120,Single-ply,1998,WI,107.10,215,225,235,235.0,147.5,155,-157.5,155.0,225,235,240,240.0,630
1,M,Quintin Meyer,SBD,M-O,120+,Single-ply,1991,WI,123.15,365,380,-390,380.0,290,-297.5,297.5,297.5,310,325,330,330.0,1007.5
2,M,Kenneth Brashears,SBD,M-O,120+,Single-ply,1987,WI,138.40,290,307.5,320,320.0,200,215,227.5,227.5,-275,285,302.5,302.5,850
1,M,Kenneth Johnson,SBD,MR-C,59,Raw,1997,WI,56.70,125,135,145,145.0,72.5,77.5,-80,77.5,187.5,197.5,-207.5,197.5,420
1,M,Peen Coles,SBD,MR-C,74,Raw,1996,WI,69.90,105,115,-120,115.0,57.5,62.5,-67.5,62.5,137.5,147.5,152.5,152.5,330
1,M,Benjamin Geenen,SBD,MR-C,83,Raw,1996,WI,81.60,142.5,152.5,-160,152.5,-92.5,95,-102.5,95.0,175,185,-190,185.0,432.5
2,M,Andrew Meyerhofer,SBD,MR-C,83,Raw,1995,WI,79.30,150,160,,160.0,97.5,105,-112.5,105.0,120,,,120.0,385
1,M,Vong Xiong,SBD,MR-C,93,Raw,1994,WI,91.50,247.5,262.5,-265,262.5,130,137.5,142.5,142.5,282.5,-297.5,297.5,297.5,702.5
2,M,Lawrence Schulte,SBD,MR-C,93,Raw,1996,WI,91.70,-192.5,197.5,-207.5,197.5,125,132.5,-137.5,132.5,-227.5,237.5,247.5,247.5,577.5
1,M,Joe Allen,SBD,MR-C,105,Raw,1996,WI,103.35,235,250,-260,250.0,155,165,170,170.0,280,295,317.5,317.5,737.5
2,M,Anthony Wolf,SBD,MR-C,105,Raw,1995,WI,101.40,220,227.5,237.5,237.5,152.5,157.5,-162.5,157.5,230,242.5,250,250.0,645
1,M,Alex Stoll,SBD,MR-C,120,Raw,1997,WI,111.60,245,267.5,277.5,277.5,145,155,160,160.0,265,280,295,295.0,732.5
2,M,Jaden Burgess-Eisch,SBD,MR-C,120,Raw,1999,WI,118.40,265,280,-290,280.0,167.5,177.5,-182.5,177.5,257.5,275,-280,275.0,732.5
3,M,Patrick Little,SBD,MR-C,120,Raw,1994,WI,118.20,230,240,252.5,252.5,160,-172.5,-172.5,160.0,275,287.5,-297.5,287.5,700
1,M,Declan Dilley,SBD,MR-C,120+,Raw,1998,WI,136.65,225,240,250,250.0,145,155,-160,155.0,245,262.5,-275,262.5,667.5
2,M,Justin Bartolazzi,SBD,MR-C,120+,Raw,2000,WI,123.65,-170,-185,185,185.0,-100,-107.5,107.5,107.5,205,217.5,-227.5,217.5,510
G,M,Ryan Borges,SBD,MR-G,66,Raw,1992,MI,65.60,172.5,-185,185,185.0,102.5,105,-107.5,105.0,190,205,-215,205.0,495
G,M,Patrick Kelly,SBD,MR-G,83,Raw,1993,IL,78.90,212.5,227.5,,227.5,137.5,145,150,150.0,215,230,-237.5,230.0,607.5
G,M,William Hosken,SBD,MR-G,83,Raw,1937,IL,79.50,-87.5,87.5,92.5,92.5,57.5,62.5,-67.5,62.5,130,-140,-140,130.0,285
G,M,Scott Schwartz,SBD,MR-G,93,Raw,1990,IL,92.10,235,242.5,-250,242.5,165,-172.5,-172.5,165.0,287.5,295,-302.5,295.0,702.5
G,M,Tim Cribbin,SBD,MR-G,93,Raw,1991,IL,93.00,180,210,215,215.0,120,135,140,140.0,210,227.5,237.5,237.5,592.5
G,M,Eric Lohman,SBD,MR-G,93,Raw,1989,MN,85.70,185,195,205,205.0,127.5,135,142.5,142.5,222.5,232.5,242.5,242.5,590
G,M,Garrison Gless,SBD,MR-G,93,Raw,1990,MN,93.00,195,205,-217.5,205.0,120,132.5,-137.5,132.5,235,247.5,-260,247.5,585
G,M,Jayden Cantu,SBD,MR-G,93,Raw,1998,MN,92.90,187.5,190,210,210.0,-107.5,117.5,120,120.0,227.5,250,-272.5,250.0,580
G,M,Tyler Kelly,SBD,MR-G,93,Raw,1993,IL,91.10,190,205,-212.5,205.0,132.5,140,-150,140.0,195,215,227.5,227.5,572.5
G,M,James Snee,SBD,MR-G,93,Raw,1997,MN,91.80,-177.5,185,195,195.0,-115,122.5,-127.5,122.5,227.5,240,247.5,247.5,565
G,M,Mike Burns,SBD,MR-G,93,Raw,1987,MN,92.00,150,160,170,170.0,165,-175,-175,165.0,182.5,-192.5,-200,182.5,517.5
G,M,Matt Blunk,SBD,MR-G,93,Raw,1992,IL,89.70,162.5,175,182.5,182.5,115,125,127.5,127.5,182.5,190,195,195.0,505
G,M,John Valpatic,SBD,MR-G,93,Raw,1953,IN,87.60,142.5,157.5,165,165.0,85,92.5,-97.5,92.5,195,205,212.5,212.5,470
G,M,Joe Hummel,SBD,MR-G,93,Raw,1955,IL,91.60,145,155,160,160.0,105,110,112.5,112.5,165,182.5,-185,182.5,455
G,M,Lee Mueller,SBD,MR-G,93,Raw,1996,MN,92.70,122.5,132.5,137.5,137.5,95,102.5,105,105.0,145,170,182.5,182.5,425
DQ,M,Hunter Mason,SBD,MR-G,93,Raw,1996,MI,90.60,-135,-135,-145,,85,102.5,-110,102.5,150,175,-207.5,175.0,
G,M,Ryan Yoch,SBD,MR-G,105,Raw,1997,MN,103.15,165,175,-190,175.0,105,112.5,122.5,122.5,185,200,217.5,217.5,515
G,M,Kyle Kampschroer,SBD,MR-G,120,Raw,1989,MN,114.25,217.5,227.5,-237.5,227.5,137.5,145,-150,145.0,240,252.5,-272.5,252.5,625
DQ,M,Dustin Clark,SBD,MR-G,120,Raw,1988,IL,111.55,170,182.5,192.5,192.5,-115,-125,-125,,-205,,,,
1,M,Scott Grade,SBD,MR-M,74,Raw,1971,WI,73.30,162.5,172.5,-182.5,172.5,117.5,127.5,132.5,132.5,210,220,227.5,227.5,532.5
1,M,Gary Meerschaert,SBD,MR-M,83,Raw,1959,WI,79.20,160,170,-182.5,170.0,100,102.5,-105,102.5,177.5,182.5,-185,182.5,455
2,M,Bob Poetzel,SBD,MR-M,83,Raw,1964,WI,81.80,142.5,152.5,157.5,157.5,102.5,112.5,115,115.0,157.5,175,182.5,182.5,455
1,M,Kory Ryan,SBD,MR-M,93,Raw,1976,WI,92.60,190,195,205,205.0,125,127.5,-130,127.5,235,240,245,245.0,577.5
2,M,Matthew Pickard,SBD,MR-M,93,Raw,1971,WI,92.50,-180,180,187.5,187.5,132.5,142.5,-150,142.5,225,235,240,240.0,570
3,M,Dennis Schmit,SBD,MR-M,93,Raw,1970,WI,91.70,165,177.5,-187.5,177.5,130,142.5,-150,142.5,170,-185,200,200.0,520
1,M,Scott Diamond,SBD,MR-M,105,Raw,1977,WI,102.75,187.5,200,-202.5,200.0,132.5,140,-145,140.0,227.5,237.5,-247.5,237.5,577.5
2,M,Steve Zahn,SBD,MR-M,105,Raw,1962,WI,103.60,172.5,180,182.5,182.5,142.5,-147.5,-147.5,142.5,185,200,,200.0,525
3,M,Chris Eastman,SBD,MR-M,105,Raw,1969,WI,97.50,135,155,-170,155.0,125,135,145,145.0,180,190,200,200.0,500
4,M,Ron Burmeister,SBD,MR-M,105,Raw,1971,WI,94.90,135,155,165,165.0,120,127.5,135,135.0,175,190,195,195.0,495
1,M,Scott Lade,SBD,MR-M,120+,Raw,1968,WI,136.70,290,-310,-310,290.0,195,205,210,210.0,267.5,277.5,-287.5,277.5,777.5
1,M,Kenneth Johnson,SBD,MR-O,59,Raw,1997,WI,56.70,125,135,145,145.0,72.5,77.5,-80,77.5,187.5,197.5,-207.5,197.5,420
1,M,Sean Ambrocio,SBD,MR-O,66,Raw,1992,WI,65.10,175,187.5,-197.5,187.5,120,-127.5,-127.5,120.0,220,-232.5,-232.5,220.0,527.5
1,M,Scott Grade,SBD,MR-O,74,Raw,1971,WI,73.30,162.5,172.5,-182.5,172.5,117.5,127.5,132.5,132.5,210,220,227.5,227.5,532.5
2,M,Alexandro Ferreira,SBD,MR-O,74,Raw,1993,WI,69.90,165,-175,175,175.0,135,-142.5,-142.5,135.0,155,167.5,180,180.0,490
3,M,Abdullah Zaid,SBD,MR-O,74,Raw,1992,WI,73.00,142.5,-155,-155,142.5,85,-92.5,92.5,92.5,145,165,-185,165.0,400
1,M,Peen Coles,SBD,MR-O,74,Raw,1996,WI,69.90,105,115,-120,115.0,57.5,62.5,-67.5,62.5,137.5,147.5,152.5,152.5,330
1,M,Tyler Brandt,SBD,MR-O,83,Raw,1992,WI,79.70,160,175,182.5,182.5,112.5,127.5,-132.5,127.5,202.5,217.5,232.5,232.5,542.5
2,M,Ryan Carow,SBD,MR-O,83,Raw,1990,WI,82.00,205,210,-217.5,210.0,107.5,112.5,-120,112.5,212.5,217.5,-222.5,217.5,540
3,M,Patrick Loper,SBD,MR-O,83,Raw,1989,WI,82.60,165,175,182.5,182.5,112.5,-117.5,-117.5,112.5,217.5,230,-242.5,230.0,525
4,M,Gary Meerschaert,SBD,MR-O,83,Raw,1959,WI,79.20,160,170,-182.5,170.0,100,102.5,-105,102.5,177.5,182.5,-185,182.5,455
5,M,Bob Poetzel,SBD,MR-O,83,Raw,1964,WI,81.80,142.5,152.5,157.5,157.5,102.5,112.5,115,115.0,157.5,175,182.5,182.5,455
6,M,Benjamin Geenen,SBD,MR-O,83,Raw,1996,WI,81.60,142.5,152.5,-160,152.5,-92.5,95,-102.5,95.0,175,185,-190,185.0,432.5
7,M,Andrew Meyerhofer,SBD,MR-O,83,Raw,1995,WI,79.30,150,160,,160.0,97.5,105,-112.5,105.0,120,,,120.0,385
1,M,Louis Kumbalek,SBD,MR-O,93,Raw,1990,WI,90.10,225,237.5,252.5,252.5,150,160,170,170.0,245,265,280,280.0,702.5
2,M,Vong Xiong,SBD,MR-O,93,Raw,1994,WI,91.50,247.5,262.5,-265,262.5,130,137.5,142.5,142.5,282.5,-297.5,297.5,297.5,702.5
3,M,Greg Wunrow,SBD,MR-O,93,Raw,1991,WI,90.90,250,-260,-260,250.0,152.5,-157.5,-157.5,152.5,-250,250,-260,250.0,652.5
4,M,Alexander Owens,SBD,MR-O,93,Raw,1995,WI,91.50,227.5,247.5,255,255.0,142.5,152.5,-157.5,152.5,230,242.5,-250,242.5,650
5,M,Justin Nelsen,SBD,MR-O,93,Raw,1984,WI,91.80,227.5,-240,240,240.0,162.5,167.5,-172.5,167.5,-225,225,237.5,237.5,645
6,M,Matthew Bailey,SBD,MR-O,93,Raw,1984,WI,86.20,215,230,237.5,237.5,132.5,137.5,142.5,142.5,225,242.5,-255,242.5,622.5
7,M,Tyler Burgeson,SBD,MR-O,93,Raw,1995,WI,89.80,185,197.5,205,205.0,127.5,135,140,140.0,215,240,250,250.0,595
8,M,Joshua Staniszewski,SBD,MR-O,93,Raw,1992,WI,86.80,175,185,-192.5,185.0,125,130,-137.5,130.0,250,-262.5,262.5,262.5,577.5
9,M,Lawrence Schulte,SBD,MR-O,93,Raw,1996,WI,91.70,-192.5,197.5,-207.5,197.5,125,132.5,-137.5,132.5,-227.5,237.5,247.5,247.5,577.5
10,M,Kory Ryan,SBD,MR-O,93,Raw,1976,WI,92.60,190,195,205,205.0,125,127.5,-130,127.5,235,240,245,245.0,577.5
11,M,Matthew Pickard,SBD,MR-O,93,Raw,1971,WI,92.50,-180,180,187.5,187.5,132.5,142.5,-150,142.5,225,235,240,240.0,570
12,M,John Baron,SBD,MR-O,93,Raw,1994,WI,89.30,185,-195,195,195.0,115,122.5,-130,122.5,210,227.5,235,235.0,552.5
13,M,Ryan Norton,SBD,MR-O,93,Raw,1989,WI,90.60,167.5,182.5,197.5,197.5,107.5,117.5,125,125.0,200,217.5,227.5,227.5,550
14,M,Dennis Schmit,SBD,MR-O,93,Raw,1970,WI,91.70,165,177.5,-187.5,177.5,130,142.5,-150,142.5,170,-185,200,200.0,520
15,M,Jacob Spiewak,SBD,MR-O,93,Raw,1990,WI,87.50,180,190,192.5,192.5,112.5,115,-117.5,115.0,190,195,202.5,202.5,510
16,M,Steven Thunander,SBD,MR-O,93,Raw,1983,WI,88.30,-174.5,175,-185,175.0,102.5,110,-115,110.0,192.5,205,220,220.0,505
17,M,Alex Perhac,SBD,MR-O,93,Raw,1991,WI,86.40,152.5,162.5,172.5,172.5,102.5,107.5,115,115.0,190,202.5,212.5,212.5,500
18,M,Jason Zepnick,SBD,MR-O,93,Raw,1984,WI,89.20,152.5,160,175,175.0,100,115,-135,115.0,182.5,197.5,-217.5,197.5,487.5
19,M,Shawn Fernandez,SBD,MR-O,93,Raw,1992,WI,92.00,182.5,190,-197.5,190.0,95,102.5,-107.5,102.5,170,185,195,195.0,487.5
20,M,Tushar Morabkar,SBD,MR-O,93,Raw,1994,WI,89.90,150,157.5,-170,157.5,110,117.5,125,125.0,155,167.5,180,180.0,462.5
1,M,Joshua Peardot,SBD,MR-O,105,Raw,1998,WI,103.25,272.5,282.5,287.5,287.5,167.5,172.5,-177.5,172.5,252.5,267.5,282.5,282.5,742.5
2,M,Joe Allen,SBD,MR-O,105,Raw,1996,WI,103.35,235,250,-260,250.0,155,165,170,170.0,280,295,317.5,317.5,737.5
3,M,Benjamin Clewien,SBD,MR-O,105,Raw,1989,WI,102.65,245,260,-272.5,260.0,160,170,175,175.0,250,265,277.5,277.5,712.5
4,M,John Tarasik,SBD,MR-O,105,Raw,1986,WI,102.25,220,232.5,240,240.0,160,172.5,182.5,182.5,250,277.5,-292.5,277.5,700
5,M,Derek Peerenboom,SBD,MR-O,105,Raw,1993,WI,99.60,240,252.5,-260,252.5,140,147.5,152.5,152.5,235,245,260,260.0,665
6,M,Anthony Wolf,SBD,MR-O,105,Raw,1995,WI,101.40,220,227.5,237.5,237.5,152.5,157.5,-162.5,157.5,230,242.5,250,250.0,645
7,M,Alec Sime,SBD,MR-O,105,Raw,1991,WI,104.30,-215,215,227.5,227.5,142.5,152.5,-160,152.5,250,265,-275,265.0,645
8,M,Michael Weidemann,SBD,MR-O,105,Raw,1992,WI,103.90,200,215,-227.5,215.0,142.5,147.5,152.5,152.5,240,255,-272.5,255.0,622.5
9,M,Sean Cornejo,SBD,MR-O,105,Raw,1993,WI,104.00,-200,200,212.5,212.5,135,142.5,-145,142.5,245,257.5,265,265.0,620
10,M,Brandon Danowski,SBD,MR-O,105,Raw,1994,WI,102.45,205,-220,220,220.0,132.5,137.5,-140,137.5,232.5,242.5,247.5,247.5,605
11,M,Scott Diamond,SBD,MR-O,105,Raw,1977,WI,102.75,187.5,200,-202.5,200.0,132.5,140,-145,140.0,227.5,237.5,-247.5,237.5,577.5
12,M,Ethan Blomquist,SBD,MR-O,105,Raw,1994,WI,100.15,195,205,-215,205.0,105,110,-115,110.0,220,235,250,250.0,565
13,M,Matt Peroutky,SBD,MR-O,105,Raw,1989,WI,102.25,175,182.5,187.5,187.5,132.5,-137.5,137.5,137.5,205,217.5,227.5,227.5,552.5
14,M,Ali Saffarini,SBD,MR-O,105,Raw,1984,WI,94.50,-182.5,185,187.5,187.5,-115,-117.5,120,120.0,210,220,230,230.0,537.5
15,M,Steve Zahn,SBD,MR-O,105,Raw,1962,WI,103.60,172.5,180,182.5,182.5,142.5,-147.5,-147.5,142.5,185,200,,200.0,525
16,M,Chris Eastman,SBD,MR-O,105,Raw,1969,WI,97.50,135,155,-170,155.0,125,135,145,145.0,180,190,200,200.0,500
17,M,Ron Burmeister,SBD,MR-O,105,Raw,1971,WI,94.90,135,155,165,165.0,120,127.5,135,135.0,175,190,195,195.0,495
18,M,Jonathan Hughes,SBD,MR-O,105,Raw,1986,WI,102.70,165,-170,170,170.0,115,-125,-125,115.0,200,205,210,210.0,495
1,M,Bret Oswald,SBD,MR-O,120,Raw,1986,WI,119.10,245,265,277.5,277.5,-145,147.5,-152.5,147.5,275,297.5,310,310.0,735
2,M,Alex Stoll,SBD,MR-O,120,Raw,1997,WI,111.60,245,267.5,277.5,277.5,145,155,160,160.0,265,280,295,295.0,732.5
3,M,Jaden Burgess-Eisch,SBD,MR-O,120,Raw,1999,WI,118.40,265,280,-290,280.0,167.5,177.5,-182.5,177.5,257.5,275,-280,275.0,732.5
4,M,Patrick Little,SBD,MR-O,120,Raw,1994,WI,118.20,230,240,252.5,252.5,160,-172.5,-172.5,160.0,275,287.5,-297.5,287.5,700
5,M,Brian Naidicz,SBD,MR-O,120,Raw,1987,WI,115.15,200,210,-215,210.0,130,-142.5,142.5,142.5,210,220,230,230.0,582.5
6,M,Joseph Nordin,SBD,MR-O,120,Raw,1992,WI,107.10,180,187.5,-192.5,187.5,137.5,-142.5,142.5,142.5,220,227.5,237.5,237.5,567.5
7,M,Jason Johnson,SBD,MR-O,120,Raw,1971,WI,119.50,175,-187.5,-187.5,175.0,135,-140,-140,135.0,200,-217.5,-217.5,200.0,510
1,M,Cooper Wage,SBD,MR-O,120+,Raw,1987,WI,165.75,340,360,380,380.0,240,260,-266,260.0,307.5,320,335,335.0,975
2,M,Scott Lade,SBD,MR-O,120+,Raw,1968,WI,136.70,290,-310,-310,290.0,195,205,210,210.0,267.5,277.5,-287.5,277.5,777.5
3,M,Declan Dilley,SBD,MR-O,120+,Raw,1998,WI,136.65,225,240,250,250.0,145,155,-160,155.0,245,262.5,-275,262.5,667.5
4,M,Brian McNally,SBD,MR-O,120+,Raw,1983,WI,129.30,222.5,237.5,245,245.0,150,157.5,-167.5,157.5,220,232.5,242.5,242.5,645
5,M,Nicholas Griepentrog,SBD,MR-O,120+,Raw,1978,WI,152.65,200,210,230,230.0,140,-145,-145,140.0,200,227.5,232.5,232.5,602.5
6,M,Toney Aleman,SBD,MR-O,120+,Raw,1983,WI,120.15,-207.5,207.5,-210,207.5,-135,135,-140,135.0,195,197.5,202.5,202.5,545
7,M,Justin Bartolazzi,SBD,MR-O,120+,Raw,2000,WI,123.65,-170,-185,185,185.0,-100,-107.5,107.5,107.5,205,217.5,-227.5,217.5,510
DQ,M,Derek Defranco,SBD,MR-O,120+,Raw,1982,WI,168.40,-227.5,-227.5,-227.5,,160,170,-177.5,170.0,195,210,-227.5,210.0,
1,F,Haley Chojnacki,SBD,F-C,57,Single-ply,1999,WI,54.80,110,115,122.5,122.5,62.5,65,-70,65.0,112.5,122.5,-132.5,122.5,310
1,F,Brittany Rabe,SBD,F-C,72,Single-ply,1998,WI,68.10,162.5,167.5,-172.5,167.5,87.5,92.5,-95,92.5,165,-185,,165.0,425
2,F,Brittany Rabe,SBD,F-C,72,Single-ply,1998,WI,68.10,162.5,167.5,-172.5,167.5,87.5,92.5,-95,92.5,165,-185,,165.0,425
DQ,F,Amber Kierstyn,SBD,F-C,72,Single-ply,1998,WI,70.80,-167.5,-167.5,-167.5,,-92.5,-92.5,-92.5,,-182.5,-182.5,,,
1,F,Camryn Ochs,SBD,F-C,84,Single-ply,1999,WI,74.50,155,165,-170,165.0,62.5,67.5,72.5,72.5,135,142.5,147.5,147.5,385
2,F,Ashley Ristic,SBD,F-C,84,Single-ply,2000,WI,75.30,142.5,150,152.5,152.5,-82.5,82.5,85,85.0,132.5,145,-150,145.0,382.5
3,F,Suzy Luthi,SBD,F-C,84,Single-ply,1999,WI,78.00,110,122.5,137.5,137.5,67.5,72.5,-77.5,72.5,112.5,125,127.5,127.5,337.5
G,F,Natalie Hanson,SBD,F-G,84,Single-ply,1990,AK,83.60,240,255,262.5,262.5,145,152.5,157.5,157.5,200,202.5,215,215.0,635
1,F,Haley Chojnacki,SBD,F-O,57,Single-ply,1999,WI,54.80,110,115,122.5,122.5,62.5,65,-70,65.0,112.5,122.5,-132.5,122.5,310
1,F,Brittany Rabe,SBD,F-O,72,Single-ply,1998,WI,68.10,162.5,167.5,-172.5,167.5,87.5,92.5,-95,92.5,165,-185,,165.0,425
2,F,Kari Montie,SBD,F-O,72,Single-ply,1986,WI,66.90,135,145,157.5,157.5,80,85,-90,85.0,127.5,140,145,145.0,387.5
DQ,F,Amber Kierstyn,SBD,F-O,72,Single-ply,1998,WI,70.80,-167.5,-167.5,-167.5,,-92.5,-92.5,-92.5,,-182.5,-182.5,,,
1,F,Sara Rodock,SBD,F-O,84,Single-ply,1981,WI,83.00,190,200,-205,200.0,-137.5,137.5,142.5,142.5,150,160,-170,160.0,502.5
2,F,Camryn Ochs,SBD,F-O,84,Single-ply,1999,WI,74.50,155,165,-170,165.0,62.5,67.5,72.5,72.5,135,142.5,147.5,147.5,385
3,F,Ashley Ristic,SBD,F-O,84,Single-ply,2000,WI,75.30,142.5,150,152.5,152.5,-82.5,82.5,85,85.0,132.5,145,-150,145.0,382.5
4,F,Suzy Luthi,SBD,F-O,84,Single-ply,1999,WI,78.00,110,122.5,137.5,137.5,67.5,72.5,-77.5,72.5,112.5,125,127.5,127.5,337.5
1,F,Hannah Brown,SBD,F-O,84+,Single-ply,1990,WI,94.00,-165,165,167.5,167.5,90,-95,95,95.0,175,185,192.5,192.5,455
1,F,Lianna Schwalenberg,SBD,FR-C,57,Raw,1995,WI,52.80,115,125,-135,125.0,65,75,77.5,77.5,110,120,125,125.0,327.5
2,F,April Rose,SBD,FR-C,57,Raw,1998,WI,53.90,50,57.5,62.5,62.5,37.5,42.5,45,45.0,77.5,85,92.5,92.5,200
1,F,Brittany Danda,SBD,FR-C,63,Raw,1998,WI,61.70,110,117.5,122.5,122.5,55,60,62.5,62.5,130,145,150,150.0,335
2,F,Elle Reber,SBD,FR-C,63,Raw,1997,WI,61.80,105,107.5,-115,107.5,50,52.5,-57.5,52.5,117.5,130,135,135.0,295
3,F,Michelle Wallner,SBD,FR-C,63,Raw,1995,WI,62.70,85,92.5,-97.5,92.5,47.5,52.5,-60,52.5,120,130,137.5,137.5,282.5
1,F,Amanda Zielinski,SBD,FR-C,72,Raw,1997,WI,71.00,125,130,-135,130.0,77.5,80,82.5,82.5,140,147.5,155,155.0,367.5
2,F,Kaitlyn Sankey,SBD,FR-C,72,Raw,1996,WI,70.10,105,115,-125,115.0,40,-42.5,42.5,42.5,137.5,147.5,-155,147.5,305
3,F,Hannah Slater,SBD,FR-C,72,Raw,2000,WI,66.90,90,107.5,112.5,112.5,-45,45,52.5,52.5,100,120,127.5,127.5,292.5
4,F,Alexis Stein,SBD,FR-C,72,Raw,2000,WI,71.90,62.5,77.5,85,85.0,40,47.5,52.5,52.5,85,95,115,115.0,252.5
1,F,Sarah Sicard,SBD,FR-C,84,Raw,1991,WI,75.70,140,150,160,160.0,-77.5,82.5,87.5,87.5,155,167.5,182.5,182.5,430
2,F,Emma Gehring,SBD,FR-C,84,Raw,1997,WI,83.90,-110,120,132.5,132.5,47.5,52.5,60,60.0,-115,-122.5,122.5,122.5,315
G,F,Lindsay Schwartz,SBD,FR-G,57,Raw,1990,IL,55.00,92.5,97.5,-100,97.5,57.5,62.5,-65,62.5,137.5,150,-157.5,150.0,310
G,F,Courtney Johnson,SBD,FR-G,57,Raw,1986,MN,52.20,60,70,-80,70.0,-25,30,42.5,42.5,65,75,92.5,92.5,205
G,F,Alaina O'Rourke,SBD,FR-G,63,Raw,1987,IL,60.30,70,75,77.5,77.5,47.5,-50,52.5,52.5,105,110,115,115.0,245
G,F,Suzanne Black,B,FR-G,84+,Raw,1976,IL,119.10,,,,,-75,75,-92.5,75.0,,,,,75
1,F,Kelley Sherwin,SBD,FR-M,52,Raw,1972,WI,51.80,82.5,90,92.5,92.5,55,57.5,62.5,62.5,110,120,127.5,127.5,282.5
1,F,Amy Pretasky,SBD,FR-M,57,Raw,1974,WI,53.50,82.5,85,-92.5,85.0,52.5,55,-57.5,55.0,-110,110,120,120.0,260
1,F,Sandra Kasabuske,SBD,FR-M,63,Raw,1948,WI,62.90,70,-75,75,75.0,35,40,-42.5,40.0,92.5,-100,100,100.0,215
1,F,Stephanie Tai,SBD,FR-M,72,Raw,1973,WI,66.30,60,65,-72.5,65.0,57.5,62.5,-65,62.5,102.5,115,-120,115.0,242.5
DQ,F,Candice Feider,SBD,FR-M,72,Raw,1972,WI,71.40,-112.5,-125,-125,,60,65,-70,65.0,112.5,122.5,-130,122.5,
1,F,Jennifer Sahy,SBD,FR-M,84,Raw,1970,WI,76.60,142.5,155,-160,155.0,72.5,77.5,82.5,82.5,180,192.5,-200,192.5,430
2,F,Christine Matthews,SBD,FR-M,84,Raw,1976,WI,83.00,-102.5,102.5,105,105.0,60,-67.5,67.5,67.5,115,125,137.5,137.5,310
3,F,Stacy Stone,SBD,FR-M,84,Raw,1970,WI,83.50,85,95,102.5,102.5,45,50,-55,50.0,112.5,122.5,130,130.0,282.5
4,F,Jessica Newman,SBD,FR-M,84,Raw,1971,WI,74.10,75,-85,92.5,92.5,42.5,45,-50,45.0,105,120,-130,120.0,257.5
1,F,Terri Brown,SBD,FR-M,84+,Raw,1970,WI,90.20,75,82.5,95,95.0,50,57.5,-65,57.5,120,130,142.5,142.5,295
2,F,Katherine Klass,SBD,FR-M,84+,Raw,1954,WI,126.40,70,-85,95,95.0,60,65,-67.5,65.0,125,135,-142.5,135.0,295
3,F,Renee Huck,SBD,FR-M,84+,Raw,1951,WI,109.20,85,95,100,100.0,55,-60,-62.5,55.0,102.5,115,-125,115.0,270
4,F,Lisa Lipp,SBD,FR-M,84+,Raw,1974,WI,105.50,70,80,82.5,82.5,45,50,57.5,57.5,100,105,117.5,117.5,257.5
1,F,Pakou Lee,SBD,FR-O,47,Raw,1989,WI,46.80,70,80,92.5,92.5,42.5,47.5,50,50.0,90,100,112.5,112.5,255
1,F,Sommer Binash,SBD,FR-O,52,Raw,1990,WI,51.20,105,110,-115,110.0,50,-57.5,-57.5,50.0,130,-135,135,135.0,295
2,F,Kelley Sherwin,SBD,FR-O,52,Raw,1972,WI,51.80,82.5,90,92.5,92.5,55,57.5,62.5,62.5,110,120,127.5,127.5,282.5
3,F,Jessica Rangel,SBD,FR-O,52,Raw,1988,WI,50.80,92.5,102.5,-110,102.5,60,-65,-65,60.0,115,-122.5,-122.5,115.0,277.5
4,F,Kathleen Tow,SBD,FR-O,52,Raw,1988,WI,50.70,52.5,57.5,-62.5,57.5,35,-40,-40,35.0,75,80,85,85.0,177.5
1,F,Lianna Schwalenberg,SBD,FR-O,57,Raw,1995,WI,52.80,115,125,-135,125.0,65,75,77.5,77.5,110,120,125,125.0,327.5
2,F,Stephanie School,SBD,FR-O,57,Raw,1991,WI,55.80,85,95,-100,95.0,50,57.5,-62.5,57.5,117.5,130,140,140.0,292.5
3,F,Amy Pretasky,SBD,FR-O,57,Raw,1974,WI,53.50,82.5,85,-92.5,85.0,52.5,55,-57.5,55.0,-110,110,120,120.0,260
4,F,Sydney Struck,SBD,FR-O,57,Raw,1997,WI,56.00,60,-65,65,65.0,45,47.5,-50,47.5,112.5,125,-127.5,125.0,237.5
5,F,April Rose,SBD,FR-O,57,Raw,1998,WI,53.90,50,57.5,62.5,62.5,37.5,42.5,45,45.0,77.5,85,92.5,92.5,200
1,F,Jordan Whipple,SBD,FR-O,63,Raw,1997,WI,61.40,142.5,-150,-150,142.5,65,70,-77.5,70.0,142.5,150,-160,150.0,362.5
2,F,Jeannette Cohen,SBD,FR-O,63,Raw,1993,WI,62.30,107.5,115,122.5,122.5,67.5,72.5,77.5,77.5,142.5,147.5,-152.5,147.5,347.5
3,F,Brittany Danda,SBD,FR-O,63,Raw,1998,WI,61.70,110,117.5,122.5,122.5,55,60,62.5,62.5,130,145,150,150.0,335
4,F,Elle Reber,SBD,FR-O,63,Raw,1997,WI,61.80,105,107.5,-115,107.5,50,52.5,-57.5,52.5,117.5,130,135,135.0,295
5,F,Karisa Verheyen,SBD,FR-O,63,Raw,1989,WI,61.40,85,97.5,102.5,102.5,50,55,60,60.0,102.5,110,127.5,127.5,290
6,F,Meghann Rosenwald,SBD,FR-O,63,Raw,1991,WI,60.10,85,95,102.5,102.5,47.5,52.5,55,55.0,115,125,-132.5,125.0,282.5
7,F,Michelle Wallner,SBD,FR-O,63,Raw,1995,WI,62.70,85,92.5,-97.5,92.5,47.5,52.5,-60,52.5,120,130,137.5,137.5,282.5
8,F,Kelly Ocallaghan,SBD,FR-O,63,Raw,1991,WI,59.70,85,92.5,97.5,97.5,52.5,57.5,60,60.0,92.5,100,110,110.0,267.5
9,F,Erin Zabel,SBD,FR-O,63,Raw,1988,WI,57.10,80,85,-90,85.0,47.5,52.5,-55,52.5,102.5,110,115,115.0,252.5
10,F,Leah Martin,SBD,FR-O,63,Raw,1989,WI,60.90,82.5,87.5,-90,87.5,45,-50,-52.5,45.0,95,102.5,107.5,107.5,240
11,F,Laura LeGault,SBD,FR-O,63,Raw,1985,WI,60.80,80,87.5,92.5,92.5,-45,45,-52.5,45.0,90,97.5,-107.5,97.5,235
12,F,Dawn Reese,SBD,FR-O,63,Raw,1980,WI,62.50,77.5,82.5,-90,82.5,32.5,37.5,-45,37.5,87.5,100,-112.5,100.0,220
13,F,Sandra Kasabuske,SBD,FR-O,63,Raw,1948,WI,62.90,70,-75,75,75.0,35,40,-42.5,40.0,92.5,-100,100,100.0,215
1,F,Amanda Zielinski,SBD,FR-O,72,Raw,1997,WI,71.00,125,130,-135,130.0,77.5,80,82.5,82.5,140,147.5,155,155.0,367.5
2,F,Gabriella Jacobsen,SBD,FR-O,72,Raw,1990,WI,70.50,117.5,120,127.5,127.5,70,-75,75,75.0,147.5,155,-165,155.0,357.5
3,F,Raquel Rust,SBD,FR-O,72,Raw,1993,WI,71.10,100,110,120,120.0,60,67.5,-70,67.5,135,142.5,147.5,147.5,335
4,F,Crystale Lind,SBD,FR-O,72,Raw,1979,WI,65.70,100,107.5,-115,107.5,57.5,65,-70,65.0,115,122.5,132.5,132.5,305
5,F,Kaitlyn Sankey,SBD,FR-O,72,Raw,1996,WI,70.10,105,115,-125,115.0,40,-42.5,42.5,42.5,137.5,147.5,-155,147.5,305
6,F,Annie Meidl,SBD,FR-O,72,Raw,1987,WI,71.10,80,92.5,95,95.0,50,57.5,-62.5,57.5,125,137.5,150,150.0,302.5
7,F,Hannah Slater,SBD,FR-O,72,Raw,2000,WI,66.90,90,107.5,112.5,112.5,-45,45,52.5,52.5,100,120,127.5,127.5,292.5
8,F,Alysa Melzer,SBD,FR-O,72,Raw,1990,WI,71.90,92.5,100,-110,100.0,-50,-50,50,50.0,120,127.5,137.5,137.5,287.5
9,F,Marissa Pinnola,SBD,FR-O,72,Raw,1989,WI,68.40,85,92.5,97.5,97.5,45,47.5,-50,47.5,97.5,105,112.5,112.5,257.5
10,F,Alexis Stein,SBD,FR-O,72,Raw,2000,WI,71.90,62.5,77.5,85,85.0,40,47.5,52.5,52.5,85,95,115,115.0,252.5
11,F,Stephanie Tai,SBD,FR-O,72,Raw,1973,WI,66.30,60,65,-72.5,65.0,57.5,62.5,-65,62.5,102.5,115,-120,115.0,242.5
DQ,F,Candice Feider,SBD,FR-O,72,Raw,1972,WI,71.40,-112.5,-125,-125,,60,65,-70,65.0,112.5,122.5,-130,122.5,
1,F,Sarah Sicard,SBD,FR-O,84,Raw,1991,WI,75.70,140,150,160,160.0,-77.5,82.5,87.5,87.5,155,167.5,182.5,182.5,430
2,F,Jennifer Sahy,SBD,FR-O,84,Raw,1970,WI,76.60,142.5,155,-160,155.0,72.5,77.5,82.5,82.5,180,192.5,-200,192.5,430
3,F,Kimberly Buchholz,SBD,FR-O,84,Raw,1995,WI,81.40,122.5,130,-137.5,130.0,77.5,82.5,-87.5,82.5,152.5,162.5,-172.5,162.5,375
4,F,Amy Benzshawel,SBD,FR-O,84,Raw,1988,WI,82.40,107.5,125,132.5,132.5,60,67.5,72.5,72.5,130,150,162.5,162.5,367.5
5,F,Emma Gehring,SBD,FR-O,84,Raw,1997,WI,83.90,-110,120,132.5,132.5,47.5,52.5,60,60.0,-115,-122.5,122.5,122.5,315
6,F,Christine Matthews,SBD,FR-O,84,Raw,1976,WI,83.00,-102.5,102.5,105,105.0,60,-67.5,67.5,67.5,115,125,137.5,137.5,310
7,F,Katie Nelson,SBD,FR-O,84,Raw,1990,WI,78.10,97.5,107.5,117.5,117.5,47.5,52.5,57.5,57.5,107.5,120,130,130.0,305
8,F,Carolanne Trilling,SBD,FR-O,84,Raw,1988,WI,82.50,87.5,95,102.5,102.5,55,60,62.5,62.5,100,110,122.5,122.5,287.5
9,F,Stacy Stone,SBD,FR-O,84,Raw,1970,WI,83.50,85,95,102.5,102.5,45,50,-55,50.0,112.5,122.5,130,130.0,282.5
10,F,Jessica Newman,SBD,FR-O,84,Raw,1971,WI,74.10,75,-85,92.5,92.5,42.5,45,-50,45.0,105,120,-130,120.0,257.5
1,F,Stacie Pomrening,SBD,FR-O,84+,Raw,1992,WI,95.60,137.5,147.5,152.5,152.5,102.5,107.5,-112.5,107.5,165,175,185,185.0,445
2,F,Margaret Fichter,SBD,FR-O,84+,Raw,1985,WI,125.60,142.5,152.5,162.5,162.5,80,85,87.5,87.5,162.5,172.5,-182.5,172.5,422.5
3,F,Molly Nitka,SBD,FR-O,84+,Raw,1989,WI,92.70,110,125,-137.5,125.0,60,62.5,-67.5,62.5,160,175,-182.5,175.0,362.5
4,F,Julia Gengenbach,SBD,FR-O,84+,Raw,1977,WI,91.70,107.5,115,-120,115.0,65,72.5,-75,72.5,137.5,145,152.5,152.5,340
5,F,Deb McNally,SBD,FR-O,84+,Raw,1980,WI,93.50,-112.5,117.5,125,125.0,67.5,72.5,80,80.0,122.5,127.5,135,135.0,340
6,F,Terri Brown,SBD,FR-O,84+,Raw,1970,WI,90.20,75,82.5,95,95.0,50,57.5,-65,57.5,120,130,142.5,142.5,295
7,F,Katherine Klass,SBD,FR-O,84+,Raw,1954,WI,126.40,70,-85,95,95.0,60,65,-67.5,65.0,125,135,-142.5,135.0,295
8,F,Renee Huck,SBD,FR-O,84+,Raw,1951,WI,109.20,85,95,100,100.0,55,-60,-62.5,55.0,102.5,115,-125,115.0,270
9,F,Lisa Lipp,SBD,FR-O,84+,Raw,1974,WI,105.50,70,80,82.5,82.5,45,50,57.5,57.5,100,105,117.5,117.5,257.5
10,F,Kelley Kepler,SBD,FR-O,84+,Raw,1979,WI,109.50,-80,80,-90,80.0,50,55,-60,55.0,90,100,-112.5,100.0,235
