Division,WeightClassKg,Place,Name,Team,BodyweightKg,Best3SquatKg,Best3BenchKg,Best3DeadliftKg,TotalKg,Equipment,Event,Sex
Boys,51.71,1,Parker Redman,Alvord,51.26,106.59,72.57,115.67,294.84,Single-ply,SBD,M
Boys,51.71,2,Raiden Brezina,Bowie,47.08,102.06,49.9,92.99,244.94,Single-ply,SBD,M
Boys,51.71,3,Trenton Cottrell,Paradise,46.9,83.91,49.9,79.38,213.19,Single-ply,SBD,M
Boys,51.71,4,Jesse Butler,Alvord,48.99,68.04,49.9,88.45,206.38,Single-ply,SBD,M
Boys,51.71,5,Hunter Bowen,Boyd,44.27,70.31,43.09,83.91,197.31,Single-ply,SBD,M
Boys,55.79,1,Justin Christensen,Alvord,55.16,163.29,88.45,154.22,405.97,Single-ply,SBD,M
Boys,55.79,2,Colton Covington,Bowie,55.43,102.06,72.57,140.61,315.25,Single-ply,SBD,M
Boys,55.79,3,Colton Adler,Ponder,53.07,90.72,52.16,97.52,240.4,Single-ply,SBD,M
Boys,59.87,1,Payton Miller,Alvord,59.42,197.31,108.86,170.1,476.27,Single-ply,SBD,M
Boys,59.87,2,Roman Rivas,Bowie,58.42,147.42,92.99,156.49,396.89,Single-ply,SBD,M
Boys,59.87,3,Ethan Myers,Bowie,59.33,133.81,79.38,156.49,369.68,Single-ply,SBD,M
Boys,59.87,4,Jarrett Morris,Paradise,57.24,138.35,74.84,149.69,362.87,Single-ply,SBD,M
Boys,59.87,5,Josh Christian,Boyd,59.87,140.61,70.31,136.08,347,Single-ply,SBD,M
Boys,59.87,6,Lane Nelson,Paradise,59.24,106.59,72.57,111.13,290.3,Single-ply,SBD,M
Boys,59.87,7,Seth Wilbur,Paradise,56.15,113.4,52.16,115.67,281.23,Single-ply,SBD,M
Boys,59.87,8,Nathan Curry,Bowie,57.24,108.86,61.23,108.86,278.96,Single-ply,SBD,M
Boys,59.87,DQ,Colton Parker,Alvord,59.6,,,,,Single-ply,SBD,M
Boys,67.13,1,Jakob Dumke,Alvord,65.32,151.95,111.13,170.1,433.18,Single-ply,SBD,M
Boys,67.13,2,Dalton Davis,Bowie,64.95,156.49,95.25,174.63,426.38,Single-ply,SBD,M
Boys,67.13,3,Lane Stevens,Paradise,65.77,140.61,108.86,172.37,421.84,Single-ply,SBD,M
Boys,67.13,4,Julian Perez,Paradise,66.41,136.08,79.38,142.88,358.34,Single-ply,SBD,M
Boys,67.13,5,Devin Melton,Bowie,64.23,120.2,61.23,140.61,322.05,Single-ply,SBD,M
Boys,67.13,6,Alfonso Barraza,Ponder,61.51,108.86,74.84,124.74,308.44,Single-ply,SBD,M
Boys,67.13,7,Drew Epperson,Alvord,65.41,86.18,52.16,99.79,238.14,Single-ply,SBD,M
Boys,67.13,DQ,Payton Meroney,Ponder,62.69,,,,,Single-ply,SBD,M
Boys,67.13,DQ,Ruben Nigo,Alvord,60.06,136.08,,,,Single-ply,SBD,M
Boys,74.84,1,Tanner Richey,Alvord,74.12,195.04,124.74,197.31,517.1,Single-ply,SBD,M
Boys,74.84,2,Wyatt Reeves,Paradise,71.67,195.04,115.67,201.85,512.56,Single-ply,SBD,M
Boys,74.84,3,Ty Harris,Bowie,71.03,192.78,117.93,192.78,503.49,Single-ply,SBD,M
Boys,74.84,4,Nico Starnes,Chico,67.59,195.04,120.2,172.37,487.61,Single-ply,SBD,M
Boys,74.84,5,Joey Crawford,Bowie,72.67,179.17,97.52,197.31,474,Single-ply,SBD,M
Boys,74.84,6,Aj Craddock,Bowie,72.67,165.56,120.2,176.9,462.66,Single-ply,SBD,M
Boys,74.84,7,Abraham Aguirre,Bowie,72.03,158.76,81.65,167.83,408.23,Single-ply,SBD,M
Boys,74.84,8,Terrance Clark,Ponder,74.48,149.69,81.65,156.49,387.82,Single-ply,SBD,M
Boys,74.84,9,Tre Carter,Ponder,67.31,151.95,83.91,147.42,383.29,Single-ply,SBD,M
Boys,74.84,10,Jaden Morris,Paradise,68.04,145.15,95.25,142.88,383.29,Single-ply,SBD,M
Boys,74.84,11,Silas Carrillo,Bowie,71.76,149.69,74.84,142.88,367.41,Single-ply,SBD,M
Boys,74.84,12,Jake Fallis,Bowie,73.3,127.01,79.38,158.76,365.14,Single-ply,SBD,M
Boys,74.84,13,Hunter Aberl,Paradise,71.94,156.49,61.23,111.13,328.85,Single-ply,SBD,M
Boys,74.84,14,Tommy White,Paradise,74.75,120.2,68.04,111.13,299.37,Single-ply,SBD,M
Boys,82.1,1,Dillon Inman,Boyd,79.47,206.38,140.61,192.78,539.77,Single-ply,SBD,M
Boys,82.1,2,Jacob Skinner,Bowie,82.1,201.85,120.2,192.78,514.83,Single-ply,SBD,M
Boys,82.1,3,Jacob Robinson,Paradise,81.37,190.51,102.06,215.46,508.02,Single-ply,SBD,M
Boys,82.1,4,Victor Tran,Bowie,81.19,183.7,102.06,219.99,505.76,Single-ply,SBD,M
Boys,82.1,5,Cameron Carroll,Ponder,81.1,165.56,108.86,172.37,446.79,Single-ply,SBD,M
Boys,82.1,6,Turner Edwards,Paradise,81.65,165.56,111.13,158.76,435.45,Single-ply,SBD,M
Boys,82.1,7,Joe Gonzalez,Paradise,76.29,151.95,95.25,158.76,405.97,Single-ply,SBD,M
Boys,82.1,8,Victor Fernandez,Ponder,81.56,161.03,97.52,142.88,401.43,Single-ply,SBD,M
Boys,82.1,9,Hunter Nash,Boyd,79.29,145.15,90.72,154.22,390.09,Single-ply,SBD,M
Boys,82.1,10,Chris Osterbuhr,Bowie,78.74,147.42,70.31,165.56,383.29,Single-ply,SBD,M
Boys,82.1,11,JR Castillo,Bowie,79.2,156.49,81.65,127.01,365.14,Single-ply,SBD,M
Boys,82.1,12,Tanner Wallace,Paradise,79.56,147.42,74.84,111.13,333.39,Single-ply,SBD,M
Boys,82.1,DQ,Grant Caddell,Paradise,77.75,147.42,,,,Single-ply,SBD,M
Boys,89.81,1,Jacob Ramos,Paradise,89.54,172.37,108.86,174.63,455.86,Single-ply,SBD,M
Boys,89.81,2,Benjamin Antzak,Ponder,88.81,163.29,90.72,181.44,435.45,Single-ply,SBD,M
Boys,89.81,3,Ezra Fox,Alvord,83.28,142.88,97.52,149.69,390.09,Single-ply,SBD,M
Boys,89.81,4,Todd Holmes,Bowie,86.64,127.01,83.91,145.15,356.07,Single-ply,SBD,M
Boys,89.81,5,Hunter Harris,Alvord,83.28,122.47,74.84,127.01,324.32,Single-ply,SBD,M
Boys,89.81,DQ,Brack Jones,Paradise,87.45,142.88,99.79,,,Single-ply,SBD,M
Boys,89.81,DQ,Tyler Estep,Alvord,84.91,,,,,Single-ply,SBD,M
Boys,99.79,1,Zackary Otto,Bowie,96.16,238.14,127.01,190.51,555.65,Single-ply,SBD,M
Boys,99.79,2,Kaleb Evans,Paradise,95.35,213.19,117.93,222.26,553.38,Single-ply,SBD,M
Boys,99.79,3,Colby Cox,Paradise,92.26,190.51,102.06,181.44,474,Single-ply,SBD,M
Boys,99.79,4,Carson Tinney,Paradise,99.7,172.37,99.79,167.83,439.98,Single-ply,SBD,M
Boys,99.79,5,Noah Hancock,Alvord,96.34,151.95,104.33,163.29,419.57,Single-ply,SBD,M
Boys,99.79,6,Jon Newton,Alvord,95.8,145.15,88.45,140.61,374.21,Single-ply,SBD,M
Boys,99.79,7,Ty South,Chico,94.71,142.88,83.91,136.08,362.87,Single-ply,SBD,M
Boys,99.79,8,Jonathon Rodriguez,Paradise,99.16,145.15,90.72,124.74,360.61,Single-ply,SBD,M
Boys,99.79,9,Zane Scott,Chico,95.25,115.67,61.23,127.01,303.91,Single-ply,SBD,M
Boys,99.79,10,Hunter Wade,Bowie,94.08,113.4,65.77,102.06,281.23,Single-ply,SBD,M
Boys,99.79,DQ,Mathew Dankesreiter,Ponder,98.88,149.69,,,,Single-ply,SBD,M
Boys,109.77,1,Dain Warnick,Alvord,103.42,210.92,113.4,181.44,505.76,Single-ply,SBD,M
Boys,109.77,2,Edward Shell,Ponder,101.51,181.44,88.45,165.56,435.45,Single-ply,SBD,M
Boys,109.77,3,Brian DeLeon,Ponder,107.59,172.37,90.72,154.22,417.3,Single-ply,SBD,M
Boys,109.77,4,Gage Barclay,Alvord,101.6,120.2,99.79,127.01,347,Single-ply,SBD,M
Boys,124.74,1,Bartolo Guevara,Boyd,116.75,283.5,133.81,206.38,623.69,Single-ply,SBD,M
Boys,124.74,2,Clayton Godwin,Paradise,121.11,213.19,122.47,190.51,526.17,Single-ply,SBD,M
Boys,124.74,3,Kaleb Crable,Alvord,112.67,185.97,97.52,154.22,437.72,Single-ply,SBD,M
Boys,124.74,4,Joshua Cortez,Ponder,117.84,176.9,92.99,154.22,424.11,Single-ply,SBD,M
Boys,124.74+,1,Zach Brown,Alvord,137.89,272.16,158.76,240.4,671.32,Single-ply,SBD,M
Boys,124.74+,2,Tyson Herron,Bowie,150.14,181.44,122.47,172.37,476.27,Single-ply,SBD,M
Boys,124.74+,3,Tristian Page,Ponder,142.34,154.22,83.91,149.69,387.82,Single-ply,SBD,M
Boys,124.74+,4,Collin Hall,Ponder,126.92,154.22,79.38,136.08,369.68,Single-ply,SBD,M
