Name,Place,Division,Sex,Equipment,WeightClassKg,BodyweightKg,Age,Best3SquatKg,Best3BenchKg,Best3DeadliftKg,TotalKg,Event
Danielle Columby,1,Open,F,Raw,48,47.63,28,85,62.5,138.5,286,SBD
Lisa Dodge,1,Juniors 20-23,F,Raw,52,50.71,22,55,27.5,57.5,140,SBD
Genevieve Betro,1,Open,F,Raw,67.5,66.86,28,127.5,67.5,135,330,SBD
Tara Maier,1,Juniors 18-19,F,Raw,75,72.39,18,105,75,155,335,SBD
Tara Maier,1,Open,F,Raw,75,72.39,18,105,75,155,335,SBD
David Wiseman,1,Juniors 16-17,M,Raw,56,54.7,17,105,75.5,140.5,321,SBD
Nicholas LaRosa,1,Juniors 16-17,M,Raw,67.5,64.86,16,102.5,85,145,332.5,SBD
Alexander Offord,1,Open,M,Raw,75,74.93,32,127.5,65,147.5,340,SBD
Matt Ommen,1,Juniors 20-23,M,Raw,82.5,80.92,23,190,132.5,242.5,565,SBD
Charles Leichner,2,Juniors 20-23,M,Raw,82.5,78.56,22,166,100,206,472,SBD
Steve Kleva,1,Open,M,Raw,82.5,82.19,28,250,145,257.5,652.5,SBD
Naveed Shan,2,Open,M,Raw,82.5,80.83,26,150,132.5,200,482.5,SBD
Gaven White,1,Juniors 16-17,M,Raw,90,87.63,16,150,90,205,445,SBD
Brett W. Chrisman,1,Juniors 20-23,M,Raw,90,87.27,23,215,160,275,650,SBD
Jonathan Jazwinski,1,Open,M,Raw,90,82.78,32,190,145,227.5,562.5,SBD
Jonathan Martell,2,Open,M,Raw,90,89.72,27,160,155,217.5,532.5,SBD
Tom Knapp,3,Open,M,Raw,90,86.82,20,200,112.5,210,522.5,SBD
Paul C. Rambeau,4,Open,M,Raw,90,87.63,32,175,120,220,515,SBD
Eric Reader,5,Open,M,Raw,90,89.36,31,155,142.5,205,502.5,SBD
Mike Rawlins,1,Submasters 35-39,M,Raw,90,88.09,37,160,155,195,510,SBD
Marvin Snodgrass,1,Juniors 20-23,M,Raw,100,98.19,22,210,167.5,265,642.5,SBD
Shane Medlen,2,Juniors 20-23,M,Raw,100,92.17,22,210,115,285,610,SBD
Michael Peltz,1,Open,M,Raw,100,96.52,37,228,162.5,292.5,683,SBD
Marvin Snodgrass,2,Open,M,Raw,100,98.19,22,210,167.5,265,642.5,SBD
Shane Medlen,3,Open,M,Raw,100,92.17,22,210,115,285,610,SBD
David Zvareck,4,Open,M,Raw,100,97.98,28,205,150,255,610,SBD
Tom Matlock,1,Open,M,Raw,110,108.41,61,157.5,112.5,187.5,457.5,SBD
Tom Matlock,1,Masters 60-64,M,Raw,110,108.41,61,157.5,112.5,187.5,457.5,SBD
Brandy Yourkoski,1,Open,F,Wraps,75,70.31,36,97.5,75,142.5,315,SBD
Vahana Dorcis,1,Open,M,Raw,75,74.89,29,182.5,122.5,240,545,SBD
James Yourkoski,1,Open,M,Wraps,90,89.72,35,250,172.5,320,742.5,SBD
Jim Suor,1,Submasters 35-39,M,Wraps,110,106.68,37,185,127.5,217.5,530,SBD
Josh Sanderson,1,Juniors 20-23,M,Wraps,125,118.75,20,272.5,185,265.5,723,SBD
Keary Molinaro,1,Open,M,Single-ply,60,59.96,31,182.5,125,185,492.5,SBD
Tanner Cook,1,Juniors 20-23,M,Single-ply,82.5,82.01,20,212.5,160,222.5,595,SBD
Peter Jezyk,DQ,Masters 70-74,M,Single-ply,82.5,79.92,73,150,,,,SBD
Weylen White,1,Juniors 18-19,M,Single-ply,100,100,19,192.5,112.5,250,555,SBD
Alex Dacany,1,Masters 40-44,M,Single-ply,100,96.07,40,252.5,210,227.5,690,SBD
Asa Barnes,1,Masters 45-49,M,Single-ply,100,98.25,49,305,227.5,237.5,770,SBD
Jonathan K. Wiseman,2,Masters 45-49,M,Single-ply,100,97.52,48,287.5,177.5,265,730,SBD
Danielle Columby,1,Open,F,Raw,48,47.63,28,,62.5,,62.5,B
Cathy Bowden,1,Masters 50-54,F,Raw,67.5,67.13,50,,67.5,,67.5,B
Tara Maier,1,Juniors 18-19,F,Raw,75,72.39,18,,75,,75,B
Tara Maier,1,Open,F,Raw,75,72.39,18,,75,,75,B
Erika Grill,1,Masters 40-44,F,Raw,82.5,81.65,43,,77.5,,77.5,B
Vin Voeun,1,Submasters 35-39,M,Raw,56,52.98,36,,82.5,,82.5,B
Robert Gibson,1,Juniors 20-23,M,Raw,67.5,64.5,23,,70,,70,B
Rick Wells,1,Open,M,Raw,67.5,67.04,32,,130,,130,B
Paul Babineaux,2,Open,M,Raw,67.5,66.56,32,,122.5,,122.5,B
Robert Gibson,3,Open,M,Raw,67.5,64.52,23,,70,,70,B
Robert Perrin,1,Open,M,Raw,75,74.21,24,,125,,125,B
Gaven White,1,Juniors 16-17,M,Raw,90,87.63,16,,90,,90,B
Michael Johnson,1,Open,M,Raw,90,87.36,29,,167.5,,167.5,B
Marcus Ritschel,2,Open,M,Raw,90,89.45,36,,147.5,,147.5,B
Marcus Ritschel,1,Submasters 35-39,M,Raw,90,89.45,36,,147.5,,147.5,B
Ben O'Brien,1,Open,M,Raw,100,98.16,33,,200,,200,B
Larry Candelaria,2,Open,M,Raw,100,98.25,30,,162.5,,162.5,B
Tom Matlock,1,Masters 60-64,M,Raw,110,108.41,61,,112.5,,112.5,B
John Skelton,1,Open,M,Raw,125,121.02,46,,157.5,,157.5,B
Gene Lawrence,2,Open,M,Raw,125,120.84,73,,110,,110,B
John Skelton,1,Masters 45-49,M,Raw,125,121.02,46,,157.5,,157.5,B
Gene Lawrence,1,Masters 70-74,M,Raw,125,120.84,73,,110,,110,B
Nick Summers,1,Open,M,Raw,140,126.55,23,,242.5,,242.5,B
Derek L. Hayes,2,Open,M,Raw,140,132.18,48,,190,,190,B
Doron Jompolsky,DQ,Submasters 35-39,M,Raw,140,138.16,37,,-215,,,B
Derek L. Hayes,1,Masters 45-49,M,Raw,140,132.18,48,,190,,190,B
Sean Sette,1,Masters 40-44,M,Raw,140+,144.33,41,,157.5,,157.5,B
Greg Kisil,2,Masters 40-44,M,Raw,140+,171.82,40,,107.5,,107.5,B
Wade Hunsaker,1,Juniors 20-23,M,Single-ply,90,83.64,20,,192.5,,192.5,B
Anthony White #4,2,Juniors 20-23,M,Single-ply,90,88.18,22,,170,,170,B
Aramiq Amirchian,1,Open,M,Single-ply,90,85.55,29,,197.5,,197.5,B
Wade Hunsaker,2,Open,M,Single-ply,90,83.64,20,,192.5,,192.5,B
Randy Cheatham,1,Masters 50-54,M,Single-ply,100,98.97,52,,215,,215,B
Mike Desrosiers,DQ,Open,M,Single-ply,125,117.39,39,,-262.5,,,B
Michael Bowden,DQ,Open,M,Multi-ply,140+,152.95,51,,-365,,,B
Kate Gondales,1,Open,F,Raw,44,44,21,,,102.5,102.5,D
Danielle Columby,1,Open,F,Raw,48,47.63,29,,,138.5,138.5,D
Angie Robertson,1,Open,F,Raw,56,55.88,37,,,142.5,142.5,D
Amanda Everhart,1,Open,F,Raw,60,59.87,24,,,145,145,D
Cassandra Jarosz,1,Juniors 16-17,F,Raw,75,73.39,16,,,85,85,D
Tara Maier,1,Juniors 18-19,F,Raw,75,72.39,18,,,155,155,D
Tara Maier,1,Open,F,Raw,75,72.39,18,,,155,155,D
Sophia Hussary,1,Open,F,Raw,82.5,81.56,35,,,160,160,D
Sophia Hussary,1,Submasters 35-39,F,Raw,82.5,81.56,35,,,160,160,D
Vin Voeun,1,Submasters 35-39,M,Raw,56,52.98,36,,,147.5,147.5,D
Vahana Dorcis,1,Open,M,Raw,75,74.89,29,,,240,240,D
Gaven White,1,Juniors 16-17,M,Raw,90,87.63,16,,,205,205,D
Atom Cook,1,Juniors 20-23,M,Raw,90,84.73,20,,,240,240,D
Ben O'Brien,1,Open,M,Raw,100,98.16,33,,,320,320,D
Jared Woodbeck,2,Open,M,Raw,100,97.25,29,,,250,250,D
Seth H. Larsen,1,Open,M,Raw,110,104.24,25,,,250,250,D
Tom Matlock,1,Masters 60-64,M,Raw,110,108.41,61,,,187.5,187.5,D
Sean Sette,1,Masters 40-44,M,Raw,140+,144.33,41,,,250,250,D
Greg Kisil,2,Masters 40-44,M,Raw,140+,171.82,40,,,192.5,192.5,D
Anthony White #4,1,Juniors 20-23,M,Single-ply,90,88.18,22,,,207.5,207.5,D
Weylen White,1,Juniors 18-19,M,Single-ply,100,100,19,,,250,250,D
Ben Seller,1,Submasters 35-39,M,Single-ply,125,122.02,37,,,275.5,275.5,D
