Division,WeightClassKg,Place,Name,Team,BodyweightKg,Best3SquatKg,Best3BenchKg,Best3DeadliftKg,TotalKg,Equipment,Event,Sex
Boys,51.71,1,Philip Sharp,Robinson,51.62,136.08,77.11,149.69,362.87,Single-ply,SBD,M
Boys,51.71,2,Isaack Santillan,Clifton,51.62,115.67,70.31,136.08,322.05,Single-ply,SBD,M
Boys,51.71,3,Cj Gloria,Marble Falls,48.35,104.33,65.77,136.08,306.17,Single-ply,SBD,M
Boys,55.79,4,Nathan Williams,Meridian,51.89,99.79,58.97,127.01,285.76,Single-ply,SBD,M
Boys,51.71,5,Bailey Dennis,Alvarado,51.71,102.06,54.43,117.93,274.42,Single-ply,SBD,M
Boys,51.71,6,Hunter Uptmor,West,42.27,83.91,45.36,83.91,213.19,Single-ply,SBD,M
Boys,51.71,7,Ryland Holt,Whitney,51.26,83.91,40.82,83.91,208.65,Single-ply,SBD,M
Boys,59.87,1,Cody Villa,Crawford,55.88,165.56,104.33,213.19,483.08,Single-ply,SBD,M
Boys,55.79,2,David Carboni,Hillsboro,55.07,145.15,83.91,140.61,369.68,Single-ply,SBD,M
Boys,55.79,3,Rodrigo Hernandez,Hillsboro,54.34,138.35,77.11,145.15,360.61,Single-ply,SBD,M
Boys,55.79,4,Osvaldo Antunez,Hillsboro,55.61,140.61,81.65,122.47,344.73,Single-ply,SBD,M
Boys,55.79,5,Cameron Carpenter,McGregor,53.98,129.27,63.5,145.15,337.93,Single-ply,SBD,M
Boys,55.79,6,Juan Sanchez,Mexia,54.34,117.93,70.31,133.81,322.05,Single-ply,SBD,M
Boys,55.79,7,Robby Brewer,Clifton,54.61,136.08,68.04,99.79,303.91,Single-ply,SBD,M
Boys,59.87,8,Jordan Olsen,West,55.97,120.2,52.16,108.86,281.23,Single-ply,SBD,M
Boys,55.79,9,Jake Durbin,Lorena,54.98,83.91,56.7,90.72,231.33,Single-ply,SBD,M
Boys,55.79,10,Jonathan Whalen,Whitney,53.07,90.72,43.09,95.25,229.06,Single-ply,SBD,M
Boys,55.79,11,Stephen McNaught,Meridian,55.79,72.57,54.43,102.06,229.06,Single-ply,SBD,M
Boys,59.87,DQ,Andres Gomez,Waco Reicher Catholic,55.88,83.91,,,,Single-ply,SBD,M
Boys,59.87,1,Michael Bartlett,Robinson,59.24,190.51,88.45,176.9,455.86,Single-ply,SBD,M
Boys,59.87,2,Emiliano Mar,Clifton,59.15,145.15,86.18,154.22,385.55,Single-ply,SBD,M
Boys,59.87,3,Dalton Wiethorn,West,58.79,136.08,74.84,151.95,362.87,Single-ply,SBD,M
Boys,59.87,4,David Villafona,McGregor,59.15,138.35,68.04,154.22,360.61,Single-ply,SBD,M
Boys,59.87,5,Javier Sauceda,China Spring,59.87,113.4,81.65,147.42,342.46,Single-ply,SBD,M
Boys,59.87,6,John Paul Bustamante,Waco Reicher Catholic,59.69,127.01,61.23,136.08,324.32,Single-ply,SBD,M
Boys,59.87,7,Alex Reynoso,West,58.15,111.13,72.57,138.35,322.05,Single-ply,SBD,M
Boys,59.87,8,Bob Johnson,Meridian,58.24,106.59,70.31,138.35,315.25,Single-ply,SBD,M
Boys,59.87,9,Sam Shorts,Whitney,59.42,131.54,70.31,108.86,310.71,Single-ply,SBD,M
Boys,59.87,10,Jose Servin,Waco Reicher Catholic,56.52,120.2,61.23,120.2,301.64,Single-ply,SBD,M
Boys,59.87,11,Greg Norman,Grandview,58.06,108.86,70.31,122.47,301.64,Single-ply,SBD,M
Boys,59.87,DQ,Ryder Tucker,Milford,56.61,95.25,,,,Single-ply,SBD,M
Boys,67.13,1,Manuel Rodriguez,Robinson,66.68,226.8,108.86,233.6,569.26,Single-ply,SBD,M
Boys,67.13,2,James Davis,Waco Connally,65.59,188.24,122.47,213.19,523.9,Single-ply,SBD,M
Boys,67.13,3,Cory Sauer,Robinson,66.5,197.31,129.27,188.24,514.83,Single-ply,SBD,M
Boys,67.13,4,Tanner Bailey,Waco Reicher Catholic,65.68,165.56,88.45,201.85,455.86,Single-ply,SBD,M
Boys,67.13,5,Jessie Pena,Waco La Vega,64.68,174.63,83.91,192.78,451.32,Single-ply,SBD,M
Boys,67.13,6,Jaquay Brown,Milford,66.32,170.1,95.25,181.44,446.79,Single-ply,SBD,M
Boys,67.13,7,Joseph Bryant,Waco La Vega,65.95,163.29,88.45,179.17,430.91,Single-ply,SBD,M
Boys,74.84,8,Decovan Echols,Mexia,67.31,172.37,90.72,167.83,430.91,Single-ply,SBD,M
Boys,74.84,9,Angel Torres,Whitney,67.31,151.95,106.59,165.56,424.11,Single-ply,SBD,M
Boys,67.13,10,Emmanuel Torres,McGregor,65.86,149.69,81.65,170.1,401.43,Single-ply,SBD,M
Boys,67.13,11,Oscar Manuel,Hillsboro,66.32,142.88,95.25,158.76,396.89,Single-ply,SBD,M
Boys,67.13,12,Josh Turner,McGregor,67.04,158.76,86.18,147.42,392.36,Single-ply,SBD,M
Boys,67.13,13,David Johnson,Robinson,65.14,136.08,83.91,158.76,378.75,Single-ply,SBD,M
Boys,67.13,14,Keith Kayser,Milford,66.32,145.15,68.04,163.29,376.48,Single-ply,SBD,M
Boys,67.13,15,Armando Castaneda,Hillsboro,66.13,127.01,88.45,156.49,371.95,Single-ply,SBD,M
Boys,67.13,16,Brady Arnett,West,62.05,140.61,86.18,140.61,367.41,Single-ply,SBD,M
Boys,67.13,17,Ricardo Dela Rosa,Waco La Vega,65.23,145.15,74.84,145.15,365.14,Single-ply,SBD,M
Boys,67.13,18,Eli Ferris,Waco Reicher Catholic,67.13,129.27,90.72,145.15,365.14,Single-ply,SBD,M
Boys,67.13,19,John Anderson,Meridian,66.86,124.74,99.79,138.35,362.87,Single-ply,SBD,M
Boys,67.13,20,Jalyn Holloway,Waco Connally,61.6,136.08,79.38,145.15,360.61,Single-ply,SBD,M
Boys,67.13,21,Nick Harris,Lorena,64.23,133.81,81.65,136.08,351.53,Single-ply,SBD,M
Boys,67.13,22,Dalton Baker,West,64.23,129.27,83.91,138.35,351.53,Single-ply,SBD,M
Boys,67.13,23,Brayan Antunez,Alvarado,64.05,124.74,68.04,140.61,333.39,Single-ply,SBD,M
Boys,67.13,24,Christian Bares,Whitney,63.5,106.59,83.91,140.61,331.12,Single-ply,SBD,M
Boys,67.13,25,Brandon Eppers,Marble Falls,60.87,117.93,56.7,138.35,312.98,Single-ply,SBD,M
Boys,67.13,26,Marcos Gonzalez,Mexia,62.96,117.93,74.84,115.67,308.44,Single-ply,SBD,M
Boys,67.13,27,Braden Smith,Lorena,61.69,108.86,65.77,129.27,303.91,Single-ply,SBD,M
Boys,67.13,28,Tristan Molina,Whitney,66.68,104.33,63.5,127.01,294.84,Single-ply,SBD,M
Boys,67.13,29,Brett Wardlaw,Waco Reicher Catholic,62.05,102.06,65.77,108.86,276.69,Single-ply,SBD,M
Boys,74.84,1,Darius Dorsey,Mexia,74.21,192.78,122.47,192.78,508.02,Single-ply,SBD,M
Boys,74.84,2,Camry Garner,Hillsboro,74.03,188.24,113.4,197.31,498.95,Single-ply,SBD,M
Boys,74.84,3,Nate Seale,McGregor,73.39,181.44,113.4,201.85,496.68,Single-ply,SBD,M
Boys,74.84,4,Adolfo Rodriguez,West,71.12,190.51,129.27,174.63,494.42,Single-ply,SBD,M
Boys,74.84,5,Daniel Chavez,Clifton,70.94,183.7,106.59,192.78,483.08,Single-ply,SBD,M
Boys,74.84,6,John Botello,Lorena,71.3,174.63,95.25,192.78,462.66,Single-ply,SBD,M
Boys,74.84,7,Cj Smith,Crawford,72.21,170.1,104.33,163.29,437.72,Single-ply,SBD,M
Boys,74.84,8,Clayton Caniford,Clifton,70.85,170.1,83.91,151.95,405.97,Single-ply,SBD,M
Boys,74.84,9,Trey Whitlock,Valley Mills,70.76,145.15,79.38,170.1,394.63,Single-ply,SBD,M
Boys,74.84,10,Gabe Torres,Marble Falls,73.3,136.08,92.99,145.15,374.21,Single-ply,SBD,M
Boys,74.84,11,Clayton Wilson #2,West,71.12,156.49,74.84,129.27,360.61,Single-ply,SBD,M
Boys,74.84,12,Paeton McFarlin,West,73.84,131.54,86.18,131.54,349.27,Single-ply,SBD,M
Boys,74.84,13,Anthony Hallmark,Marble Falls,70.76,124.74,70.31,142.88,337.93,Single-ply,SBD,M
Boys,74.84,14,Canon Arnold,Alvarado,71.12,117.93,83.91,102.06,303.91,Single-ply,SBD,M
Boys,74.84,15,Danny Rowe,Alvarado,71.76,113.4,77.11,102.06,292.57,Single-ply,SBD,M
Boys,74.84,DQ,Eric Salazar,West,74.12,140.61,,,,Single-ply,SBD,M
Boys,74.84,DQ,Mariano Perez,West,74.21,124.74,,,,Single-ply,SBD,M
Boys,82.1,1,Juan Villa,Robinson,82.01,215.46,133.81,210.92,560.19,Single-ply,SBD,M
Boys,82.1,2,Jordan Thompson,Robinson,78.74,208.65,124.74,208.65,542.04,Single-ply,SBD,M
Boys,82.1,3,Barclay Brunson,Crawford,77.75,192.78,115.67,183.7,492.15,Single-ply,SBD,M
Boys,82.1,4,Aaron Harralson,West,79.47,185.97,124.74,165.56,476.27,Single-ply,SBD,M
Boys,82.1,5,Eduardo Ortiz,Hillsboro,80.74,183.7,102.06,185.97,471.74,Single-ply,SBD,M
Boys,82.1,6,Desmond Harris,Waco Connally,76.84,188.24,99.79,181.44,469.47,Single-ply,SBD,M
Boys,82.1,7,Jaime Reynoso,Meridian,80.74,181.44,97.52,181.44,460.4,Single-ply,SBD,M
Boys,82.1,8,Collin Schasteen,Clifton,80.1,165.56,111.13,176.9,453.59,Single-ply,SBD,M
Boys,82.1,9,Josh Lucas,Clifton,77.47,165.56,97.52,181.44,444.52,Single-ply,SBD,M
Boys,82.1,10,Brian Leal,Whitney,81.47,151.95,92.99,174.63,419.57,Single-ply,SBD,M
Boys,82.1,11,Chris Flores,Hillsboro,79.38,172.37,88.45,151.95,412.77,Single-ply,SBD,M
Boys,82.1,12,Hunter Hartberg,Lorena,79.83,156.49,95.25,149.69,401.43,Single-ply,SBD,M
Boys,82.1,13,Hunter Isham,Lorena,79.2,136.08,90.72,172.37,399.16,Single-ply,SBD,M
Boys,82.1,14,Lance Bracco,Crawford,76.29,133.81,95.25,136.08,365.14,Single-ply,SBD,M
Boys,82.1,15,Morgan Marshall,Crawford,80.29,131.54,81.65,127.01,340.19,Single-ply,SBD,M
Boys,82.1,DQ,Seth Cozby,Marble Falls,78.74,158.76,,,,Single-ply,SBD,M
Boys,82.1,DQ,Chris Jackson,Hillsboro,79.38,129.27,,,,Single-ply,SBD,M
Boys,82.1,DQ,Cody Neal,Mexia,81.1,188.24,99.79,,,Single-ply,SBD,M
Boys,82.1,DQ,Jamaica Doyle,Waco Connally,78.47,156.49,,161.03,,Single-ply,SBD,M
Boys,82.1,DQ,Jose Rodriguez,Valley Mills,80.1,,,,,Single-ply,SBD,M
Boys,89.81,1,Antonio Vargas,China Spring,89.54,201.85,149.69,233.6,585.13,Single-ply,SBD,M
Boys,89.81,2,Koltan Hampton,China Spring,85.82,217.72,133.81,192.78,544.31,Single-ply,SBD,M
Boys,89.81,3,Jordan Larance,Clifton,88.63,226.8,113.4,201.85,542.04,Single-ply,SBD,M
Boys,89.81,4,Mikey Castillo,McGregor,87.91,201.85,115.67,206.38,523.9,Single-ply,SBD,M
Boys,89.81,5,Logan Willenborg,West,85.73,192.78,117.93,204.12,514.83,Single-ply,SBD,M
Boys,89.81,6,Leonel Hernandez,Alvarado,86.64,199.58,102.06,204.12,505.76,Single-ply,SBD,M
Boys,89.81,7,Timothy Thomas,Whitney,87.27,195.04,95.25,188.24,478.54,Single-ply,SBD,M
Boys,89.81,8,Dustin Brown,Waco La Vega,88.36,188.24,117.93,172.37,478.54,Single-ply,SBD,M
Boys,89.81,9,Jonathan Sanchez,Alvarado,89.18,190.51,111.13,170.1,471.74,Single-ply,SBD,M
Boys,89.81,10,Daniel Fraire,West,85.18,190.51,106.59,151.95,449.06,Single-ply,SBD,M
Boys,89.81,11,Taivunn Briscoe,Waco Connally,86.27,163.29,102.06,172.37,437.72,Single-ply,SBD,M
Boys,89.81,12,Daniel Sparks,Marble Falls,85.55,142.88,79.38,158.76,381.02,Single-ply,SBD,M
Boys,89.81,13,Gragory Strange,Milford,85.91,124.74,63.5,120.2,308.44,Single-ply,SBD,M
Boys,89.81,DQ,James Brown,China Spring,88.72,,,,,Single-ply,SBD,M
Boys,89.81,DQ,Matt Sparks,West,87.27,133.81,74.84,,,Single-ply,SBD,M
Boys,99.79,1,Taylor Hull,China Spring,97.89,290.3,158.76,235.87,684.92,Single-ply,SBD,M
Boys,99.79,2,Eduardo Cruz,Hillsboro,94.89,249.48,120.2,215.46,585.13,Single-ply,SBD,M
Boys,99.79,3,Cooper Haigood,Lorena,92.99,238.14,108.86,210.92,557.92,Single-ply,SBD,M
Boys,99.79,4,Corey Kemp,Waco La Vega,95.07,226.8,136.08,195.04,557.92,Single-ply,SBD,M
Boys,99.79,5,Alex Parsons,McGregor,93.17,206.38,124.74,199.58,530.7,Single-ply,SBD,M
Boys,99.79,6,Rahi Patel,Mexia,93.62,181.44,115.67,195.04,492.15,Single-ply,SBD,M
Boys,109.77,7,Diego Gutierrez,Robinson,99.97,197.31,115.67,170.1,483.08,Single-ply,SBD,M
Boys,99.79,8,Franco Landeros,Crawford,91.63,170.1,120.2,185.97,476.27,Single-ply,SBD,M
Boys,99.79,9,Zach Cobb,China Spring,94.8,163.29,140.61,161.03,464.93,Single-ply,SBD,M
Boys,99.79,10,Will Worrell,Crawford,90.31,172.37,104.33,167.83,444.52,Single-ply,SBD,M
Boys,99.79,11,Eric Rosson,Grandview,92.44,179.17,92.99,154.22,426.38,Single-ply,SBD,M
Boys,99.79,12,Justin Wardlow,Whitney,93.35,158.76,108.86,154.22,421.84,Single-ply,SBD,M
Boys,99.79,13,Luis Reyes,McGregor,95.98,158.76,97.52,163.29,419.57,Single-ply,SBD,M
Boys,99.79,14,Chaas Firth,Whitney,93.35,142.88,77.11,142.88,362.87,Single-ply,SBD,M
Boys,99.79,DQ,Ricky Thompson,Robinson,92.35,233.6,129.27,,,Single-ply,SBD,M
Boys,99.79,DQ,Cameron Fimbres,Waco Connally,94.08,181.44,,,,Single-ply,SBD,M
Boys,99.79,DQ,Jacob Byrd,Lorena,95.07,181.44,95.25,,,Single-ply,SBD,M
Boys,109.77,1,Quavious Gamble,Mexia,106.96,285.76,154.22,226.8,666.78,Single-ply,SBD,M
Boys,109.77,2,Jason Harris,West,103.78,258.55,142.88,231.33,632.76,Single-ply,SBD,M
Boys,109.77,3,Jose Reyes,Mexia,109.5,244.94,140.61,217.72,603.28,Single-ply,SBD,M
Boys,109.77,4,Bryan Villa,Grandview,104.33,199.58,145.15,201.85,546.58,Single-ply,SBD,M
Boys,109.77,5,Jesus Garza,Meridian,104.51,215.46,124.74,204.12,544.31,Single-ply,SBD,M
Boys,109.77,6,Robert Gober,Waco Connally,105.78,215.46,131.54,192.78,539.77,Single-ply,SBD,M
Boys,109.77,7,Arkeil Winn,Mexia,101.33,217.72,113.4,204.12,535.24,Single-ply,SBD,M
Boys,109.77,8,Jared Camp,Grandview,104.24,204.12,115.67,192.78,512.56,Single-ply,SBD,M
Boys,124.74,9,Derrick Oliver,Whitney,109.95,204.12,95.25,181.44,480.81,Single-ply,SBD,M
Boys,109.77,10,Juan Venegas,Milford,106.14,147.42,99.79,170.1,417.3,Single-ply,SBD,M
Boys,109.77,11,Troy Meyer,Whitney,105.41,174.63,92.99,147.42,415.04,Single-ply,SBD,M
Boys,109.77,12,Tanner Sparks,West,102.87,156.49,97.52,151.95,405.97,Single-ply,SBD,M
Boys,109.77,13,Joe Fallwell,Whitney,108.5,156.49,97.52,151.95,405.97,Single-ply,SBD,M
Boys,109.77,DQ,Payton Price,Grandview,103.15,161.03,97.52,,,Single-ply,SBD,M
Boys,109.77,DQ,Steven Field,China Spring,103.51,185.97,,,,Single-ply,SBD,M
Boys,124.74,1,Byron Bryant,Waco La Vega,121.74,290.3,167.83,258.55,716.68,Single-ply,SBD,M
Boys,124.74,2,Gustavo Bonilla,Robinson,124.65,274.42,149.69,263.08,687.19,Single-ply,SBD,M
Boys,124.74,3,Jordan Rivera,Waco La Vega,116.85,263.08,172.37,235.87,671.32,Single-ply,SBD,M
Boys,124.74,4,Jacob Mata,Clifton,118.02,235.87,140.61,208.65,585.13,Single-ply,SBD,M
Boys,124.74,5,Lane Michna,Lorena,113.94,222.26,127.01,226.8,576.06,Single-ply,SBD,M
Boys,124.74,6,Andrew Escobedo,Waco La Vega,118.66,258.55,133.81,183.7,576.06,Single-ply,SBD,M
Boys,124.74,7,Ishmael Ramirez,Hillsboro,112.49,204.12,117.93,204.12,526.17,Single-ply,SBD,M
Boys,124.74,8,Ty Harris,China Spring,121.56,195.04,138.35,192.78,526.17,Single-ply,SBD,M
Boys,124.74,9,Nate Martin,Whitney,114.85,136.08,68.04,129.27,333.39,Single-ply,SBD,M
Boys,124.74,DQ,Marcos Anaya,Meridian,110.5,,,,,Single-ply,SBD,M
Boys,124.74+,1,Jordan Allen,Clifton,159.02,283.5,165.56,226.8,675.85,Single-ply,SBD,M
Boys,124.74+,2,Chiddy Nwaeze,Waco Connally,137.89,240.4,147.42,217.72,605.55,Single-ply,SBD,M
Boys,124.74+,3,Bryce Johnson #1,Alvarado,144.33,249.48,174.63,181.44,605.55,Single-ply,SBD,M
Boys,124.74+,4,Traylon Berry,Waco La Vega,135.17,258.55,127.01,199.58,585.13,Single-ply,SBD,M
Boys,124.74+,5,Tanner Smith,Robinson,135.26,226.8,142.88,215.46,585.13,Single-ply,SBD,M
Boys,124.74+,6,Noah Stebens,China Spring,129.46,229.06,147.42,204.12,580.6,Single-ply,SBD,M
Boys,124.74+,7,Bailey Blackman,China Spring,134.26,217.72,154.22,192.78,564.72,Single-ply,SBD,M
Boys,124.74+,8,Narciso Molina,Waco Connally,140.34,238.14,120.2,181.44,539.77,Single-ply,SBD,M
Boys,124.74+,9,TreDereck Anglin,Mexia,147.33,204.12,108.86,204.12,517.1,Single-ply,SBD,M
Boys,124.74+,10,Jaylen Tobler,Waco Connally,159.89,238.14,106.59,158.76,503.49,Single-ply,SBD,M
Boys,124.74+,11,Michael Hall,Marble Falls,132.09,217.72,97.52,181.44,496.68,Single-ply,SBD,M
Boys,,NS,Caleb Smith,Marble Falls,,,,,,Single-ply,SBD,M
Boys,,NS,Dalton Mayberry,Marble Falls,,,,,,Single-ply,SBD,M
Boys,,NS,Dane Mace,McGregor,,,,,,Single-ply,SBD,M
Boys,,NS,Darius Oliver,Mexia,,,,,,Single-ply,SBD,M
Boys,,NS,Codi Birch-Harris,Waco Connally,,,,,,Single-ply,SBD,M
Boys,,NS,Jaime Rodriguez,Waco La Vega,,,,,,Single-ply,SBD,M
Boys,,NS,Emanuel Chavez,Valley Mills,,,,,,Single-ply,SBD,M
Boys,,NS,Gerardo Yanez,Milford,,,,,,Single-ply,SBD,M
Boys,,NS,David Angel,Valley Mills,,,,,,Single-ply,SBD,M
Boys,,NS,Donnie Rowe,Alvarado,,,,,,Single-ply,SBD,M
Boys,,NS,Preston Weatherby,Alvarado,,,,,,Single-ply,SBD,M
Boys,,NS,Walker Allen,China Spring,,,,,,Single-ply,SBD,M
Boys,,NS,Dillon Van Zandt,Crawford,,,,,,Single-ply,SBD,M
Boys,,NS,Shane Bruno,Clifton,,,,,,Single-ply,SBD,M
Boys,,NS,Brandon VanBenthuysen,Grandview,,,,,,Single-ply,SBD,M
Boys,,NS,Matthew Downey,Marble Falls,,,,,,Single-ply,SBD,M
Boys,,NS,Robert Atkinson,Marble Falls,,,,,,Single-ply,SBD,M
Boys,,NS,Colin Highfill,Lorena,,,,,,Single-ply,SBD,M
Boys,,NS,Cody Jones,Waco Reicher Catholic,,,,,,Single-ply,SBD,M
