Name,Age,Division,Event,Equipment,Sex,BodyweightKg,WeightClassKg,Squat1Kg,Squat2Kg,Squat3Kg,Best3SquatKg,Bench1Kg,Bench2Kg,Bench3Kg,Bench4Kg,Best3BenchKg,Deadlift1Kg,Deadlift2Kg,Deadlift3Kg,Deadlift4Kg,Best3DeadliftKg,TotalKg,Team,Place
Cosette Neely,37,F-SPO,B,Single-ply,F,43.8,44,,,,,,,,,92.5,,,,,,92.5,,1
Kristin Floreno,33,F-MPO,SBD,Multi-ply,F,46.8,48,,,,85,,,,,52.5,,,,,90,227.5,,1
Kristin Floreno,33,F-MPSM,SBD,Multi-ply,F,46.8,48,,,,85,,,,,52.5,,,,,90,227.5,,1
Kerri Hurlock,17,F-SPT2,SBD,Single-ply,F,50.4,52,,,,57.5,,,,,32.5,,,,,70,160,,1
Caitlin Nathalie-Sullivan,24,F-MPO,SBD,Multi-ply,F,74.4,75,,,,227.5,,,,,105,,,,,182.5,515,,1
Joan Hurlock,49,F-SPM2,B,Single-ply,F,69.2,75,,,,,,,,,57.5,,,,,,57.5,,1
Joan Hurlock,49,F-SPM2,D,Single-ply,F,69.2,75,,,,,,,,,,,,,,105,105,,1
Joan Hurlock,49,F-SPM2,SBD,Single-ply,F,69.2,75,,,,85,,,,,57.5,,,,,105,247.5,,1
Krista Ford,48,F-MPM2,SBD,Multi-ply,F,82.5,82.5,,,,237.5,,,,,110,,,,,192.5,540,,1
Abigail Mass,17,F-MPT2,SBD,Multi-ply,F,88,90,,,,182.5,,,,,87.5,,,,,132.5,402.5,,1
Linda Koos,60,F-MPM5,B,Multi-ply,F,96.8,100,,,,,,,,,47.5,,,,,,47.5,,1
Jason Gonzales,22,M-SPJR,SBD,Multi-ply,M,65.2,67.5,,,,182.5,,,,,137.5,,,,,182.5,502.5,,1
Ed Castaneda,23,M-SPJR,SBD,Multi-ply,M,81.4,82.5,,,,222.5,,,,,137.5,,,,,205,565,,1
Zach Hallford,18,M-SPT3,SBD,Multi-ply,M,94.4,100,,,,277.5,,,,,190,,,,,232.5,700,,1
Zach Henson,22,M-MPJR,SBD,Multi-ply,M,96.8,100,,,,372.5,,,,,227.5,,,,,302.5,902.5,,1
Brett Cutler,23,M-SPJR,D,Multi-ply,M,97.6,100,,,,,,,,,,,,,,255,255,,1
Alan Borden,51,M-SPM3,SBD,Single-ply,M,130,140,265,287.5,-310,287.5,172.5,182.5,-192.5,,182.5,-230,230,-245,,230,700,TGS Gym,1
Andrew Buschbom,32,M-MPO,SBD,Multi-ply,M,117,125,337.5,352.5,365,365,200,210,220,,220,325,-345,,,325,910,Diablo Barbell,3
Chris A Garcia,58,M-SPM4,SBD,Single-ply,M,99.2,100,282.5,297.5,-320,297.5,45,,,,45,142.5,,,,142.5,485,,1
Craig Allen Clites,27,M-MPO,SBD,Multi-ply,M,123.8,125,372.5,392.5,-410,392.5,227.5,257.5,-265,,257.5,282.5,305,-320,,305,955,Trap Haus Barbell Club,2
Dana Walker,38,M-MPO,SBD,Multi-ply,M,80.2,82.5,320,-335,-335,320,240,255,-272.5,,255,-252.5,252.5,-275,,252.5,827.5,Brutal Powerlifting,2
Dave Hoff,27,M-MPO,SBD,Multi-ply,M,125.4,140,480,510,-537.5,510,-437.5,,,,,,,,,,,,DQ
David Woolley,34,M-MPSM,SBD,Multi-ply,M,118,125,-237.5,245,270,270,182.5,190,200,,200,237.5,250,272.5,,272.5,742.5,,1
Dayan Neely,37,M-MPO,SBD,Multi-ply,M,107.8,110,350,367.5,-377.5,367.5,240,,,,240,285,300,310,,310,917.5,Diablo Barbell,1
Dustin Slepicka,28,M-MPO,SBD,Multi-ply,M,181,140+,-485,-517.5,-517.5,,-257.5,,,,,345,-377.5,,,345,,Big Iron Compound,DQ
Dustin Timothy Johnson,27,M-MPO,SBD,Multi-ply,M,99,100,332.5,-352.5,352.5,352.5,217.5,-227.5,227.5,,227.5,-275,-275,275,,275,855,Diablo Barbell,1
Fred Choate,45,M-MPM2,SBD,Multi-ply,M,88,90,-172.5,-192.5,192.5,192.5,-125,-125,125,,125,172.5,182.5,192.5,,192.5,510,Team Fua Ortiz Powerlifting,1
Gary Reichert,55,M-MPM4,SBD,Multi-ply,M,70.4,75,-205,205,-227.5,205,100,142.5,147.5,,147.5,200,237.5,-250,,237.5,590,,1
Jim Grandick,46,M-MPM2,SBD,Multi-ply,M,122.6,125,432.5,445,-455,445,330,-345,345,,345,305,-327.5,327.5,,327.5,1117.5,Big Iron Compound,1
Jim Grandick,46,M-MPO,SBD,Multi-ply,M,122.6,125,432.5,445,-455,445,330,-345,345,,345,305,-327.5,327.5,,327.5,1117.5,Big Iron Compound,1
Joe Mass,45,M-MPM2,SBD,Multi-ply,M,124.2,125,-310,-310,310,310,195,-205,205,,205,227.5,242.5,250,,250,765,Big Iron Compound,2
Matt Olsen,25,M-SPO,SBD,Single-ply,M,158,140+,365,385,-400,385,-245,-245,245,,245,-292.5,292.5,-310,,292.5,922.5,Absolute Power,1
Mike Strom,35,M-MPO,SBD,Multi-ply,M,81.6,82.5,345,365,-372.5,365,275,-292.5,-292.5,,275,227.5,250,-267.5,,250,890,Monster Garage Gym,1
Mitchell Deskis,24,M-SPO,SBD,Single-ply,M,81.6,82.5,245,260,277.5,277.5,147.5,157.5,-165,,157.5,275,285,-295,,285,720,,1
Ryan Marble,28,M-SPO,SBD,Single-ply,M,89,90,252.5,-265,265,265,220,235,245,,245,-237.5,-237.5,237.5,,237.5,747.5,Brutal Powerlifting,1
Scott Kuderick,41,M-MPO,SBD,Multi-ply,M,90,90,-305,305,,305,160,,,,160,222.5,245,-272.5,,245,710,Liberation Garage Barbell,1
Steve Brock,44,M-MPM1,SBD,Multi-ply,M,138,140,-422.5,-422.5,-422.5,,-295,,,,,,,,,,,Monster Garage Gym,DQ
Steve Brock,44,M-MPO,SBD,Multi-ply,M,138,140,-422.5,-422.5,-422.5,,-295,,,,,,,,,,,Monster Garage Gym,DQ
Aaron Chavez,42,M-SPM1,D,Single-ply,M,145,140+,,,,,,,,,,287.5,300,-318,,300,300,,1
Alan Borden,51,M-SPM3,D,Single-ply,M,130,140,,,,,,,,,,-230,230,-245,,230,230,TGS Gym,1
Alan Borden,51,M-SPO,D,Single-ply,M,130,140,,,,,,,,,,-230,230,-245,,230,230,TGS Gym,1
Chris McGrail,36,M-MPO,D,Multi-ply,M,82.1,82.5,,,,,,,,,,-300,300,312.5,-320,312.5,312.5,Brutal Powerlifting,1
Chris McGrail,36,M-SPO,D,Single-ply,M,82.1,82.5,,,,,,,,,,-300,300,312.5,-320,312.5,312.5,Brutal Powerlifting,1
Dana Walker,38,M-MPO,D,Multi-ply,M,80.2,82.5,,,,,,,,,,-252.5,252.5,-275,,252.5,252.5,Brutal Powerlifting,2
Dick Zenzen,63,M-MPM5,D,Multi-ply,M,113.8,125,,,,,,,,,,195,210,,,210,210,Zenzen Barbell,1
Dustin Slepicka,28,M-MPO,D,Multi-ply,M,181,140+,,,,,,,,,,345,-377.5,,,345,345,Big Iron Compound,1
Greg Ripley,54,M-SPM3,D,Single-ply,M,75,75,,,,,,,,,,-190,,,,,,Motor City Barbell,DQ
Jake Jensen,25,M-SPO,D,Single-ply,M,108.4,110,,,,,,,,,,295,-300,-300,,295,295,,1
Lance Davis,48,M-SPM2,D,Single-ply,M,109,110,,,,,,,,,,227.5,-250,-250,,227.5,227.5,Brutal Powerlifting,1
Michael Deskis,56,M-SPM4,D,Single-ply,M,66,67.5,,,,,,,,,,237.5,-247.5,-247.5,,237.5,237.5,,1
Shayne Day,25,M-SPO,D,Single-ply,M,95.4,100,,,,,,,,,,290,-305,-305,,290,290,,1
Dana Walker,38,M-MPO,B,Multi-ply,M,80.2,82.5,,,,,240,255,-272.5,,255,,,,,,255,Brutal Powerlifting,1
Jay Anderson,37,M-SPO,B,Single-ply,M,118.2,125,,,,,247.5,260,272.5,-285.5,272.5,,,,,,272.5,Brutal Powerlifting,1
Jay Anderson,37,M-SPSM,B,Single-ply,M,118.2,125,,,,,247.5,260,272.5,-285.5,272.5,,,,,,272.5,Brutal Powerlifting,1
Larry Mistric,58,M-MPM4,B,Multi-ply,M,109.2,110,,,,,222.5,250,-272.5,,250,,,,,,250,McDaniel's,1
Michael Deskis,56,M-SPM4,B,Single-ply,M,66,67.5,,,,,102.5,107.5,112.5,-117.5,112.5,,,,,,112.5,,1
