Place,Name,Division,BodyweightKg,Squat1Kg,Squat2Kg,Squat3Kg,Best3SquatKg,Bench1Kg,Bench2Kg,Bench3Kg,Best3BenchKg,Deadlift1Kg,Deadlift2Kg,Deadlift3Kg,Best3DeadliftKg,TotalKg,WeightClassKg,Sex,CyrillicName,BirthYear,Equipment,Event,Age
1,A. Farakhov,Juniors,52.4,125,140,-150,140,77.5,85,-90,85,137.5,-152.5,152.5,152.5,377.5,53,M,,1994,Single-ply,SBD,
2,O. Tanriverdiev,Juniors,53,100,110,115,115,-70,70,77.5,77.5,150,155,160,160,352.5,53,M,,1991,Single-ply,SBD,
3,A. Tagberliev,Juniors,51.4,90,100,110,110,55,-65,65,65,90,100,110,110,285,53,M,,1994,Single-ply,SBD,
DQ,Meyrambek Sabyrbek,Juniors,52.7,,,,,-105,-105,105,105,,,,,,53,M,,1993,Single-ply,B,
1,A Tyuryukov,Juniors,56.9,190,200,210,210,75,90,110,110,180,-200,200,200,520,59,M,,1993,Single-ply,SBD,
2,N. Zeynollaev,Juniors,56.8,180,190,-195,190,75,80,85,85,-170,170,-180,170,445,59,M,,1993,Single-ply,SBD,
3,Abdulkarim Karaman,Juniors,58.9,-50,50,,50,171,180,185,185,100,,,100,335,59,M,,1994,Single-ply,SBD,
DQ,K. Klabukov,Juniors,56.7,,,,,-110,110,115,115,,,,,,59,M,,1993,Single-ply,B,
1,Samat Asanov,Juniors,64.9,250,260,275,275,-150,150,165,165,220,-230,230,230,670,66,M,,1993,Single-ply,SBD,
2,Andrei Dorokhov,Juniors,65.1,230,240,-245,240,170,177.5,185,185,200,210,220,220,645,66,M,,1992,Single-ply,SBD,
3,E. Aytkazin,Juniors,65.9,210,220,-230,220,130,-135,-135,130,210,-230,-230,210,560,66,M,,1993,Single-ply,SBD,
4,Dmitriy Kan,Juniors,64,190,-200,-200,190,140,-150,-150,140,210,-220,-220,210,540,66,M,,1993,Single-ply,SBD,
5,G. Ziberov,Juniors,65.1,160,180,195,195,80,87.5,-95,87.5,180,195,212.5,212.5,495,66,M,,1994,Single-ply,SBD,
DQ,Danis Amirov,Juniors,65.9,,,,,185,192.5,195,195,,,,,,66,M,,1993,Single-ply,B,
DQ,Eldos Yermakhanov,Juniors,66,,,,,180,-190,195,195,,,,,,66,M,,1990,Single-ply,B,
DQ,Daniyar Kakimzhanov,Juniors,64,,,,,150,-160,-160,150,,,,,,66,M,,1992,Single-ply,B,
DQ,S. Kisilev,Juniors,66,,,,,150,-155,-172.5,150,,,,,,66,M,,1990,Single-ply,B,
1,Dmitriy Tsarenko,Juniors,73.3,275,290,-302.5,290,180,185,-190,185,270,285,292.5,292.5,767.5,74,M,,1991,Single-ply,SBD,
2,K. Nizamkhanov,Juniors,73.1,-205,205,210,210,150,-157.5,-157.5,150,205,210,-212.5,210,570,74,M,,1991,Single-ply,SBD,
3,G Mambetzhumaev,Juniors,72,200,210,215,215,-135,135,145,145,190,205,-210,205,565,74,M,,1994,Single-ply,SBD,
4,E. Yandulkin,Juniors,66.3,200,210,-215,210,-110,110,120,120,190,200,-205,200,530,74,M,,1994,Single-ply,SBD,
5,A. Abduzhabbarov,Juniors,70,190,200,210,210,-90,110,115,115,180,190,200,200,525,74,M,,1993,Single-ply,SBD,
DQ,Talgat Tlenbaev,Juniors,73.35,,,,,215,222.5,231,231,,,,,,74,M,,1990,Single-ply,B,
DQ,Roman Myshkov,Juniors,72.7,,,,,195,205,-210,205,,,,,,74,M,,1993,Single-ply,B,
DQ,R. Yusupov,Juniors,69.5,,,,,135,-142.5,-142.5,135,,,,,,74,M,,1992,Single-ply,B,
1,Alisher Toleshbay,Juniors,82.45,260,270,280,280,155,162.5,170,170,260,-270,-272.5,260,710,83,M,,1993,Single-ply,SBD,
2,D. Koydan,Juniors,82.8,255,265,275,275,155,162.5,165,165,-250,250,-272.5,250,690,83,M,,1993,Single-ply,SBD,
3,O. Vereschagin,Juniors,82.6,260,272.5,280,280,-155,155,165,165,220,230,240,240,685,83,M,,1992,Single-ply,SBD,
4,B. Bakitzhanov,Juniors,83,220,230,240,240,140,145,-150,145,200,212.5,220,220,605,83,M,,1994,Single-ply,SBD,
5,D. Astantsov,Juniors,77.8,200,210,-220,210,130,140,145,145,190,210,,210,565,83,M,,1991,Single-ply,SBD,
6,E. Baypt,Juniors,78.5,200,210,215,215,145,150,155,155,150,170,180,180,550,83,M,,1991,Single-ply,SBD,
7,A. Yumangulov,Juniors,80.9,180,192.5,-200,192.5,130,137.5,-140,137.5,180,190,200,200,530,83,M,,1994,Single-ply,SBD,
8,V. Obukhovskiy,Juniors,76.9,100,115,-125,115,85,90,92.5,92.5,160,175,-180,175,382.5,83,M,,1993,Single-ply,SBD,
9,G. Makhmudov,Juniors,83,90,100,115,115,80,90,-95,90,150,160,170,170,375,83,M,,1993,Single-ply,SBD,
DQ,D. Kozlov,Juniors,82.6,,,,,230,240,-245,240,,,,,,83,M,,1991,Single-ply,B,
DQ,Alexandr Emchenko,Juniors,82.65,,,,,215,220,-232.5,220,,,,,,83,M,,1990,Single-ply,B,
1,Artem Platonov,Juniors,87.95,310,320,330,330,200,210,220,220,290,300,310,310,860,93,M,,1990,Single-ply,SBD,
2,Yerlan Smagulov,Juniors,87.8,310,325,-335,325,180,-190,190,190,250,270,285,285,800,93,M,,1994,Single-ply,SBD,
3,Sergey Avgut',Juniors,88,270,280,290,290,160,170,180,180,250,265,-275,265,735,93,M,,1992,Single-ply,SBD,
4,Vladimir Kusov,Juniors,90.9,240,250,260,260,140,150,160,160,230,250,-260,250,670,93,M,,1994,Single-ply,SBD,
5,S. Iristaev,Juniors,87.35,-237.5,245,255,255,150,-157.5,157.5,157.5,230,247.5,-262.5,247.5,660,93,M,,1991,Single-ply,SBD,
6,A. Dorongof,Juniors,91.2,200,220,230,230,130,140,-150,140,200,220,230,230,600,93,M,,1990,Single-ply,SBD,
7,D. Martin #6,Juniors,90,170,-190,190,190,130,140,-150,140,180,200,220,220,550,93,M,,1994,Single-ply,SBD,
DQ,Dmitriy Li,Juniors,92.6,,,,,260,270,-286,270,,,,,,93,M,,1991,Single-ply,B,
DQ,Bakhyt Kudaybergenov,Juniors,89.8,,,,,200,210,-215,210,,,,,,93,M,,1991,Single-ply,B,
DQ,I. Genkel,Juniors,86.7,-250,-260,-260,,160,-170,-180,160,190,-200,200,200,,93,M,,1998,Single-ply,SBD,
1,A. Davydenko,Juniors,103.5,-300,325,350,350,180,-190,-190,180,300,320,,320,850,105,M,,1990,Single-ply,SBD,
2,Mars Akpalenov,Juniors,104.65,310,320,330,330,-190,190,-195,190,260,270,-280,270,790,105,M,,1991,Single-ply,SBD,
3,Aleksandr Klass,Juniors,98.3,250,265,280,280,150,160,-170,160,250,265,-280,265,705,105,M,,1991,Single-ply,SBD,
4,A. Kozlov,Juniors,98.5,230,240,-250,240,130,-140,140,140,210,220,-230,220,600,105,M,,1994,Single-ply,SBD,
DQ,Evgeniy Krasnovskiy,Juniors,103.7,,,,,235,-242.5,-242.5,235,,,,,,105,M,,1990,Single-ply,B,
DQ,I. Shlemov,Juniors,104.6,,,,,230,-237.5,-240,230,,,,,,105,M,,1992,Single-ply,B,
DQ,Artur Kim,Juniors,101.9,,,,,200,-210,-225,200,,,,,,105,M,,1989,Single-ply,B,23
DQ,V. Filonov,Juniors,100.5,,,,,-205,-225,-225,,,,,,,105,M,,1991,Single-ply,B,
1,Aleksey Pankrashev,Juniors,108.5,380,-400,400,400,-240,240,-250,240,330,-360,-360,330,970,120,M,,1990,Single-ply,SBD,
2,A. Komendantov,Juniors,105.5,250,265,275,275,150,160,170,170,230,240,250,250,695,120,M,,1993,Single-ply,SBD,
3,Alexandr Starikov,Juniors,108.4,-240,250,270,270,150,160,-172.5,160,200,220,-240,220,650,120,M,,1994,Single-ply,SBD,
DQ,Zakir Naymanbayev,Juniors,113.85,,,,,-225,-230,235,235,,,,,,120,M,,1994,Single-ply,B,
DQ,A. Yakovlev,Juniors,108.5,,,,,140,150,160,160,,,,,,120,M,,1990,Single-ply,B,
1,Zh. Rakhmet,Juniors,120.75,210,230,245,245,135,-142.5,-142.5,135,200,215,230,230,610,120+,M,,1994,Single-ply,SBD,
DQ,D. Mirkhaydarov,Juniors,127.35,,,,,220,-227.5,-227.5,220,,,,,,120+,M,,1990,Single-ply,B,
1,A. Tolmachev,Open,59,135,145,152.5,152.5,120,125,130,130,190,200,-230,200,482.5,59,M,,1990,Single-ply,SBD,
2,G. Ungefut,Open,58.85,150,162.5,172.5,172.5,105,-110,-110,105,170,192.5,-212.5,192.5,470,59,M,,1989,Single-ply,SBD,
3,F. Lukyanov,Open,58.9,160,-170,170,170,110,115,-120,115,140,150,155,155,440,59,M,,1985,Single-ply,SBD,
4,Andrey Shpitser,Open,58,50,,,50,170,175,181,181,70,,,70,301,59,M,,1986,Single-ply,SBD,
5,Kamil Latypov,Open,57.8,100,-107.5,-110,100,50,-55,-55,50,130,-135,-135,130,280,59,M,,1995,Single-ply,SBD,
DQ,Turar Tenelov,Open,58.7,,,,,155,165,-170,165,,,,,,59,M,,1984,Single-ply,B,
DQ,A. Baysalbaev,Open,54,,,,,-115,130,-135,130,,,,,,59,M,,,Single-ply,B,
1,Yakov Ionin,Open,64.9,260,-275,275,275,170,-180,-180,170,250,265,270,270,715,66,M,,1986,Single-ply,SBD,
2,E. Omarov,Open,65,250,-255,255,255,160,-165,165,165,245,250,255,255,675,66,M,,1988,Single-ply,SBD,
3,V. Ischenko,Open,65.7,200,210,215,215,150,-160,160,160,180,195,-205,195,570,66,M,,1983,Single-ply,SBD,
4,E. Sarana,Open,65.3,180,-200,200,200,130,140,155,155,200,210,-220,210,565,66,M,,1993,Single-ply,SBD,
5,Evgeniy Zolotukhin,Open,65.8,160,175,185,185,140,145,-160,145,160,175,185,185,515,66,M,,1988,Single-ply,SBD,
6,Almaz Ospanov,Open,65.5,100,,,100,-200,200,-229,200,100,,,100,400,66,M,,1978,Single-ply,SBD,
DQ,Viktor Pryakhin,Open,66,,,,,180,190,202.5,202.5,,,,,,66,M,,1985,Single-ply,B,
DQ,A. Abramov,Open,66,,,,,150,155,,155,,,,,,66,M,,1975,Single-ply,B,
DQ,E. Penkin,Open,65.8,,,,,145,150,155,155,,,,,,66,M,,1974,Single-ply,B,
DQ,Gabit Naukebaev,Open,65.3,,,,,155,-162.5,-162.5,155,,,,,,66,M,,1988,Single-ply,B,
DQ,D. Isaev,Open,65.3,,,,,125,130,135,135,,,,,,66,M,,1990,Single-ply,B,
DQ,M. Gadziev,Open,65.1,,,,,-160,-160,-160,,,,,,,66,M,,1991,Single-ply,B,
DQ,R. Saydulaev,Open,64.5,,,,,-130,-130,-130,,,,,,,66,M,,1988,Single-ply,B,
1,Andrey Prokopenko,Open,73.8,-295,295,-307.5,295,-195,195,217.5,217.5,270,290,-307.5,290,802.5,74,M,,1988,Single-ply,SBD,
2,Abzal Begaidarov,Open,73.05,210,225,-232.5,225,110,142.5,152.5,152.5,200,230,-250,230,607.5,74,M,,1995,Single-ply,SBD,
3,L. Zadorin,Open,74,200,210,220,220,160,170,180,180,180,200,-220,200,600,74,M,,1991,Single-ply,SBD,
4,Oleg Butenko,Open,73,50,,,50,235,242.5,-261,242.5,50,,,50,342.5,74,M,,1983,Single-ply,SBD,
DQ,Konstantin Turko,Open,73,,,,,-215,215,222.5,222.5,,,,,,74,M,,1985,Single-ply,B,
DQ,Valeriy Kuzhakhmetov,Open,73.9,,,,,210,217.5,-225,217.5,,,,,,74,M,,1988,Single-ply,B,
DQ,Alim Unembaev,Open,72.7,,,,,-210,-210,210,210,,,,,,74,M,,1982,Single-ply,B,
DQ,Baurzhan Musaev,Open,73,,,,,-175,-175,175,175,,,,,,74,M,,1986,Single-ply,B,
DQ,B. Saitov,Open,73.5,,,,,175,-185,-185,175,,,,,,74,M,,1991,Single-ply,B,
DQ,T. Ermetov,Open,74,,,,,150,-160,175,175,,,,,,74,M,,1996,Single-ply,B,
DQ,Z. Manasypov,Open,72.9,-240,-240,-240,,140,-160,-160,140,-200,,,,,74,M,,1983,Single-ply,SBD,
1,Ulan Anuar,Open,82.8,320,335,350,350,205,215,225,225,300,-320,-320,300,875,83,M,,1993,Single-ply,SBD,
2,Nikolay Zemtsov,Open,82,-315,320,332.5,332.5,195,205,210,210,300,315,-332.5,315,857.5,83,M,,1992,Single-ply,SBD,
3,Konstantin Kobylyanskiy,Open,80.9,310,320,330,330,205,215,-220,215,275,-282.5,-282.5,275,820,83,M,,1985,Single-ply,SBD,
4,Aman Kapyshev,Open,80.45,300,310,320,320,200,210,220,220,260,270,-280,270,810,83,M,,1987,Single-ply,SBD,
5,D. Ivanchenko,Open,82.4,260,275,285,285,202.5,207.5,-217.5,207.5,250,262.5,-275,262.5,755,83,M,,1987,Single-ply,SBD,
6,E. Lisitsa,Open,82.55,-240,255,265,265,-190,190,200,200,230,240,250,250,715,83,M,,1984,Single-ply,SBD,
7,Askar Shokhanov,Open,82.9,240,,,240,270,280,285,285,185,,,185,710,83,M,,1983,Single-ply,SBD,
8,M. Makhkulov,Open,83,220,230,-240,230,160,170,-175,170,230,245,255,255,655,83,M,,1985,Single-ply,SBD,
DQ,Erbol Nauanov,Open,82.8,,,,,-270,275,-285,275,,,,,,83,M,,1989,Single-ply,B,
DQ,Nikolai Shimanskiy,Open,82.45,,,,,-205,-205,205,205,,,,,,83,M,,1986,Single-ply,B,
DQ,M. Mamedov,Open,81.7,,,,,180,-195,195,195,,,,,,83,M,,1984,Single-ply,B,
DQ,Alexey Lukhmenev,Open,82.75,,,,,-180,-180,180,180,,,,,,83,M,,1989,Single-ply,B,
DQ,E. Iskalov,Open,79.05,,,,,150,165,175,175,,,,,,83,M,,1985,Single-ply,B,
DQ,V. Kardakov,Open,82.6,,,,,160,170,-180,170,,,,,,83,M,,1989,Single-ply,B,
DQ,Davranbek Turakhanov,Open,83,,,,,-220,-230,-235,,,,,,,83,M,,1974,Single-ply,B,
DQ,A. Semenin,Open,81.15,,,,,-180,-180,-180,,,,,,,83,M,,1985,Single-ply,B,
1,Ruslan Yarullin,Open,93,360,-375,375,375,250,260,265,265,310,325,-335,325,965,93,M,,1982,Single-ply,SBD,
2,Yevgeniy Galuzinskiy,Open,89.65,330,-340,340,340,190,200,-210,200,340,355,-363,355,895,93,M,,1992,Single-ply,SBD,
3,Ilya Maslov,Open,90.6,-300,-300,300,300,200,215,225,225,270,280,285,285,810,93,M,,1989,Single-ply,SBD,
4,Gennadiy Melnik,Open,92.5,300,310,320,320,-190,-195,195,195,270,282.5,-297.5,282.5,797.5,93,M,,1967,Single-ply,SBD,
5,S. Chinibekov,Open,91.8,260,272.5,285,285,200,210,220,220,240,-250,250,250,755,93,M,,1986,Single-ply,SBD,
6,Oleg Zubkov,Open,91.95,260,-280,280,280,170,180,190,190,265,280,-287.5,280,750,93,M,,1985,Single-ply,SBD,
7,Sergey Kolganov,Open,92.6,-260,260,275,275,185,195,-200,195,260,-280,280,280,750,93,M,,1989,Single-ply,SBD,
8,B. Dosymbekov,Open,92.7,-260,270,280,280,180,185,190,190,260,-270,280,280,750,93,M,,1985,Single-ply,SBD,
9,Anatoliy Revenko,Open,92.8,260,280,-290,280,170,180,-185,180,260,-290,290,290,750,93,M,,1989,Single-ply,SBD,
10,Mukhan Medeubaev,Open,93,240,260,280,280,180,190,200,200,230,250,270,270,750,93,M,,1987,Single-ply,SBD,
11,Vitaliy Potekhin,Open,92.35,250,260,270,270,170,175,-180,175,240,250,-260,250,695,93,M,,1980,Single-ply,SBD,
13,S. Scherbakov,Open,89.4,50,,,50,240,250,260,260,50,,,50,360,93,M,,1982,Single-ply,SBD,
DQ,M. Davletgaliev,Open,92.85,,,,,-270,270,280,280,,,,,,93,M,,1984,Single-ply,B,
DQ,S. Zabolotnyy,Open,88.15,,,,,237.5,-245,-250,237.5,,,,,,93,M,,1980,Single-ply,B,
DQ,G. Ismailov,Open,84.9,,,,,180,190,-195,190,,,,,,93,M,,1985,Single-ply,B,
DQ,S. Balabaev,Open,85,,,,,185,-190,190,190,,,,,,93,M,,1984,Single-ply,B,
DQ,Roman Ogorodnik,Open,90.4,,,,,-290,-290,-290,,,,,,,93,M,,1989,Single-ply,B,
DQ,D. Keyn,Open,91.7,,,,,-240,-240,-240,,,,,,,93,M,,1989,Single-ply,B,
DQ,Batyr Maudinov,Open,90.3,,,,,-237.5,-240,-240,,,,,,,93,M,,1975,Single-ply,B,
DQ,O. Ivanov,Open,92.35,,,,,-220,-220,-232.5,,,,,,,93,M,,1978,Single-ply,B,
DQ,T. Islamov,Open,93,,,,,-215,-215,,,,,,,,93,M,,1986,Single-ply,B,
DQ,M. Rem,Open,85.6,190,200,-210,200,-110,-110,-115,,210,-220,220,220,,93,M,,1985,Single-ply,SBD,
1,Alexandr Miroshnikov,Open,99.35,315,330,340,340,230,240,250,250,290,305,-315,305,895,105,M,,1987,Single-ply,SBD,
2,Dmitriy Radchuk,Open,93.3,290,-305,305,305,-190,200,210,210,280,295,305,305,820,105,M,,1987,Single-ply,SBD,
3,Alexandr Kazanskiy,Open,95,260,-270,-275,260,140,147.5,155,155,270,290,-307.5,290,705,105,M,,1989,Single-ply,SBD,
4,N. Ikonnikov,Open,94.2,250,-270,-270,250,120,-170,,120,200,-220,220,220,590,105,M,,1988,Single-ply,SBD,
5,Ildar Khayrullin,Open,96,230,-240,245,245,100,110,115,115,200,-210,220,220,580,105,M,,1987,Single-ply,SBD,
6,V. Petrenko,Open,97,215,230,240,240,100,110,-120,110,190,-210,220,220,570,105,M,,1985,Single-ply,SBD,
DQ,Sergei Vaigant,Open,103.7,,,,,300,310,-317.5,310,,,,,,105,M,,1989,Single-ply,B,
DQ,Arslan Suyunshaliyev,Open,100.7,,,,,-280,280,-295,280,,,,,,105,M,,1989,Single-ply,B,
DQ,Alexei Fedyaev,Open,103.35,,,,,250,260,,260,,,,,,105,M,,1976,Single-ply,B,
DQ,S. Palaev,Open,101,,,,,235,245,-250,245,,,,,,105,M,,1984,Single-ply,B,
DQ,P. Shpichak,Open,102.6,,,,,220,240,-250,240,,,,,,105,M,,1985,Single-ply,B,
DQ,A. Muratov,Open,104.5,,,,,230,240,-250,240,,,,,,105,M,,1976,Single-ply,B,
DQ,S. Pak,Open,95,,,,,-190,-190,190,190,,,,,,105,M,,1985,Single-ply,B,
DQ,Mikhail Khalaim,Open,95.5,,,,,-250,-260,-260,,,,,,,105,M,,1983,Single-ply,B,
DQ,Roman Pischaev,Open,101.9,,,,,-240,-240,-252.5,,,,,,,105,M,,1989,Single-ply,B,
DQ,Gennadiy Krechin,Open,100.2,,,,,-242.5,-242.5,-242.5,,,,,,,105,M,,1974,Single-ply,B,
DQ,V. Peleshko,Open,104.2,,,,,-220,-225,-225,,,,,,,105,M,,1979,Single-ply,B,
1,Vitaliy Kovyrev,Open,119.35,280,300,,300,150,160,-170,160,262.5,270,-280,270,730,120,M,,1973,Single-ply,SBD,
2,Yuriy Banchukov,Open,120,-240,240,250,250,-200,200,220,220,240,250,-260,250,720,120,M,,1988,Single-ply,SBD,
3,E. Myshonkov,Open,111,200,220,-240,220,170,180,-190,180,220,240,260,260,660,120,M,,1988,Single-ply,SBD,
4,Ivan Nikitin,Open,109,200,220,-230,220,170,180,-190,180,220,230,250,250,650,120,M,,1992,Single-ply,SBD,
DQ,D. Chernay,Open,118.8,,,,,-240,245,255,255,,,,,,120,M,,1987,Single-ply,B,
DQ,R. Kushyalov,Open,118.75,,,,,-270,-280,-282.5,,,,,,,120,M,,1979,Single-ply,B,
DQ,Eduard Kabdeshev,Open,110.7,,,,,-270,-270,-280,,,,,,,120,M,,1989,Single-ply,B,
DQ,I. Makagonov,Open,110,,,,,140,150,155,155,,,,,,120,M,,1989,Single-ply,B,
DQ,Nurlan Yeshmakhanov,Open,113.35,400,420,430,430,280,-295,-295,280,-320,-320,-320,,,120,M,,1990,Single-ply,SBD,
1,Sergey Semenets,Open,146.4,310,-320,,310,260,280,-290,280,-350,350,-370,350,940,120+,M,,1977,Single-ply,SBD,
2,E. Evdokimov,Open,130,350,365,-380,365,225,240,245,245,280,295,-310,295,905,120+,M,,1980,Single-ply,SBD,
3,Anatoly Sinyavsky,Open,121.1,310,322.5,330,330,200,212.5,-220,212.5,320,340,350,350,892.5,120+,M,,1980,Single-ply,SBD,
4,E. Ermyshev,Open,121.25,260,280,,280,-270,270,-280,270,-250,250,260,260,810,120+,M,,1978,Single-ply,SBD,
DQ,Aidar Koshkarov,Open,122,,,,,280,285,-292.5,285,,,,,,120+,M,,1976,Single-ply,B,
DQ,D. Fomin,Open,131.8,,,,,-230,230,-250,230,,,,,,120+,M,,1977,Single-ply,B,
DQ,I. Krechetov,Open,126.45,,,,,185,200,-225,200,,,,,,120+,M,,1982,Single-ply,B,
DQ,M. Titaem,Open,121,,,,,170,185,195,195,,,,,,120+,M,,1982,Single-ply,B,
1,Granovskiy,Teen,38.8,70,75,80,80,45,50,-52.5,50,85,95,-102.5,95,225,40,M,,2000,Single-ply,SBD,
2,A. Ilyasov,Teen,39.5,50,-60,60,60,25,30,-35,30,60,-70,-70,60,150,40,M,,2001,Single-ply,SBD,
DQ,V. Nurmukhametov,Teen,40,-60,-60,-65,,-40,-45,-50,,80,90,100,100,,40,M,,1999,Single-ply,SBD,
DQ,N. Gulyaev,Teen,40,,,,,35,40,-45,40,,,,,,40,M,,1998,Single-ply,B,
DQ,Z. Samatov,Teen,39.2,-60,60,-70,60,35,40,-45,40,-70,-70,-70,,,40,M,,1998,Single-ply,SBD,
1,A. Gafarov,Teen,40.8,110,-117.5,-120,110,45,50,55,55,105,112.5,120,120,285,44,M,,1997,Single-ply,SBD,
2,E. Obukhovskiy,Teen,42.2,90,-100,100,100,40,47.5,-50,47.5,100,107.5,-112.5,107.5,255,44,M,,1998,Single-ply,SBD,
3,K. Kleykin,Teen,43.9,-85,85,-90,85,40,-45,-45,40,100,105,110,110,235,44,M,,1999,Single-ply,SBD,
4,A. Tolein,Teen,42.3,55,-65,-65,55,30,35,-37.5,35,70,80,,80,170,44,M,,2000,Single-ply,SBD,
5,N. Abdullaev,Teen,41.1,40,-50,-50,40,20,-25,-25,20,50,55,60,60,120,44,M,,2001,Single-ply,SBD,
DQ,Erkebulan Zeynedilov,Teen,43.9,,,,,50,55,60,60,,,,,,44,M,,1998,Single-ply,B,
1,K. Eleusiz,Teen,47.5,120,125,-130,125,65,-72.5,72.5,72.5,110,120,127.5,127.5,325,48,M,,1997,Single-ply,SBD,
2,Alexey Vibe,Teen,47.1,120,130,135,135,55,-60,-60,55,112.5,120,-135,120,310,48,M,,1997,Single-ply,SBD,
3,I. Maulenov,Teen,48,-105,105,110,110,50,60,65,65,115,125,130,130,305,48,M,,1998,Single-ply,SBD,
4,Artur Basistyuk,Teen,47.8,80,90,-100,90,50,55,-60,55,115,120,125,125,270,48,M,,1996,Single-ply,SBD,
5,N. Ablaziev,Teen,46.1,-110,110,-125,110,50,57.5,-60,57.5,100,-107.5,-107.5,100,267.5,48,M,,1998,Single-ply,SBD,
6,V. Golinov,Teen,46.4,80,90,-100,90,45,-50,-50,45,80,90,100,100,235,48,M,,1999,Single-ply,SBD,
DQ,R. Kim,Teen,47.8,,,,,50,60,65,65,,,,,,48,M,,1999,Single-ply,B,
DQ,V. Fomenko,Teen,45.4,,,,,40,45,50,50,,,,,,48,M,,1998,Single-ply,B,
DQ,V. Postnikov,Teen,48,,,,,-70,-70,-70,,,,,,,48,M,,1999,Single-ply,B,
DQ,M. Muratzhan,Teen,48,-110,,,,-30,-40,-45,,110,120,132.5,132.5,,48,M,,1997,Single-ply,SBD,
DQ,Daniyar Tishtygulov,Teen,47.5,-100,100,-105,100,50,55,-60,55,-110,-110,-110,,,48,M,,2000,Single-ply,SBD,
1,A. Sait,Teen,52.5,140,150,157.5,157.5,100,105,-107.5,105,150,160,187.5,187.5,450,53,M,,1995,Single-ply,SBD,
2,Anuar Amirtaev,Teen,52.5,150,160,170,170,85,92.5,97.5,97.5,150,160,170,170,437.5,53,M,,1998,Single-ply,SBD,
3,Kuanyshbay Tulegenov,Teen,52.6,-140,140,160,160,80,90,97.5,97.5,120,130,-140,130,387.5,53,M,,1998,Single-ply,SBD,
4,O. Narimanov,Teen,52.4,100,110,120,120,60,70,-75,70,105,115,125,125,315,53,M,,1998,Single-ply,SBD,
DQ,R. Bakhitzhanov,Teen,52.6,,,,,70,80,97.5,97.5,,,,,,53,M,,1998,Single-ply,B,
1,E. Plakhotnikov,Teen,59,180,-192.5,192.5,192.5,-95,-95,95,95,185,195,-210,195,482.5,59,M,,1998,Single-ply,SBD,
2,Toirzhan Marif,Teen,57.4,145,155,162.5,162.5,-110,110,115,115,-150,160,-170,160,437.5,59,M,,1996,Single-ply,SBD,
3,B. Turitaev,Teen,58.8,160,170,-180,170,100,105,107.5,107.5,150,160,-165,160,437.5,59,M,,1996,Single-ply,SBD,
4,Tanat Aydyn,Teen,58.6,150,160,170,170,70,80,-90,80,155,165,-187.5,165,415,59,M,,1995,Single-ply,SBD,
5,A. Shumadilov,Teen,59,155,-165,-170,155,80,85,-90,85,160,170,-185,170,410,59,M,,1997,Single-ply,SBD,
6,I. Laos,Teen,54.1,-120,120,127.5,127.5,50,-55,-55,50,-105,105,115,115,292.5,59,M,,1999,Single-ply,SBD,
7,Batyrkhan Yermagambetov,Teen,58.7,-90,90,-95,90,50,55,-57.5,55,110,120,-125,120,265,59,M,,1999,Single-ply,SBD,
8,A. Sharakulov,Teen,55.4,100,-110,-110,100,45,-50,-50,45,110,-120,-120,110,255,59,M,,1996,Single-ply,SBD,
9,V. Popkov,Teen,57.3,85,90,-95,90,40,42.5,47.5,47.5,80,90,-97.5,90,227.5,59,M,,2000,Single-ply,SBD,
DQ,Alisher Makhmudov,Teen,56.2,,,,,130,135,140,140,,,,,,59,M,,1995,Single-ply,B,
DQ,Denis Krivtsov,Teen,58.5,,,,,110,117.5,120,120,,,,,,59,M,,1997,Single-ply,B,
DQ,A. Kislenko,Teen,58,,,,,85,95,100,100,,,,,,59,M,,1995,Single-ply,B,
1,Turlibek Durmanov,Teen,65.8,230,240,250,250,145,155,-160,155,-225,-225,225,225,630,66,M,,1995,Single-ply,SBD,
2,V. Muberekov,Teen,64.4,210,220,240,240,115,-125,135,135,-210,220,235,235,610,66,M,,1995,Single-ply,SBD,
3,B. Koribaev,Teen,64.2,180,-200,200,200,110,120,125,125,190,200,210,210,535,66,M,,1995,Single-ply,SBD,
4,V. Surskiy,Teen,64.6,175,195,-200,195,100,105,107.5,107.5,180,190,-225,190,492.5,66,M,,1995,Single-ply,SBD,
5,D. Starodynov,Teen,63.6,160,170,180,180,90,95,97.5,97.5,150,160,162.5,162.5,440,66,M,,1998,Single-ply,SBD,
6,A. Urmanshikov,Teen,64.7,140,-150,150,150,90,97.5,-102.5,97.5,155,162.5,170,170,417.5,66,M,,1996,Single-ply,SBD,
7,Ilya Kotenev,Teen,65,140,150,160,160,100,110,-115,110,120,140,-150,140,410,66,M,,1998,Single-ply,SBD,
8,D. Davydov,Teen,66,120,140,-150,140,70,80,85,85,130,140,-160,140,365,66,M,,1995,Single-ply,SBD,
9,V. Durasov,Teen,62.1,-100,100,-107.5,100,45,50,-52.5,50,105,110,115,115,265,66,M,,1999,Single-ply,SBD,
DQ,D. Tokmurzaev,Teen,64.2,,,,,135,142.5,-155,142.5,,,,,,66,M,,1995,Single-ply,B,
DQ,D. Imanov,Teen,65.2,,,,,-135,135,-140,135,,,,,,66,M,,1996,Single-ply,B,
DQ,K. Zhanov,Teen,63.9,,,,,-125,125,-130,125,,,,,,66,M,,1996,Single-ply,B,
DQ,S. Ivanov,Teen,66,160,170,-180,170,80,-87.5,87.5,87.5,-160,-160,-160,,,66,M,,1996,Single-ply,SBD,
1,E. Amurov,Teen,73.5,230,240,250,250,150,157.5,-160,157.5,240,250,262.5,262.5,670,74,M,,1995,Single-ply,SBD,
2,I. Chuzhenkov,Teen,69.5,140,150,-160,150,100,102.5,105,105,130,145,155,155,410,74,M,,1996,Single-ply,SBD,
3,D. Bobovchek,Teen,70.5,-100,110,-120,110,70,-75,-75,70,100,120,,120,300,74,M,,1996,Single-ply,SBD,
4,V. Bruev,Teen,71.3,100,105,110,110,70,-72.5,72.5,72.5,100,-110,110,110,292.5,74,M,,1995,Single-ply,SBD,
DQ,Nikita Vodyanikov,Teen,70.6,,,,,140,150,157.5,157.5,,,,,,74,M,,1995,Single-ply,B,
DQ,Igor Dolgikh,Teen,73,230,240,-250,240,-165,-165,-165,,-210,,,,,74,M,,1995,Single-ply,SBD,
DQ,L. Glukhov,Teen,69.2,-155,-170,170,170,-90,-100,-100,,145,160,-165,160,,74,M,,1995,Single-ply,SBD,
DQ,V. Skorinin,Teen,72.8,-240,-247.5,-252.5,,-130,-130,-135,,200,,,200,,74,M,,1995,Single-ply,SBD,
1,I. Luganskiy,Teen,83,250,265,-270,265,165,170,-180,170,250,-265,-265,250,685,83,M,,1995,Single-ply,SBD,
2,A. Nauryzbaev,Teen,79.3,170,180,190,190,165,172.5,180,180,180,195,-200,195,565,83,M,,1996,Single-ply,SBD,
3,R. Kuntuganov,Teen,80.15,200,-210,220,220,90,100,115,115,180,195,-205,195,530,83,M,,1997,Single-ply,SBD,
4,O. Medvedev,Teen,78,140,-155,-165,140,115,-120,-135,115,160,-170,-180,160,415,83,M,,1995,Single-ply,SBD,
5,M. Skorikov,Teen,80.1,150,160,-165,160,75,-85,85,85,150,160,-170,160,405,83,M,,1998,Single-ply,SBD,
6,B. Khaperskiy,Teen,80.7,135,142.5,147.5,147.5,85,-90,-90,85,140,-147.5,150,150,382.5,83,M,,1995,Single-ply,SBD,
DQ,Dmitriy Korolev,Teen,80.2,,,,,195,200,205,205,,,,,,83,M,,1997,Single-ply,B,
DQ,V. Litosh,Teen,80.5,,,,,-180,180,195,195,,,,,,83,M,,1995,Single-ply,B,
DQ,Kirill Tezichev,Teen,81.9,,,,,150,-157.5,157.5,157.5,,,,,,83,M,,1997,Single-ply,B,
DQ,S. Lekh,Teen,76.95,,,,,130,-145,145,145,,,,,,83,M,,1996,Single-ply,B,
1,Stanislav Karatitskiy,Teen,87.8,205,215,-225,215,130,140,142.5,142.5,202.5,212.5,217.5,217.5,575,93,M,,1996,Single-ply,SBD,
2,V. Shishkin,Teen,87.9,205,217.5,222.5,222.5,-130,-130,130,130,200,215,-220,215,567.5,93,M,,1995,Single-ply,SBD,
3,S. Shnayder,Teen,91.15,-210,210,-220,210,130,135,-140,135,200,210,-220,210,555,93,M,,1995,Single-ply,SBD,
4,N. Shal,Teen,90.2,180,-200,-205,180,-160,160,-170,160,180,200,210,210,550,93,M,,1995,Single-ply,SBD,
5,E. Shanyuk,Teen,83.3,180,190,-200,190,85,95,-97.5,95,170,-190,190,190,475,93,M,,1997,Single-ply,SBD,
6,Vladislav Gusev,Teen,90.15,-170,-170,170,170,-110,-110,110,110,-150,-150,150,150,430,93,M,,1995,Single-ply,SBD,
1,Dmitriy Bespalov,Teen,101,235,250,260,260,135,150,160,160,235,250,260,260,680,105,M,,1995,Single-ply,SBD,
2,M. Ryabchinskiy,Teen,99.65,220,235,-242.5,235,150,160,-167.5,160,200,210,217.5,217.5,612.5,105,M,,1995,Single-ply,SBD,
3,N. Aykozhaev,Teen,103.2,220,235,245,245,-160,160,167.5,167.5,170,180,200,200,612.5,105,M,,1995,Single-ply,SBD,
4,M. Shatamen,Teen,95.2,210,-220,-230,210,140,-150,150,150,-200,210,215,215,575,105,M,,1996,Single-ply,SBD,
5,A. Ekster,Teen,103.05,180,200,-215,200,135,-145,145,145,180,195,205,205,550,105,M,,1996,Single-ply,SBD,
6,A. Zagrebskiy,Teen,99.15,200,210,-220,210,100,107.5,-117.5,107.5,180,-190,-190,180,497.5,105,M,,1998,Single-ply,SBD,
DQ,Evgeniy Parshin,Teen,99.65,,,,,260,-270,-280,260,,,,,,105,M,,1995,Single-ply,B,
1,Mars Akpalenov,Juniors,119.35,320,340,,340,170,180,185,185,230,250,260,260,785,120,M,,1991,Single-ply,SBD,
DQ,Nurtay Turmuldinov,Masters 1,64.3,,,,,85,90,95,95,,,,,,66,M,,1961,Single-ply,B,
1,K. Abyshev,Masters 1,72,150,165,-170,165,105,115,-120,115,150,170,-180,170,450,74,M,,1966,Single-ply,SBD,
1,Vladimir Shkirman,Masters 1,82.6,220,240,,240,130,140,150,150,262.5,270,280,280,670,83,M,,1964,Single-ply,SBD,
2,Adaibek Nurgaliev,Masters 1,81.55,175,185,195,195,137.5,147.5,-157.5,147.5,175,187.5,200,200,542.5,83,M,,1968,Single-ply,SBD,
DQ,Valentin Pospelov,Masters 1,81.7,,,,,150,-157.5,-160,150,,,,,,83,M,,1972,Single-ply,B,
1,Sergey Shuklin,Masters 1,92.1,-160,160,200,200,120,130,135,135,220,240,-265,240,575,93,M,,1964,Single-ply,SBD,
2,M. Akhmetov,Masters 1,86.1,130,140,145,145,-110,110,-115,110,130,150,-160,150,405,93,M,,1964,Single-ply,SBD,
DQ,R. Vomeulin,Masters 1,83,,,,,145,-155,-155,145,,,,,,93,M,,1971,Single-ply,B,
1,V. Shulyakov,Masters 1,102.7,-280,280,295,295,205,215,230,230,240,250,265,265,790,105,M,,1967,Single-ply,SBD,
2,A. Chistov,Masters 1,101.75,290,-300,-300,290,160,170,180,180,230,240,250,250,720,105,M,,1966,Single-ply,SBD,
3,Zh. Pernebekov,Masters 1,102.45,170,-185,-195,170,150,-190,190,190,150,160,-185,160,520,105,M,,1970,Single-ply,SBD,
DQ,Andrei Altaybaev,Masters 1,102.2,,,,,210,-220,-225,210,,,,,,105,M,,1972,Single-ply,B,
1,Serik Tukushev,Masters 1,110.85,180,200,210,210,210,-225,-225,210,180,200,220,220,640,120,M,,1967,Single-ply,SBD,
DQ,S. Danilchenko,Masters 1,110.75,,,,,170,180,190,190,,,,,,120,M,,1966,Single-ply,B,
1,Sergey Yakovlev,Masters 1,152.15,300,320,330,330,-190,190,200,200,300,315,330,330,860,120+,M,,1972,Single-ply,SBD,
DQ,Berik Akhmetzhanov,Masters 1,135,,,,,230,-240,,230,,,,,,120+,M,,1969,Single-ply,B,
DQ,Dmitriy Chernov,Masters 1,127.25,,,,,-230,-230,-235,,,,,,,120+,M,,1970,Single-ply,B,
1,Serik Gusmanov,Masters 2,70.9,130,140,145,145,90,95,100,100,140,150,160,160,405,74,M,,1956,Single-ply,SBD,
1,V. Shevlekov,Masters 2,79.85,100,-110,110,110,90,-100,-100,90,120,140,150,150,350,83,M,,1954,Single-ply,SBD,
DQ,S. Erishuly,Masters 2,81.95,,,,,180,-190,-195,180,,,,,,83,M,,1958,Single-ply,B,
DQ,Serikkazi Azilkhanov,Masters 2,79.55,,,,,105,-110,-110,105,,,,,,83,M,,1963,Single-ply,B,
1,A. Abseitov,Masters 2,91.35,150,157.5,170,170,100,110,-117.5,110,170,185,196,196,476,93,M,,1959,Single-ply,SBD,
1,Ulugbek Ermetov,Masters 2,104.4,200,226,,226,190,205,,205,170,190,,190,621,105,M,,1959,Single-ply,SBD,
DQ,Andrey Letyagin,Masters 2,103.9,,,,,232.5,242.5,250,250,,,,,,105,M,,1963,Single-ply,B,
1,Pavel Yudin,Masters 2,106.25,170,180,190,190,120,130,,130,190,-200,,190,510,120,M,,1958,Single-ply,SBD,
DQ,Farit Galyamov,Masters 2,111.9,,,,,-170,175,200,200,,,,,,120,M,,1960,Single-ply,B,
DQ,Viktor Ronzhin,Masters 3,58.5,,,,,70,-77.5,77.5,77.5,,,,,,59,M,,1947,Single-ply,B,
1,Aytzhan Isakov,Masters 3,71,120,140,150,150,-60,60,,60,130,140,150,150,360,74,M,,1944,Single-ply,SBD,
1,Daribay Ospanov,Masters 3,84.75,180,200,,200,170,-175,-180,170,150,170,-180,170,540,93,M,,1949,Single-ply,SBD,
2,Kayrat Turlubekov,Masters 3,90,-135,135,145,145,105,-110,-110,105,145,155,,155,405,93,M,,1948,Single-ply,SBD,
DQ,Vasiliy Ovechkin,Masters 3,101.4,,,,,130,135,140,140,,,,,,105,M,,1950,Single-ply,B,
1,Anatoliy Ustelimov,Masters 4,66,65,75,-80,75,70,-75,80,80,70,80,,80,235,66,M,,1939,Single-ply,SBD,
1,V. Shubin,Masters 4,73.9,110,120,125,125,70,80,85,85,140,150,160,160,370,74,M,,1937,Single-ply,SBD,
1,B. Amanzholov,Masters 4,81.2,-60,60,70,70,60,-70,-72.5,60,80,90,100,100,230,83,M,,1941,Single-ply,SBD,
DQ,Robert Malimokov,Masters 4,76.3,,,,,80,85,-90,85,,,,,,83,M,,1941,Single-ply,B,
DQ,L. Makhanova,Juniors,51.7,,,,,50,60,62.5,62.5,,,,,,52,F,,1993,Single-ply,B,
1,E. Abdrazykova,Juniors,55.7,105,-115,125,125,-60,70,80,80,120,140,150,150,355,57,F,,1990,Single-ply,SBD,
1,Zhadyra Kabieva,Juniors,69.35,180,190,-200,190,130,-140,-140,130,165,172.5,-180,172.5,492.5,72,F,,1992,Single-ply,SBD,
1,Valeriya Meretukova,Juniors,78.6,130,145,155,155,85,92.5,100,100,140,155,-165,155,410,84,F,,1994,Single-ply,SBD,
DQ,Natalya Kuzmina,Juniors,83.6,,,,,170,-180,-180,170,,,,,,84,F,,1992,Single-ply,B,
1,Lada Pyzhyanova,Teen,42.2,90,100,105,105,65,70,75,75,85,95,-105,95,275,43,F,,1998,Single-ply,SBD,
DQ,A. Sarmurdinova,Teen,42.3,,,,,50,60,-65,60,,,,,,43,F,,1999,Single-ply,B,
DQ,A. Sarmurdinova,Teen,43,,,,,40,50,-55,50,,,,,,43,F,,1999,Single-ply,B,
DQ,K. Ospanova,Teen,43,,,,,-50,-50,-50,,,,,,,43,F,,1999,Single-ply,B,
DQ,A. Akhmetova,Teen,43,,,,,-60,-60,-60,,,,,,,43,F,,1998,Single-ply,B,
1,Svetlana Iskhakova,Open,47,85,95,-100,95,80,85,87.5,87.5,85,95,-102.5,95,277.5,47,F,,1966,Single-ply,SBD,
2,Natalya Tskhay,Open,46.45,80,-90,90,90,-45,47.5,-50,47.5,80,90,-100,90,227.5,47,F,,1975,Single-ply,SBD,
1,Anastasiya Kolesnikova,Open,52,150,160,-165,160,75,80,-82.5,80,160,170,-175,170,410,52,F,,1985,Single-ply,SBD,
2,A. Bykova,Open,64,120,130,145,145,60,70,-80,70,150,160,-180,160,375,72,F,,1994,Single-ply,SBD,
DQ,Olga Cheremisina,Open,51.3,,,,,80,90,-95,90,,,,,,52,F,,1988,Single-ply,B,
1,Marianna Gasparyan,Open,56.75,-200,200,,200,80,90,-100,90,150,-167.5,-167.5,150,440,57,F,,1989,Single-ply,SBD,
2,M. Mikhaylova,Open,56.8,100,-110,-110,100,50,-60,60,60,100,105,110,110,270,57,F,,1989,Single-ply,SBD,
3,I. Duzgunbaeva,Open,57,90,100,110,110,40,-50,-50,40,90,100,115,115,265,57,F,,1987,Single-ply,SBD,
DQ,Tatyana Zhukova,Open,56.7,,,,,85,90,-97.5,90,,,,,,57,F,,1987,Single-ply,B,
1,Valeriya Yaragina,Open,62.65,200,210,-215,210,-127.5,127.5,-137.5,127.5,190,200,-205,200,537.5,63,F,,1993,Single-ply,SBD,
2,Svetlana Nazarenko,Open,62.2,170,180,-190,180,120,130,-140,130,170,180,-185,180,490,63,F,,1965,Single-ply,SBD,
3,Irina Selivanova,Open,56.45,150,160,170,170,75,80,85,85,150,160,170,170,425,63,F,,1973,Single-ply,SBD,
DQ,Valida Iskandarova,Open,62.5,,,,,,,,,,,,,,63,F,,1974,Single-ply,SBD,
1,Marina Burik,Open,70.35,240,250,-255,250,125,135,140,140,210,220,230,230,620,72,F,,1993,Single-ply,SBD,
2,Anastasiya Guseva,Open,70.7,220,230,-240,230,170,180,185,185,170,180,,180,595,72,F,,1989,Single-ply,SBD,
3,A. Nazarbekova,Open,71.3,140,150,-165,150,100,110,115,115,130,145,-155,145,410,72,F,,1990,Single-ply,SBD,
DQ,Margarita Cherezova,Open,71,,,,,-110,-115,-115,,,,,,,72,F,,1988,Single-ply,B,
1,Valeriya Shevchenko,Open,82.5,200,210,220,220,100,110,-115,110,220,230,-240,230,560,84,F,,1990,Single-ply,SBD,
2,Luiza Kvak,Open,72.6,160,170,180,180,-90,100,107.5,107.5,170,180,-190,180,467.5,84,F,,1992,Single-ply,SBD,
3,Yuliya Guselnikova,Open,86,160,170,180,180,90,100,-105,100,150,160,-170,160,440,84+,F,Юлия Гусельникова,1994,Single-ply,SBD,
DQ,Yekaterina Kryukova,Open,72.45,,,,,107.5,115,-122.5,115,,,,,,84,F,,1985,Single-ply,B,
1,Xeniya Okatenko,Open,97.6,225,-240,250,250,125,135,142.5,142.5,190,-210,210,210,602.5,84+,F,,1994,Single-ply,SBD,
2,Zh. Kuchencherekova,Open,85,190,-200,200,200,100,110,115,115,160,170,-180,170,485,84+,F,,1995,Single-ply,SBD,
3,Dinara Abduraimova,Open,85,150,-160,-170,150,70,80,90,90,140,150,160,160,400,84+,F,,1993,Single-ply,SBD,
1,Anna Stupko,Teen,41.95,87.5,100,105,105,42.5,-47.5,47.5,47.5,100,110,112.5,112.5,265,43,F,,1997,Single-ply,SBD,
2,G. Ermekbay,Teen,43,50,62.5,72.5,72.5,30,35,40,40,50,62.5,70,70,182.5,43,F,,1996,Single-ply,SBD,
3,A. Toktomuratova,Teen,42,40,45,50,50,20,25,-27.5,25,50,60,-65,60,135,43,F,,1999,Single-ply,SBD,
1,G. Otepova,Teen,46.9,60,67.5,72.5,72.5,30,-35,35,35,55,70,75,75,182.5,47,F,,1999,Single-ply,SBD,
2,Z. Altaeva,Teen,47,50,60,-70,60,20,25,-27.5,25,70,-80,-80,70,155,47,F,,1999,Single-ply,SBD,
1,E. Barakovskaya,Teen,51.4,100,110,-120,110,50,-55,55,55,100,110,125,125,290,52,F,,1995,Single-ply,SBD,
2,A. Kuts,Teen,50.75,60,-70,-70,60,30,35,-40,35,80,90,-100,90,185,52,F,,1997,Single-ply,SBD,
DQ,Mariya Vovk,Teen,51.1,,,,,50,55,56,56,,,,,,52,F,,1997,Single-ply,B,
1,Alexandra Miftakhova,Teen,57,100,110,125,125,-40,55,60,60,90,100,125,125,310,57,F,,1997,Single-ply,SBD,
DQ,Diana Vedyushkina,Teen,54.9,,,,,87.5,-95,-95,87.5,,,,,,57,F,,1996,Single-ply,B,
1,Irina Minikhanova,Teen,62.95,150,160,-170,160,85,-95,-105,85,140,160,-170,160,405,63,F,,1993,Single-ply,SBD,19
1,I. Balan,Teen,61.45,110,117.5,122.5,122.5,60,65,70,70,95,105,-115,105,297.5,63,F,,1997,Single-ply,SBD,
2,K. Varschuk,Teen,60.1,70,-80,80,80,35,40,-45,40,-90,100,110,110,230,63,F,,1998,Single-ply,SBD,
1,V. Odnosumova,Teen,64.5,140,-155,155,155,45,55,-60,55,130,140,145,145,355,72,F,,1995,Single-ply,SBD,
1,A. Sidorenko,Teen,74.95,80,95,105,105,40,47.5,-52.5,47.5,90,100,110,110,262.5,84,F,,1997,Single-ply,SBD,
2,E. Savelyeva,Teen,72.2,-100,100,-110,100,40,-50,-50,40,100,105,-110,105,245,84,F,,1995,Single-ply,SBD,
3,K. Abisheva,Teen,82.4,70,80,90,90,35,40,45,45,90,-100,100,100,235,84,F,,1997,Single-ply,SBD,
1,Zulfiya Zholmurzina,Teen,103.85,90,-100,,90,95,100,-105,100,90,100,110,110,300,84+,F,,1995,Single-ply,SBD,
