Division,WeightClassKg,Place,Name,Team,BodyweightKg,Best3SquatKg,Best3BenchKg,Best3DeadliftKg,TotalKg,Equipment,Event,Sex
Boys,51.71,1,Ethan Stack,Scurry-Rosser,49.35,106.59,68.04,129.27,303.91,Single-ply,SBD,M
Boys,51.71,3,Daniel Wilde,Jacksonville,50.35,104.33,45.36,95.25,244.94,Single-ply,SBD,M
Boys,51.71,4,Darean Lemons,Quinlan Ford,48.35,95.25,38.56,99.79,233.6,Single-ply,SBD,M
Boys,51.71,5,Austin Caldwell,Wills Point,49.44,88.45,52.16,92.99,233.6,Single-ply,SBD,M
Boys,51.71,6,Felix Espinoza,Crandall,48.08,74.84,38.56,92.99,206.38,Single-ply,SBD,M
Boys,51.71,DQ,Kyron Cobb,Wills Point,39.01,,,,,Single-ply,SBD,M
Boys,55.79,2,Carl Shehane,Quinlan Ford,51.8,102.06,63.5,108.86,274.42,Single-ply,SBD,M
Boys,55.79,2,Enrique Serrano,Quinlan Ford,55.07,99.79,65.77,124.74,290.3,Single-ply,SBD,M
Boys,55.79,3,David Alexander #2,Jacksonville,54.79,104.33,70.31,113.4,288.03,Single-ply,SBD,M
Boys,55.79,4,Chad Collup,Scurry-Rosser,54.7,99.79,49.9,115.67,265.35,Single-ply,SBD,M
Boys,59.87,1,Isaiah Payne,Crandall,59.19,183.7,95.25,204.12,483.08,Single-ply,SBD,M
Boys,59.87,1,Gavin Starks,Mabank,56.02,115.67,61.23,124.74,301.64,Single-ply,SBD,M
Boys,59.87,2,Garrett Davis,Quinlan Ford,58.51,149.69,77.11,145.15,371.95,Single-ply,SBD,M
Boys,59.87,4,Bobby Jackson,Jacksonville,57.42,120.2,61.23,127.01,308.44,Single-ply,SBD,M
Boys,59.87,5,Cayden Taylor,Jacksonville,55.88,77.11,56.7,104.33,238.14,Single-ply,SBD,M
Boys,59.87,5,Chase Radney,Quinlan Ford,57.52,102.06,65.77,136.08,303.91,Single-ply,SBD,M
Boys,59.87,6,Kyle Brett,Crandall,57.74,106.59,61.23,120.2,288.03,Single-ply,SBD,M
Boys,59.87,7,Tristan Warren,Scurry-Rosser,56.43,95.25,58.97,,154.22,Single-ply,SB,M
Boys,67.13,1,Clay Conway,Mabank,64.77,183.7,90.72,165.56,439.98,Single-ply,SBD,M
Boys,67.13,2,Wrangler Welch,Quinlan Ford,63.23,145.15,83.91,185.97,415.04,Single-ply,SBD,M
Boys,67.13,3,David Umana,Wills Point,60.1,115.67,65.77,142.88,324.32,Single-ply,SBD,M
Boys,67.13,4,Marcos Gallegos,Mabank,66.68,133.81,92.99,154.22,381.02,Single-ply,SBD,M
Boys,67.13,5,Kole Hartis,Crandall,66.45,138.35,83.91,151.95,374.21,Single-ply,SBD,M
Boys,67.13,6,Bryson Stevens,Bishop Lynch,64.59,133.81,72.57,140.61,347,Single-ply,SBD,M
Boys,67.13,DQ,Trevor Harrell,Wills Point,62.14,124.74,,,,Single-ply,SBD,M
Boys,74.84,1,Dominique McBride,North Mesquite,74.03,226.8,108.86,229.06,564.72,Single-ply,SBD,M
Boys,74.84,2,A'Daireon Madlock,North Mesquite,68.04,206.38,102.06,219.99,528.44,Single-ply,SBD,M
Boys,74.84,3,Travon Crockett,North Mesquite,73.84,158.76,97.52,226.8,483.08,Single-ply,SBD,M
Boys,74.84,3,Brady Manning,Mabank,67.36,149.69,97.52,145.15,392.36,Single-ply,SBD,M
Boys,74.84,4,Deverick Tatum,Jacksonville,74.3,176.9,92.99,210.92,480.81,Single-ply,SBD,M
Boys,74.84,5,Jacob McLean,Scurry-Rosser,72.3,190.51,104.33,183.7,478.54,Single-ply,SBD,M
Boys,74.84,6,Russell Olsen,Quinlan Ford,74.57,181.44,113.4,181.44,476.27,Single-ply,SBD,M
Boys,74.84,7,Presley Luce,Bishop Lynch,72.85,154.22,102.06,199.58,455.86,Single-ply,SBD,M
Boys,74.84,8,Chris Robertson,North Mesquite,68.22,145.15,72.57,170.1,387.82,Single-ply,SBD,M
Boys,74.84,10,Michael Schwartz,Bishop Lynch,74.84,131.54,65.77,136.08,333.39,Single-ply,SBD,M
Boys,74.84,11,Brian Griffin,Scurry-Rosser,71.21,127.01,61.23,140.61,328.85,Single-ply,SBD,M
Boys,74.84,12,Samuel Hughes,Quinlan Ford,68.86,122.47,61.23,136.08,319.78,Single-ply,SBD,M
Boys,74.84,13,Landon Helton,Quinlan Ford,74.03,124.74,68.04,122.47,315.25,Single-ply,SBD,M
Boys,82.1,1,Jermaine Mask,Bishop Lynch,79.83,219.99,111.13,204.12,535.24,Single-ply,SBD,M
Boys,82.1,2,Rome Barnett,North Mesquite,81.37,183.7,104.33,197.31,485.34,Single-ply,SBD,M
Boys,82.1,3,Josh Hull,Wills Point,79.83,161.03,108.86,192.78,462.66,Single-ply,SBD,M
Boys,82.1,4,Jacob Profitt,Mabank,81.19,158.76,102.06,170.1,430.91,Single-ply,SBD,M
Boys,82.1,5,Azaveshe Daniyan,North Mesquite,76.57,158.76,92.99,174.63,426.38,Single-ply,SBD,M
Boys,82.1,6,Micah Beale,Jacksonville,76.02,147.42,102.06,172.37,421.84,Single-ply,SBD,M
Boys,82.1,7,Adam Kirk,Crandall,76.38,136.08,90.72,147.42,374.21,Single-ply,SBD,M
Boys,82.1,8,John Bunch,Quinlan Ford,79.56,113.4,77.11,142.88,333.39,Single-ply,SBD,M
Boys,82.1,9,Grayson Murphy,Bishop Lynch,75.07,136.08,83.91,136.08,356.07,Single-ply,SBD,M
Boys,82.1,DQ,Jayden Evans,Bishop Lynch,75.84,,,,,Single-ply,SBD,M
Boys,82.1,DQ,Kyle Kelly,Scurry-Rosser,80.29,108.86,,,,Single-ply,SBD,M
Boys,89.81,1,Stacy Sublett,North Mesquite,86.73,235.87,108.86,226.8,571.53,Single-ply,SBD,M
Boys,89.81,2,Xavier Hughey,Crandall,88.22,199.58,117.93,204.12,521.63,Single-ply,SBD,M
Boys,89.81,3,Jordan Patterson,North Mesquite,86,156.49,102.06,174.63,433.18,Single-ply,SBD,M
Boys,89.81,4,Horacio Talonia,Quinlan Ford,89.27,158.76,74.84,170.1,403.7,Single-ply,SBD,M
Boys,89.81,5,Ethan Kelly,Scurry-Rosser,84.19,147.42,70.31,156.49,374.21,Single-ply,SBD,M
Boys,89.81,6,Hayden Harrison,Quinlan Ford,89.72,79.38,47.63,88.45,215.46,Single-ply,SBD,M
Boys,99.79,1,Brandon Melton,Quinlan Ford,98.52,242.67,142.88,190.51,576.06,Single-ply,SBD,M
Boys,99.79,2,Trent Mills,Crandall,92.99,197.31,136.08,206.38,539.77,Single-ply,SBD,M
Boys,99.79,3,Tyriq Burnett,Wills Point,97.34,190.51,129.27,213.19,532.97,Single-ply,SBD,M
Boys,99.79,4,Sloan Rodburg,Wills Point,98.16,197.31,136.08,195.04,528.44,Single-ply,SBD,M
Boys,99.79,5,Kevin Pouncil,North Mesquite,96.98,183.7,124.74,195.04,503.49,Single-ply,SBD,M
Boys,99.79,6,Flavio Hernandez,Jacksonville,93.35,174.63,127.01,195.04,496.68,Single-ply,SBD,M
Boys,99.79,7,Emmitt Eckler,Jacksonville,98.61,170.1,133.81,185.97,489.88,Single-ply,SBD,M
Boys,99.79,8,Dalan Clowdus,Mabank,93.35,165.56,122.47,174.63,462.66,Single-ply,SBD,M
Boys,99.79,9,Alex Hernandez,Bishop Lynch,98.43,190.51,99.79,170.1,460.4,Single-ply,SBD,M
Boys,99.79,10,Charles Miller,Quinlan Ford,96.89,147.42,113.4,163.29,424.11,Single-ply,SBD,M
Boys,99.79,11,Cole Miller,Quinlan Ford,98.16,113.4,79.38,140.61,333.39,Single-ply,SBD,M
Boys,109.77,1,Andrew Hardman,Wills Point,105.78,260.82,129.27,190.51,580.6,Single-ply,SBD,M
Boys,109.77,2,Wooda Johnson,Jacksonville,100.24,197.31,145.15,204.12,546.58,Single-ply,SBD,M
Boys,109.77,3,Stephen Turner,North Mesquite,104.87,183.7,117.93,231.33,532.97,Single-ply,SBD,M
Boys,109.77,4,Jeremy Landess,Scurry-Rosser,103.15,204.12,108.86,204.12,517.1,Single-ply,SBD,M
Boys,109.77,5,Anthony Urieta,Bishop Lynch,106.05,199.58,111.13,204.12,514.83,Single-ply,SBD,M
Boys,109.77,6,Zandrick Morrow,Jacksonville,105.41,170.1,113.4,208.65,492.15,Single-ply,SBD,M
Boys,109.77,7,Brody Bushnell,Wills Point,105.41,183.7,104.33,199.58,487.61,Single-ply,SBD,M
Boys,109.77,8,Brandon Pierce,Mabank,102.78,183.7,113.4,188.24,485.34,Single-ply,SBD,M
Boys,109.77,9,Gage Graham,Mabank,108.95,170.1,136.08,158.76,464.93,Single-ply,SBD,M
Boys,109.77,10,Errin Davis,North Mesquite,106.96,154.22,92.99,204.12,451.32,Single-ply,SBD,M
Boys,109.77,11,Matthew Bryant,Quinlan Ford,105.14,165.56,83.91,163.29,412.77,Single-ply,SBD,M
Boys,109.77,12,Hunter Carter,Quinlan Ford,101.79,149.69,92.99,142.88,385.55,Single-ply,SBD,M
Boys,109.77,13,Christian Williams #3,Scurry-Rosser,107.14,117.93,63.5,129.27,310.71,Single-ply,SBD,M
Boys,124.74,1,Noel Rojo,Mabank,118.21,224.53,136.08,204.12,564.72,Single-ply,SBD,M
Boys,124.74,2,Sergio Cabrera,Jacksonville,119.57,215.46,136.08,197.31,548.85,Single-ply,SBD,M
Boys,124.74,3,Javier Utrera,Quinlan Ford,122.11,215.46,138.35,181.44,535.24,Single-ply,SBD,M
Boys,124.74,4,Ethan Huff,Crandall,111.58,206.38,113.4,181.44,501.22,Single-ply,SBD,M
Boys,124.74,5,Daltin Long,Mabank,119.48,190.51,115.67,165.56,471.74,Single-ply,SBD,M
Boys,124.74,6,Bryce Stavinoha,Scurry-Rosser,124.38,163.29,106.59,170.1,439.98,Single-ply,SBD,M
Boys,124.74,7,Daniel Sánchez,Quinlan Ford,113.4,174.63,90.72,167.83,433.18,Single-ply,SBD,M
Boys,124.74,8,Chris Palmer,Scurry-Rosser,110.86,174.63,92.99,154.22,421.84,Single-ply,SBD,M
Boys,124.74,DQ,Richard Worthington,Scurry-Rosser,111.49,136.08,,,,Single-ply,SBD,M
Boys,124.74,DQ,Jackson Dewbre,Bishop Lynch,112.4,102.06,,,,Single-ply,SBD,M
Boys,124.74+,1,Jonathan Amaro,Wills Point,132,249.48,133.81,199.58,582.87,Single-ply,SBD,M
Boys,124.74+,2,Kevin Turner,Mabank,141.7,226.8,136.08,174.63,537.51,Single-ply,SBD,M
Boys,124.74+,3,Braydon Jones,Wills Point,133.45,201.85,92.99,161.03,455.86,Single-ply,SBD,M
Boys,124.74+,4,Matao Jacinto,Quinlan Ford,157.85,136.08,90.72,138.35,365.14,Single-ply,SBD,M
Boys,124.74+,DQ,John Latimer,Quinlan Ford,129.73,,,,,Single-ply,SBD,M
