Division,WeightClassKg,Place,Name,Team,BodyweightKg,Best3SquatKg,Best3BenchKg,Best3DeadliftKg,TotalKg,Equipment,Event,Sex
Boys,51.71,1,Dylan Elkins,Needville,51.71,145.15,104.33,145.15,394.63,Single-ply,SBD,M
Boys,51.71,2,Fernando Valdez,Needville,51.26,92.99,61.23,124.74,278.96,Single-ply,SBD,M
Boys,51.71,DQ,Martel Deshotel,Houston Chavez,51.71,,,,,Single-ply,SBD,M
Boys,55.79,1,Cecilio Hernandez,Dickinson,53.52,151.95,70.31,147.42,369.68,Single-ply,SBD,M
Boys,55.79,2,Trey Marerro,Alvin,54.43,133.81,74.84,149.69,358.34,Single-ply,SBD,M
Boys,55.79,3,Jacob Ryder,Needville,55.79,117.93,86.18,154.22,358.34,Single-ply,SBD,M
Boys,55.79,4,Bryant Roman,Alvin,52.62,117.93,79.38,147.42,344.73,Single-ply,SBD,M
Boys,55.79,5,Javon Boutte,Houston Madison,52.62,136.08,68.04,113.4,317.51,Single-ply,SBD,M
Boys,55.79,6,Chris Garza,Ganado,55.79,129.27,79.38,106.59,315.25,Single-ply,SBD,M
Boys,55.79,7,Francisco Pineda,Houston Milby,54.61,81.65,61.23,127.01,269.89,Single-ply,SBD,M
Boys,55.79,8,Morgan Vrazel,Danbury,53.52,70.31,43.09,70.31,183.7,Single-ply,SBD,M
Boys,55.79,DQ,Eddie Ramos,Ganado,55.79,,,,,Single-ply,SBD,M
Boys,55.79,DQ,Archibal Alonzo,La Marque,55.79,,,,,Single-ply,SBD,M
Boys,55.79,DQ,Sean Glover,Danbury,55.79,,,,,Single-ply,SBD,M
Boys,59.87,1,Ja'Core Aldridge,La Marque,59.87,201.85,108.86,226.8,537.51,Single-ply,SBD,M
Boys,59.87,2,Michael Latapie,Palacios,59.87,176.9,133.81,176.9,487.61,Single-ply,SBD,M
Boys,59.87,3,Anthony Grimes,Katy Mayde Creek,59.87,174.63,106.59,204.12,485.34,Single-ply,SBD,M
Boys,59.87,4,DeMarco Corner,Manvel,59.87,156.49,90.72,167.83,415.04,Single-ply,SBD,M
Boys,59.87,5,Leo Gonzalez,Alvin,59.87,133.81,99.79,179.17,412.77,Single-ply,SBD,M
Boys,59.87,6,Pedro Vasquez,Katy Mayde Creek,59.87,142.88,90.72,165.56,399.16,Single-ply,SBD,M
Boys,59.87,7,Isaac Cervantes,Needville,58.74,129.27,74.84,147.42,351.53,Single-ply,SBD,M
Boys,59.87,8,Luigi Ramirez,Houston Milby,58.51,120.2,68.04,124.74,312.98,Single-ply,SBD,M
Boys,59.87,9,Nathan Tellez,Houston Milby,59.87,102.06,63.5,122.47,288.03,Single-ply,SBD,M
Boys,59.87,10,David Glover,Danbury,59.87,111.13,70.31,102.06,283.5,Single-ply,SBD,M
Boys,59.87,11,Jocob Mears,Beaumont Ozen,59.87,83.91,63.5,124.74,272.16,Single-ply,SBD,M
Boys,59.87,12,Kyle Jones,Needville,59.87,86.18,70.31,102.06,258.55,Single-ply,SBD,M
Boys,59.87,DQ,Dillion Billiot,La Marque,59.87,,,,,Single-ply,SBD,M
Boys,59.87,DQ,Hunter Keszler,Ganado,59.87,138.35,72.57,,,Single-ply,SBD,M
Boys,67.13,1,Zach Konieczny,Sealy,67.13,208.65,133.81,199.58,542.04,Single-ply,SBD,M
Boys,67.13,2,Josh Salas,Katy Mayde Creek,67.13,206.38,106.59,213.19,526.17,Single-ply,SBD,M
Boys,67.13,3,Jesse Trevino,Houston Milby,67.13,183.7,115.67,199.58,498.95,Single-ply,SBD,M
Boys,67.13,4,Jose Jimenez,Palacios,67.13,190.51,115.67,192.78,498.95,Single-ply,SBD,M
Boys,67.13,5,Thomas Bridges,Dickinson,67.13,165.56,102.06,167.83,435.45,Single-ply,SBD,M
Boys,67.13,6,Alec DeLeon,Dickinson,67.13,163.29,90.72,158.76,412.77,Single-ply,SBD,M
Boys,67.13,7,Sergio Olvera,Needville,67.13,129.27,86.18,158.76,374.21,Single-ply,SBD,M
Boys,67.13,8,Orlando Valdez,Houston Chavez,67.13,111.13,74.84,142.88,328.85,Single-ply,SBD,M
Boys,67.13,DQ,Christian Egans,Crosby,67.13,,,,,Single-ply,SBD,M
Boys,67.13,DQ,Bryston Braziel,Stafford,67.13,,,,,Single-ply,SBD,M
Boys,67.13,DQ,Osvaldo Sardina,Danbury,67.13,,,,,Single-ply,SBD,M
Boys,67.13,DQ,Jeff Ryan,Danbury,67.13,,,,,Single-ply,SBD,M
Boys,67.13,DQ,Cutberto Ramos,Ganado,67.13,163.29,113.4,,,Single-ply,SBD,M
Boys,67.13,DQ,Jamal Sims,Houston Madison,67.13,183.7,,,,Single-ply,SBD,M
Boys,74.84,1,Matthew Nguyen,Palacios,74.84,222.26,106.59,233.6,562.45,Single-ply,SBD,M
Boys,74.84,2,Ryan McBride,Dayton,74.84,210.92,115.67,201.85,528.44,Single-ply,SBD,M
Boys,74.84,3,Nick Rodriguez,Manvel,71.67,204.12,102.06,188.24,494.42,Single-ply,SBD,M
Boys,74.84,4,Cameron Rhodman,Beaumont Ozen,74.84,195.04,88.45,208.65,492.15,Single-ply,SBD,M
Boys,74.84,5,Jerel Garner,Houston Madison,68.49,174.63,86.18,195.04,455.86,Single-ply,SBD,M
Boys,74.84,6,Alan Cooper,La Marque,74.84,142.88,83.91,181.44,408.23,Single-ply,SBD,M
Boys,74.84,7,Grexton Kaywood,Houston Madison,74.84,136.08,95.25,149.69,381.02,Single-ply,SBD,M
Boys,74.84,8,Elisio Hercules,Houston Westbury,73.03,124.74,92.99,142.88,360.61,Single-ply,SBD,M
Boys,74.84,9,Cristo Sanchez,Houston Milby,74.84,113.4,74.84,161.03,349.27,Single-ply,SBD,M
Boys,74.84,10,Reggie Papillion,La Marque,74.84,127.01,68.04,142.88,337.93,Single-ply,SBD,M
Boys,74.84,11,Charles Paris,La Marque,74.84,106.59,74.84,149.69,331.12,Single-ply,SBD,M
Boys,74.84,DQ,Brandon Jenkins,Houston Chavez,74.84,,,,,Single-ply,SBD,M
Boys,74.84,DQ,Travonn Moore,Fort Bend Travis,74.84,,,,,Single-ply,SBD,M
Boys,82.1,1,Christian Andrews,Beaumont Ozen,82.1,251.74,161.03,254.01,666.78,Single-ply,SBD,M
Boys,82.1,2,Justin Gary,Dickinson,82.1,240.4,167.83,226.8,635.03,Single-ply,SBD,M
Boys,82.1,3,Victor Tran,Dickinson,79.38,251.74,136.08,222.26,610.08,Single-ply,SBD,M
Boys,82.1,4,Darius Thornton,Houston Westbury,82.1,213.19,131.54,210.92,555.65,Single-ply,SBD,M
Boys,82.1,5,Chane Bodden,Katy Mayde Creek,82.1,208.65,117.93,192.78,519.36,Single-ply,SBD,M
Boys,82.1,6,Daniel Douglas,Dayton,75.75,192.78,108.86,204.12,505.76,Single-ply,SBD,M
Boys,82.1,7,Eddie Martinez,Sealy,82.1,181.44,108.86,188.24,478.54,Single-ply,SBD,M
Boys,82.1,8,Travon Ellis,Houston Chavez,82.1,185.97,97.52,190.51,474,Single-ply,SBD,M
Boys,82.1,9,Chris Jackson,La Marque,82.1,188.24,108.86,174.63,471.74,Single-ply,SBD,M
Boys,82.1,10,Nathaniel Ozen,Dayton,82.1,181.44,88.45,201.85,471.74,Single-ply,SBD,M
Boys,82.1,11,Chris Okwegba,Alief Taylor,75.3,185.97,92.99,183.7,462.66,Single-ply,SBD,M
Boys,82.1,12,Christopher Lewis,Beaumont Ozen,82.1,176.9,90.72,188.24,455.86,Single-ply,SBD,M
Boys,82.1,13,Josh Cruz,Alief Taylor,82.1,154.22,104.33,183.7,442.25,Single-ply,SBD,M
Boys,82.1,14,Ramon Garcia,Crosby,82.1,136.08,102.06,161.03,399.16,Single-ply,SBD,M
Boys,82.1,15,Patrick Scopel,Danbury,82.1,151.95,83.91,151.95,387.82,Single-ply,SBD,M
Boys,82.1,16,Sarketian Thomas,Beaumont Ozen,78.02,124.74,68.04,136.08,328.85,Single-ply,SBD,M
Boys,82.1,17,Ty Cammack,Needville,82.1,102.06,77.11,113.4,292.57,Single-ply,SBD,M
Boys,82.1,DQ,Andrew Hammer,Crosby,82.1,,,,,Single-ply,SBD,M
Boys,82.1,DQ,Jamaud St Andre,Dayton,82.1,,,,,Single-ply,SBD,M
Boys,82.1,DQ,Brandon Pitre,Manvel,82.1,199.58,136.08,,,Single-ply,SBD,M
Boys,82.1,DQ,Sterling Brumant,Katy Mayde Creek,82.1,165.56,108.86,,,Single-ply,SBD,M
Boys,82.1,DQ,Kyle Leal,Crosby,82.1,,,,,Single-ply,SBD,M
Boys,89.81,1,Anthony Breed,Beaumont Ozen,89.81,215.46,156.49,247.21,619.15,Single-ply,SBD,M
Boys,89.81,2,Xavier Benitez,Katy Mayde Creek,89.81,226.8,142.88,226.8,596.47,Single-ply,SBD,M
Boys,89.81,3,Donovon Jackson,Dayton,89.81,204.12,138.35,233.6,576.06,Single-ply,SBD,M
Boys,89.81,4,Keith Collins,Alvin,89.81,219.99,133.81,204.12,557.92,Single-ply,SBD,M
Boys,89.81,5,Deion Lilly,Alief Taylor,89.36,192.78,154.22,204.12,551.11,Single-ply,SBD,M
Boys,89.81,6,Floyd Simmons,La Marque,89.81,204.12,117.93,226.8,548.85,Single-ply,SBD,M
Boys,89.81,7,Toney Robinson,Dayton,89.81,213.19,129.27,197.31,539.77,Single-ply,SBD,M
Boys,89.81,8,Luis Escobedo,Needville,89.81,199.58,124.74,167.83,492.15,Single-ply,SBD,M
Boys,89.81,9,Chris Izaguirre,Houston Chavez,89.81,181.44,90.72,219.99,492.15,Single-ply,SBD,M
Boys,89.81,10,Marco Flores,Stafford,89.81,183.7,106.59,188.24,478.54,Single-ply,SBD,M
Boys,89.81,11,Johnny Peters,Houston Westbury,89.81,174.63,117.93,185.97,478.54,Single-ply,SBD,M
Boys,89.81,12,Shervon Guiste,Alief Taylor,83.46,170.1,102.06,204.12,476.27,Single-ply,SBD,M
Boys,89.81,13,Trevon Asbury,Houston Westbury,89.81,145.15,106.59,181.44,433.18,Single-ply,SBD,M
Boys,89.81,14,Benji Meche,Crosby,89.81,154.22,111.13,149.69,415.04,Single-ply,SBD,M
Boys,89.81,15,Carlos Zenzen,Needville,83.91,181.44,90.72,136.08,408.23,Single-ply,SBD,M
Boys,89.81,16,Kamron Redwell,La Marque,82.78,106.59,61.23,102.06,269.89,Single-ply,SBD,M
Boys,89.81,DQ,Eric Owens,Crosby,89.81,,,,,Single-ply,SBD,M
Boys,89.81,DQ,Dillon Anderson #2,Katy Mayde Creek,89.81,,,,,Single-ply,SBD,M
Boys,89.81,DQ,Michael Igwe,Fort Bend Travis,89.81,,,,,Single-ply,SBD,M
Boys,89.81,DQ,Ikenna Amaliri,Fort Bend Travis,89.81,,,,,Single-ply,SBD,M
Boys,89.81,DQ,Cade Cihal,Ganado,89.81,,,,,Single-ply,SBD,M
Boys,89.81,DQ,Chase Nix,Crosby,89.36,170.1,113.4,,,Single-ply,SBD,M
Boys,89.81,DQ,Antonio Montoya,Baytown Lee,89.81,156.49,,,,Single-ply,SBD,M
Boys,89.81,DQ,Jovito Mendez,Needville,85.5,190.51,,,,Single-ply,SBD,M
Boys,89.81,DQ,Russell Taylor #3,Needville,83.01,181.44,104.33,,,Single-ply,SBD,M
Boys,99.79,1,Roderick Wiltz,Houston Madison,99.79,272.16,149.69,249.48,671.32,Single-ply,SBD,M
Boys,99.79,2,Alvin Nguyen,Alief Taylor,99.79,238.14,136.08,206.38,580.6,Single-ply,SBD,M
Boys,99.79,3,Naren Medrano,Manvel,99.79,226.8,124.74,201.85,553.38,Single-ply,SBD,M
Boys,99.79,4,Gerardo Torres,Houston Madison,99.79,217.72,108.86,226.8,553.38,Single-ply,SBD,M
Boys,99.79,5,Cyril Clarke,Alief Taylor,91.63,208.65,124.74,217.72,551.11,Single-ply,SBD,M
Boys,99.79,6,Juan Lopez,Palacios,90.26,192.78,120.2,231.33,544.31,Single-ply,SBD,M
Boys,99.79,7,Kaleb Campbell,Alief Taylor,99.79,226.8,117.93,181.44,526.17,Single-ply,SBD,M
Boys,99.79,8,Nick Goza,Needville,99.79,192.78,117.93,204.12,514.83,Single-ply,SBD,M
Boys,99.79,9,Jose Aguilar,Pasadena Memorial,95.25,204.12,111.13,195.04,510.29,Single-ply,SBD,M
Boys,99.79,10,Jalen Leviege,Alief Taylor,91.63,185.97,124.74,195.04,505.76,Single-ply,SBD,M
Boys,99.79,11,Ozzy Dowdy,Dickinson,99.79,204.12,108.86,190.51,503.49,Single-ply,SBD,M
Boys,99.79,12,Calub Osborn,Danbury,99.79,181.44,102.06,181.44,464.93,Single-ply,SBD,M
Boys,99.79,13,Kyle Dunk,Needville,99.79,188.24,102.06,165.56,455.86,Single-ply,SBD,M
Boys,99.79,14,Kenneth Edwards,La Marque,99.79,170.1,113.4,154.22,437.72,Single-ply,SBD,M
Boys,99.79,15,Austin Solomon,Danbury,99.79,138.35,83.91,147.42,369.68,Single-ply,SBD,M
Boys,99.79,16,Dacory Harris,Beaumont Ozen,99.79,131.54,74.84,149.69,356.07,Single-ply,SBD,M
Boys,99.79,17,Davion Harris,Beaumont Ozen,99.79,102.06,86.18,149.69,337.93,Single-ply,SBD,M
Boys,99.79,18,Deshondrick Sellman,Beaumont Ozen,99.34,77.11,56.7,113.4,247.21,Single-ply,SBD,M
Boys,99.79,DQ,Valdemar Hernandez,Crosby,99.79,,,,,Single-ply,SBD,M
Boys,99.79,DQ,Jonathan Rosales,Houston Milby,99.79,,,,,Single-ply,SBD,M
Boys,99.79,DQ,Terrell Campbell,Alief Taylor,99.79,,,,,Single-ply,SBD,M
Boys,99.79,DQ,Scott Duke,Dickinson,99.79,244.94,,,,Single-ply,SBD,M
Boys,99.79,DQ,Cameron Eiland,Dayton,99.79,242.67,138.35,,,Single-ply,SBD,M
Boys,109.77,1,Adam Aucoin,Palacios,109.77,299.37,176.9,240.4,716.68,Single-ply,SBD,M
Boys,109.77,2,Cody Gonzalez,Manvel,109.77,272.16,117.93,249.48,639.57,Single-ply,SBD,M
Boys,109.77,3,Chris Shepherd,Alvin,109.77,254.01,136.08,226.8,616.89,Single-ply,SBD,M
Boys,109.77,4,Dijon Moon,Channelview,104.33,244.94,131.54,238.14,614.62,Single-ply,SBD,M
Boys,109.77,5,Devar Brown,Houston Westbury,109.77,217.72,129.27,226.8,573.79,Single-ply,SBD,M
Boys,109.77,6,Tramonte Green,Crosby,109.77,199.58,129.27,195.04,523.9,Single-ply,SBD,M
Boys,109.77,7,Young Troung,Alief Taylor,109.77,208.65,113.4,197.31,519.36,Single-ply,SBD,M
Boys,109.77,8,Eduardo Moran,Katy Mayde Creek,100.24,215.46,106.59,192.78,514.83,Single-ply,SBD,M
Boys,109.77,9,Alex Negrete-Cuevas,Baytown Lee,104.78,183.7,106.59,215.46,505.76,Single-ply,SBD,M
Boys,109.77,10,Terell Wiltz,Houston Westbury,109.77,154.22,127.01,222.26,503.49,Single-ply,SBD,M
Boys,109.77,11,Chris Dowdy,Dickinson,109.77,204.12,97.52,192.78,494.42,Single-ply,SBD,M
Boys,109.77,12,Nestor Gonzalez,Houston Milby,109.77,181.44,108.86,192.78,483.08,Single-ply,SBD,M
Boys,109.77,13,Andrew Velasco,Katy Mayde Creek,109.77,181.44,97.52,158.76,437.72,Single-ply,SBD,M
Boys,109.77,14,Oris Granger,Beaumont Ozen,109.32,106.59,72.57,108.86,288.03,Single-ply,SBD,M
Boys,109.77,DQ,Taylor Herman,Crosby,109.77,,,,,Single-ply,SBD,M
Boys,109.77,DQ,Keylon Harris,Manvel,109.77,,,,,Single-ply,SBD,M
Boys,109.77,DQ,Dewan Edmonson,Manvel,109.77,,,,,Single-ply,SBD,M
Boys,109.77,DQ,Jon London,Houston Chavez,109.77,,,,,Single-ply,SBD,M
Boys,109.77,DQ,Noel Mendoza,Houston Chavez,102.06,151.95,,,,Single-ply,SBD,M
Boys,109.77,DQ,Phillip Thomas,Alief Taylor,101.15,170.1,102.06,,,Single-ply,SBD,M
Boys,124.74,1,Andrew Granville,Channelview,121.56,254.01,142.88,215.46,612.35,Single-ply,SBD,M
Boys,124.74,2,James Marin,Alvin,124.74,229.06,163.29,210.92,603.28,Single-ply,SBD,M
Boys,124.74,3,Deon Thornton,Houston Westbury,124.74,217.72,140.61,240.4,598.74,Single-ply,SBD,M
Boys,124.74,4,Taylor Romero,Manvel,124.74,222.26,111.13,242.67,576.06,Single-ply,SBD,M
Boys,124.74,5,Ismail Hassan,Katy Mayde Creek,110.68,231.33,138.35,199.58,569.26,Single-ply,SBD,M
Boys,124.74,6,Jose Reyes,Stafford,123.15,224.53,133.81,192.78,551.11,Single-ply,SBD,M
Boys,124.74,7,Adam Eubanks,Dickinson,124.74,217.72,120.2,204.12,542.04,Single-ply,SBD,M
Boys,124.74,8,Sergio Arredondo,Manvel,110.22,210.92,111.13,213.19,535.24,Single-ply,SBD,M
Boys,124.74,9,Marcus Trent,Baytown Lee,111.13,195.04,147.42,192.78,535.24,Single-ply,SBD,M
Boys,124.74,10,Alex Cruz,Pasadena Memorial,124.74,195.04,129.27,181.44,505.76,Single-ply,SBD,M
Boys,124.74,11,Ernesto Sarabia,Baytown Lee,111.58,165.56,142.88,192.78,501.22,Single-ply,SBD,M
Boys,124.74,12,Tristan Guerra,Pasadena Memorial,124.74,199.58,99.79,190.51,489.88,Single-ply,SBD,M
Boys,124.74,13,Jarod Robles,Pasadena Memorial,124.74,181.44,95.25,181.44,458.13,Single-ply,SBD,M
Boys,124.74,14,Gabe Johnson,Pasadena Memorial,124.74,154.22,113.4,176.9,444.52,Single-ply,SBD,M
Boys,124.74,DQ,Josh Opiela,Crosby,124.74,,,,,Single-ply,SBD,M
Boys,124.74,DQ,Marlon Jackson,Houston Westbury,124.74,,,,,Single-ply,SBD,M
Boys,124.74,DQ,Eduardo Favela,Houston Chavez,124.74,,,,,Single-ply,SBD,M
Boys,124.74,DQ,Oshaun Lewis,Houston Westbury,124.74,,,,,Single-ply,SBD,M
Boys,124.74,DQ,Matthew Oubre,Dayton,124.74,254.01,,,,Single-ply,SBD,M
Boys,124.74+,1,Byron Williams,Dickinson,125.19,285.76,145.15,299.37,730.28,Single-ply,SBD,M
Boys,124.74+,2,Travis Romero,Manvel,125.19,317.51,161.03,249.48,728.02,Single-ply,SBD,M
Boys,124.74+,3,Charles Phillips,Houston Madison,125.19,274.42,192.78,210.92,678.12,Single-ply,SBD,M
Boys,124.74+,4,Joe Lloreda,Dickinson,125.19,267.62,165.56,233.6,666.78,Single-ply,SBD,M
Boys,124.74+,5,William Simpson,Houston Madison,127.01,254.01,154.22,226.8,635.03,Single-ply,SBD,M
Boys,124.74+,6,Jacob Butterfield,Dayton,125.19,240.4,145.15,229.06,614.62,Single-ply,SBD,M
Boys,124.74+,7,Shawnese Lawson,La Marque,125.19,226.8,151.95,217.72,596.47,Single-ply,SBD,M
Boys,124.74+,8,Kyle Tamase,Manvel,127.46,244.94,117.93,210.92,573.79,Single-ply,SBD,M
Boys,124.74+,9,Darin Slater,Dickinson,125.19,231.33,113.4,204.12,548.85,Single-ply,SBD,M
Boys,124.74+,10,Anthony Garza,Pasadena Memorial,125.19,204.12,124.74,172.37,501.22,Single-ply,SBD,M
Boys,124.74+,11,Robert Geissen,Danbury,125.19,190.51,99.79,192.78,483.08,Single-ply,SBD,M
Boys,124.74+,12,Aaron Evans,Pasadena Memorial,125.19,176.9,99.79,192.78,469.47,Single-ply,SBD,M
Boys,124.74+,13,Kevin Arcizo,Houston Milby,125.19,163.29,92.99,163.29,419.57,Single-ply,SBD,M
Boys,124.74+,14,Bryan Foster,Beaumont Ozen,125.19,165.56,90.72,163.29,419.57,Single-ply,SBD,M
Boys,124.74+,15,Antonio Cavazos,Pasadena Memorial,125.19,127.01,90.72,174.63,392.36,Single-ply,SBD,M
Boys,124.74+,DQ,Ismael Zuniga,Houston Chavez,125.19,,,,,Single-ply,SBD,M
Boys,124.74+,DQ,Lee Holts,Baytown Lee,125.19,,,,,Single-ply,SBD,M
