Division,WeightClassKg,Place,Name,Team,BodyweightKg,Best3SquatKg,Best3BenchKg,Best3DeadliftKg,TotalKg,Equipment,Event,Sex
Boys,51.71,1,Brandon Parish,Galveston Ball,51.71,113.4,70.31,127.01,310.71,Single-ply,SBD,M
Boys,51.71,2,Sean Loyola,Stafford,49.9,104.33,45.36,124.74,274.42,Single-ply,SBD,M
Boys,51.71,3,Thomas Gray,Galveston Ball,51.71,74.84,52.16,106.59,233.6,Single-ply,SBD,M
Boys,55.79,1,Gabe Aguilar,La Porte,52.44,102.06,65.77,129.27,297.1,Single-ply,SBD,M
Boys,55.79,2,Ivan Sifuentes,Hitchcock,55.79,86.18,61.23,136.08,283.5,Single-ply,SBD,M
Boys,55.79,3,Davion Clark,La Porte,55.79,102.06,68.04,113.4,283.5,Single-ply,SBD,M
Boys,59.87,1,Devin Allen,Hitchcock,59.87,102.06,77.11,117.93,297.1,Single-ply,SBD,M
Boys,59.87,2,Jesse Canell,Stafford,59.87,102.06,72.57,111.13,285.76,Single-ply,SBD,M
Boys,59.87,DQ,Sergio Vences,La Porte,59.87,,,,,Single-ply,SBD,M
Boys,67.13,1,Deandre Swann,Galveston Ball,66.22,138.35,90.72,181.44,410.5,Single-ply,SBD,M
Boys,67.13,2,James McDaniel,La Porte,61.23,92.99,74.84,124.74,292.57,Single-ply,SBD,M
Boys,74.84,1,Jeremy McNeal,La Porte,74.84,170.1,136.08,192.78,498.95,Single-ply,SBD,M
Boys,74.84,2,Jamarcus McCardell,Hitchcock,74.84,156.49,95.25,183.7,435.45,Single-ply,SBD,M
Boys,74.84,3,Robert Garcia,Santa Fe,74.84,142.88,92.99,199.58,435.45,Single-ply,SBD,M
Boys,74.84,4,Emmanuel Bankole,Stafford,71.21,158.76,81.65,165.56,405.97,Single-ply,SBD,M
Boys,74.84,5,Dwight Tucker,Pasadena Dobie,69.4,129.27,95.25,149.69,374.21,Single-ply,SBD,M
Boys,74.84,6,Ernal Mayberry,Galveston Ball,68.49,142.88,90.72,131.54,365.14,Single-ply,SBD,M
Boys,82.1,1,Chris Garcia,Pasadena Dobie,78.93,163.29,120.2,183.7,467.2,Single-ply,SBD,M
Boys,82.1,2,Montez Scott,La Porte,82.1,170.1,120.2,149.69,439.98,Single-ply,SBD,M
Boys,82.1,3,Joseph Valdez,Texas City,80.29,142.88,104.33,176.9,424.11,Single-ply,SBD,M
Boys,82.1,4,Alcin Hammon,Hitchcock,77.56,149.69,102.06,158.76,410.5,Single-ply,SBD,M
Boys,82.1,5,Aaron Daly,Texas City,79.83,149.69,90.72,149.69,390.09,Single-ply,SBD,M
Boys,82.1,6,Anthony Messer,Texas City,82.1,163.29,,183.7,347,Single-ply,SD,M
Boys,89.81,1,Daniel Wilkerson,Santa Fe,86.64,265.35,208.65,272.16,746.16,Single-ply,SBD,M
Boys,89.81,2,Chris Hall,Santa Fe,89.81,219.99,163.29,251.74,635.03,Single-ply,SBD,M
Boys,89.81,3,Ryan Higgins,Texas City,84.82,190.51,92.99,183.7,467.2,Single-ply,SBD,M
Boys,89.81,4,Xavier Woodard,Stafford,88.9,165.56,129.27,170.1,464.93,Single-ply,SBD,M
Boys,89.81,5,Darian Hayes,Texas City,85.73,117.93,124.74,183.7,426.38,Single-ply,SBD,M
Boys,89.81,6,Chris Scott,Hitchcock,89.81,151.95,83.91,158.76,394.63,Single-ply,SBD,M
Boys,89.81,DQ,Terris Miller,Texas City,83.46,,,,,Single-ply,SBD,M
Boys,99.79,1,Savon Caldwell,Texas City,94.35,247.21,124.74,226.8,598.74,Single-ply,SBD,M
Boys,99.79,2,Dj Sweeny,Santa Fe,95.71,204.12,156.49,201.85,562.45,Single-ply,SBD,M
Boys,99.79,3,Aaron Oats,Stafford,99.79,199.58,124.74,199.58,523.9,Single-ply,SBD,M
Boys,99.79,4,Michael Canada,Galveston Ball,99.79,185.97,122.47,190.51,498.95,Single-ply,SBD,M
Boys,99.79,5,Adrian Crockett,Galveston Ball,99.79,181.44,108.86,192.78,483.08,Single-ply,SBD,M
Boys,99.79,6,Otis Johnson,Texas City,92.08,149.69,117.93,163.29,430.91,Single-ply,SBD,M
Boys,99.79,7,Jacob Reynoso,Pasadena Dobie,92.99,151.95,95.25,170.1,417.3,Single-ply,SBD,M
Boys,109.77,1,Justin Rice,Pasadena Dobie,104.78,258.55,145.15,263.08,666.78,Single-ply,SBD,M
Boys,109.77,2,Darrian Lavergne,Pasadena Dobie,101.6,204.12,115.67,206.38,526.17,Single-ply,SBD,M
Boys,109.77,3,Travis Gray,Santa Fe,104.33,151.95,124.74,174.63,451.32,Single-ply,SBD,M
Boys,109.77,4,Jeramy Hart,Hitchcock,109.77,,92.99,165.56,258.55,Single-ply,BD,M
Boys,109.77,DQ,Tony Briones,La Porte,109.77,,,,,Single-ply,BD,M
Boys,124.74,1,Andrew Bletsch,Santa Fe,120.66,283.5,215.46,294.84,793.79,Single-ply,SBD,M
Boys,124.74,2,Lane Mauldin,Santa Fe,121.56,226.8,129.27,210.92,566.99,Single-ply,SBD,M
Boys,124.74,3,Malcolm Glover,Pasadena Dobie,120.66,188.24,145.15,226.8,560.19,Single-ply,SBD,M
Boys,124.74,4,Corey Lee,La Porte,124.74,204.12,136.08,204.12,544.31,Single-ply,SBD,M
Boys,124.74,5,Josh Basquez,Pasadena Dobie,114.76,188.24,111.13,170.1,469.47,Single-ply,SBD,M
Boys,124.74,6,Leland Brown,Galveston Ball,124.74,170.1,113.4,181.44,464.93,Single-ply,SBD,M
Boys,124.74,7,Nico Ortiz,Texas City,121.11,170.1,102.06,158.76,430.91,Single-ply,SBD,M
Boys,124.74,8,Mike Franklin,Texas City,116.12,190.51,,,190.51,Single-ply,S,M
Boys,124.74+,1,Maurice Morris,La Porte,136.08,265.35,142.88,238.14,646.37,Single-ply,SBD,M
Boys,124.74+,2,Joe Brewer,La Porte,136.08,251.74,129.27,204.12,585.13,Single-ply,SBD,M
Boys,124.74+,3,Larry Smith,La Porte,136.08,235.87,158.76,183.7,578.33,Single-ply,SBD,M
Boys,124.74+,4,Morgan Bacon,Galveston Ball,126.55,179.17,131.54,222.26,532.97,Single-ply,SBD,M
Boys,124.74+,5,Adley Lai,Stafford,139.25,192.78,102.06,197.31,492.15,Single-ply,SBD,M
Boys,124.74+,6,Luis Cavazos,Texas City,136.08,215.46,102.06,142.88,460.4,Single-ply,SBD,M
